\relax 
\providecommand\hyper@newdestlabel[2]{}
\providecommand\HyperFirstAtBeginDocument{\AtBeginDocument}
\HyperFirstAtBeginDocument{\ifx\hyper@anchor\@undefined
\global\let\oldcontentsline\contentsline
\gdef\contentsline#1#2#3#4{\oldcontentsline{#1}{#2}{#3}}
\global\let\oldnewlabel\newlabel
\gdef\newlabel#1#2{\newlabelxx{#1}#2}
\gdef\newlabelxx#1#2#3#4#5#6{\oldnewlabel{#1}{{#2}{#3}}}
\AtEndDocument{\ifx\hyper@anchor\@undefined
\let\contentsline\oldcontentsline
\let\newlabel\oldnewlabel
\fi}
\fi}
\global\let\hyper@last\relax 
\gdef\HyperFirstAtBeginDocument#1{#1}
\providecommand\HyField@AuxAddToFields[1]{}
\providecommand\HyField@AuxAddToCoFields[2]{}
\@writefile{toc}{\contentsline {chapter}{\numberline {1}Job and Semaphore Processing Simulation Project}{1}{chapter.1}}
\@writefile{lof}{\addvspace {10\p@ }}
\@writefile{lot}{\addvspace {10\p@ }}
\newlabel{CHAP:LAB19}{{1}{1}{Job and Semaphore Processing Simulation Project}{chapter.1}{}}
\@writefile{toc}{\contentsline {section}{\numberline {1.1}Lab Objectives}{1}{section.1.1}}
\@writefile{toc}{\contentsline {section}{\numberline {1.2}Resources and Getting Help}{1}{section.1.2}}
\@writefile{lof}{\contentsline {figure}{\numberline {1.1}{\ignorespaces Architectural view of the simulator.}}{2}{figure.1.1}}
\newlabel{fig:arch}{{1.1}{2}{Architectural view of the simulator}{figure.1.1}{}}
\@writefile{toc}{\contentsline {section}{\numberline {1.3}Introduction}{2}{section.1.3}}
\@writefile{toc}{\contentsline {section}{\numberline {1.4}Project Specification}{2}{section.1.4}}
\@writefile{toc}{\contentsline {subsection}{\numberline {1.4.1}Problem}{2}{subsection.1.4.1}}
\@writefile{toc}{\contentsline {subsection}{\numberline {1.4.2}Detailed Description and Requirements}{2}{subsection.1.4.2}}
\@writefile{toc}{\contentsline {subsection}{\numberline {1.4.3}Event Collisions}{5}{subsection.1.4.3}}
\@writefile{toc}{\contentsline {subsection}{\numberline {1.4.4}Additional Requirements}{6}{subsection.1.4.4}}
\@writefile{toc}{\contentsline {subsection}{\numberline {1.4.5}Hints and Notes}{6}{subsection.1.4.5}}
\@writefile{toc}{\contentsline {subsection}{\numberline {1.4.6}Test Data: Sample Input and Output Streams}{7}{subsection.1.4.6}}
\@writefile{toc}{\contentsline {subsection}{\numberline {1.4.7}Project Evaluation}{8}{subsection.1.4.7}}
\@writefile{lot}{\contentsline {table}{\numberline {1.1}{\ignorespaces (left) Simulator constants and (right) process control block definition.}}{9}{table.1.1}}
\newlabel{tab:code}{{1.1}{9}{(left) Simulator constants and (right) process control block definition}{table.1.1}{}}
\@writefile{toc}{\contentsline {section}{\numberline {1.5}Implementation}{9}{section.1.5}}
\@writefile{toc}{\contentsline {subsection}{\numberline {1.5.1}Tuning Simulation Parameters}{9}{subsection.1.5.1}}
\@writefile{toc}{\contentsline {subsection}{\numberline {1.5.2}Tuning Simulation Parameters and Process Control Block (PCB)}{9}{subsection.1.5.2}}
\@writefile{toc}{\contentsline {subsection}{\numberline {1.5.3}Main Event Loop}{9}{subsection.1.5.3}}
\@writefile{toc}{\contentsline {subsection}{\numberline {1.5.4}Implementation Languages}{11}{subsection.1.5.4}}
\@writefile{toc}{\contentsline {section}{\numberline {1.6}Student Feedback}{11}{section.1.6}}
\@writefile{toc}{\contentsline {section}{\numberline {1.7}Conclusion}{11}{section.1.7}}
\@writefile{toc}{\contentsline {section}{\numberline {1.8}Thematic Take-Aways}{11}{section.1.8}}
\@writefile{toc}{\contentsline {section}{\numberline {1.9}Lab Summary}{11}{section.1.9}}
\@writefile{toc}{\contentsline {section}{\numberline {1.10}Key Terms}{11}{section.1.10}}
\@writefile{toc}{\contentsline {section}{\numberline {1.11}Bibliographic Notes}{11}{section.1.11}}
