\BOOKMARK [0][-]{chapter.1}{Setting up LtSense on the BeagleBone}{}% 1
\BOOKMARK [1][-]{section.1.1}{Lab Learning Outcomes}{chapter.1}% 2
\BOOKMARK [1][-]{section.1.2}{Resources and Getting Help}{chapter.1}% 3
\BOOKMARK [1][-]{section.1.3}{Preliminaries}{chapter.1}% 4
\BOOKMARK [1][-]{section.1.4}{Materials}{chapter.1}% 5
\BOOKMARK [1][-]{section.1.5}{Linux Commands}{chapter.1}% 6
\BOOKMARK [2][-]{subsection.1.5.1}{Other Linux Concepts}{section.1.5}% 7
\BOOKMARK [1][-]{section.1.6}{Procedure}{chapter.1}% 8
\BOOKMARK [1][-]{section.1.7}{Thematic Take-Aways}{chapter.1}% 9
\BOOKMARK [1][-]{section.1.8}{Lab Summary}{chapter.1}% 10
\BOOKMARK [1][-]{section.1.9}{Key Terms}{chapter.1}% 11
