\relax 
\providecommand\hyper@newdestlabel[2]{}
\providecommand\HyperFirstAtBeginDocument{\AtBeginDocument}
\HyperFirstAtBeginDocument{\ifx\hyper@anchor\@undefined
\global\let\oldcontentsline\contentsline
\gdef\contentsline#1#2#3#4{\oldcontentsline{#1}{#2}{#3}}
\global\let\oldnewlabel\newlabel
\gdef\newlabel#1#2{\newlabelxx{#1}#2}
\gdef\newlabelxx#1#2#3#4#5#6{\oldnewlabel{#1}{{#2}{#3}}}
\AtEndDocument{\ifx\hyper@anchor\@undefined
\let\contentsline\oldcontentsline
\let\newlabel\oldnewlabel
\fi}
\fi}
\global\let\hyper@last\relax 
\gdef\HyperFirstAtBeginDocument#1{#1}
\providecommand\HyField@AuxAddToFields[1]{}
\providecommand\HyField@AuxAddToCoFields[2]{}
\@writefile{toc}{\contentsline {chapter}{\numberline {1}Setting up LtSense on the BeagleBone}{1}{chapter.1}\protected@file@percent }
\@writefile{lof}{\addvspace {10\p@ }}
\@writefile{lot}{\addvspace {10\p@ }}
\newlabel{CHAP:BigSenseLtSenseSetupBeagleBone}{{1}{1}{Setting up LtSense on the BeagleBone}{chapter.1}{}}
\@writefile{toc}{\contentsline {section}{\numberline {1.1}Lab Learning Outcomes}{1}{section.1.1}\protected@file@percent }
\@writefile{toc}{\contentsline {section}{\numberline {1.2}Resources and Getting Help}{1}{section.1.2}\protected@file@percent }
\@writefile{toc}{\contentsline {section}{\numberline {1.3}Preliminaries}{2}{section.1.3}\protected@file@percent }
\@writefile{toc}{\contentsline {section}{\numberline {1.4}Materials}{3}{section.1.4}\protected@file@percent }
\@writefile{toc}{\contentsline {section}{\numberline {1.5}Linux Commands}{4}{section.1.5}\protected@file@percent }
\@writefile{toc}{\contentsline {subsection}{\numberline {1.5.1}Other Linux Concepts}{4}{subsection.1.5.1}\protected@file@percent }
\@writefile{toc}{\contentsline {section}{\numberline {1.6}Procedure}{4}{section.1.6}\protected@file@percent }
\@writefile{lof}{\contentsline {figure}{\numberline {1.1}{\ignorespaces Beagle Bone Black connected to a laptop.}}{5}{figure.1.1}\protected@file@percent }
\newlabel{fig:bbb}{{1.1}{5}{Beagle Bone Black connected to a laptop}{figure.1.1}{}}
\@writefile{lof}{\contentsline {figure}{\numberline {1.2}{\ignorespaces Putty connection dialogue.}}{6}{figure.1.2}\protected@file@percent }
\newlabel{fig:putty}{{1.2}{6}{Putty connection dialogue}{figure.1.2}{}}
\gdef\minted@oldcachelist{,
  default-pyg-prefix.pygstyle,
  default.pygstyle,
  5922C77020E9E21C2923E0218AD6110EF071622ACF8D0A36A59C578D803E5A99.pygtex,
  D4AC8704217AE8F7FF7723E4898579D7F071622ACF8D0A36A59C578D803E5A99.pygtex,
  4E561C24717F4046C4307FF9652D3717F071622ACF8D0A36A59C578D803E5A99.pygtex}
\@writefile{toc}{\contentsline {section}{\numberline {1.7}Thematic Take-Aways}{17}{section.1.7}\protected@file@percent }
\@writefile{toc}{\contentsline {section}{\numberline {1.8}Lab Summary}{17}{section.1.8}\protected@file@percent }
\@writefile{toc}{\contentsline {section}{\numberline {1.9}Key Terms}{17}{section.1.9}\protected@file@percent }
