\relax 
\providecommand\hyper@newdestlabel[2]{}
\providecommand\HyperFirstAtBeginDocument{\AtBeginDocument}
\HyperFirstAtBeginDocument{\ifx\hyper@anchor\@undefined
\global\let\oldcontentsline\contentsline
\gdef\contentsline#1#2#3#4{\oldcontentsline{#1}{#2}{#3}}
\global\let\oldnewlabel\newlabel
\gdef\newlabel#1#2{\newlabelxx{#1}#2}
\gdef\newlabelxx#1#2#3#4#5#6{\oldnewlabel{#1}{{#2}{#3}}}
\AtEndDocument{\ifx\hyper@anchor\@undefined
\let\contentsline\oldcontentsline
\let\newlabel\oldnewlabel
\fi}
\fi}
\global\let\hyper@last\relax 
\gdef\HyperFirstAtBeginDocument#1{#1}
\providecommand\HyField@AuxAddToFields[1]{}
\providecommand\HyField@AuxAddToCoFields[2]{}
\@writefile{toc}{\contentsline {chapter}{\numberline {1}Cloud Computing and Big Data Processing (Part I)}{1}{chapter.1}\protected@file@percent }
\@writefile{lof}{\addvspace {10\p@ }}
\@writefile{lot}{\addvspace {10\p@ }}
\newlabel{CHAP:LAB2}{{1}{1}{Cloud Computing and Big Data Processing (Part I)}{chapter.1}{}}
\@writefile{toc}{\contentsline {section}{\numberline {1.1}Lab Learning Outcomes}{1}{section.1.1}\protected@file@percent }
\@writefile{toc}{\contentsline {section}{\numberline {1.2}Resources and Getting Help}{1}{section.1.2}\protected@file@percent }
\@writefile{toc}{\contentsline {subsection}{\numberline {1.2.1}Build Passwordless Connections for Nodes in the Clusster}{1}{subsection.1.2.1}\protected@file@percent }
\@writefile{lof}{\contentsline {figure}{\numberline {1.1}{\ignorespaces Make a directory \texttt  {.ssh} on each data node.}}{2}{figure.1.1}\protected@file@percent }
\@writefile{lof}{\contentsline {figure}{\numberline {1.2}{\ignorespaces Generate a public-private key pair at Master node.}}{3}{figure.1.2}\protected@file@percent }
\@writefile{lof}{\contentsline {figure}{\numberline {1.3}{\ignorespaces Send and append the public key to a data node from the name node. }}{4}{figure.1.3}\protected@file@percent }
\@writefile{lof}{\contentsline {figure}{\numberline {1.4}{\ignorespaces Build a passwordless connection from the name node to a data node}}{4}{figure.1.4}\protected@file@percent }
\newlabel{passless}{{1.4}{4}{Build a passwordless connection from the name node to a data node}{figure.1.4}{}}
\@writefile{toc}{\contentsline {subsection}{\numberline {1.2.2}Install Java and Hadoop Software on Each VM}{5}{subsection.1.2.2}\protected@file@percent }
\@writefile{lof}{\contentsline {figure}{\numberline {1.5}{\ignorespaces Create a new name \texttt  {jdk} pointing to the directory \texttt  {java-8-openjdk-amd64}.}}{5}{figure.1.5}\protected@file@percent }
\@writefile{lof}{\contentsline {figure}{\numberline {1.6}{\ignorespaces The folder \texttt  {hadoop-2.8.4} is renamed as \texttt  {hadoop} for ease of operation.}}{6}{figure.1.6}\protected@file@percent }
\@writefile{lof}{\contentsline {figure}{\numberline {1.7}{\ignorespaces Edit \texttt  {.bashrc} file.}}{7}{figure.1.7}\protected@file@percent }
\@writefile{lof}{\contentsline {figure}{\numberline {1.8}{\ignorespaces Load environment variables.}}{7}{figure.1.8}\protected@file@percent }
\@writefile{lof}{\contentsline {figure}{\numberline {1.9}{\ignorespaces Create folders for \textsc  {HDFS}.}}{8}{figure.1.9}\protected@file@percent }
\@writefile{toc}{\contentsline {subsection}{\numberline {1.2.3}Configure the Hadoop Cluster and Run Existing Programs}{8}{subsection.1.2.3}\protected@file@percent }
\@writefile{lof}{\contentsline {figure}{\numberline {1.10}{\ignorespaces Specify Java home directory in \texttt  {hadoop-env.sh}.}}{9}{figure.1.10}\protected@file@percent }
\newlabel{hadoopenv}{{1.10}{9}{Specify Java home directory in \texttt {hadoop-env.sh}}{figure.1.10}{}}
\@writefile{lof}{\contentsline {figure}{\numberline {1.11}{\ignorespaces Specify the core site's address in \texttt  {core-site.xml}.}}{10}{figure.1.11}\protected@file@percent }
\@writefile{lof}{\contentsline {figure}{\numberline {1.12}{\ignorespaces Specify the (primary) name node as the resource manager in \texttt  {yarn-site.xml}.}}{11}{figure.1.12}\protected@file@percent }
\newlabel{yarnsite}{{1.12}{11}{Specify the (primary) name node as the resource manager in \texttt {yarn-site.xml}}{figure.1.12}{}}
\@writefile{lof}{\contentsline {figure}{\numberline {1.13}{\ignorespaces List \texttt  {yarn} as resource manager for \texttt  {mapreduce} jobs in \texttt  {mapred-site.xml}.}}{12}{figure.1.13}\protected@file@percent }
\newlabel{mapredsite}{{1.13}{12}{List \texttt {yarn} as resource manager for \texttt {mapreduce} jobs in \texttt {mapred-site.xml}}{figure.1.13}{}}
\@writefile{lof}{\contentsline {figure}{\numberline {1.14}{\ignorespaces Configure \texttt  {hdfs-site.xml}.}}{13}{figure.1.14}\protected@file@percent }
\newlabel{hdfssite}{{1.14}{13}{Configure \texttt {hdfs-site.xml}}{figure.1.14}{}}
\@writefile{lof}{\contentsline {figure}{\numberline {1.15}{\ignorespaces Send configuration files to other nodes.}}{15}{figure.1.15}\protected@file@percent }
\newlabel{scp}{{1.15}{15}{Send configuration files to other nodes}{figure.1.15}{}}
\@writefile{lof}{\contentsline {figure}{\numberline {1.16}{\ignorespaces List the primary name node and the secondary name node in the \texttt  {masters} file.}}{16}{figure.1.16}\protected@file@percent }
\newlabel{masters}{{1.16}{16}{List the primary name node and the secondary name node in the \texttt {masters} file}{figure.1.16}{}}
\@writefile{lof}{\contentsline {figure}{\numberline {1.17}{\ignorespaces List all data nodes in the \texttt  {slaves} file. Secondary name node can also be listed as a data node.}}{16}{figure.1.17}\protected@file@percent }
\newlabel{slaves}{{1.17}{16}{List all data nodes in the \texttt {slaves} file. Secondary name node can also be listed as a data node}{figure.1.17}{}}
\@writefile{toc}{\contentsline {subsection}{\numberline {1.2.4}Start Hadoop Cluster and Run Existing Programs}{16}{subsection.1.2.4}\protected@file@percent }
\@writefile{lof}{\contentsline {figure}{\numberline {1.18}{\ignorespaces The status of the name node.}}{17}{figure.1.18}\protected@file@percent }
\@writefile{lof}{\contentsline {figure}{\numberline {1.19}{\ignorespaces The status of the secondary name node.}}{17}{figure.1.19}\protected@file@percent }
\@writefile{lof}{\contentsline {figure}{\numberline {1.20}{\ignorespaces The status of other data node.}}{17}{figure.1.20}\protected@file@percent }
\@writefile{lof}{\contentsline {figure}{\numberline {1.21}{\ignorespaces Run a mapreduce job \texttt  {pi} to compute $\pi =3.1408$.}}{18}{figure.1.21}\protected@file@percent }
\@writefile{toc}{\contentsline {section}{\numberline {1.3}Thematic Take-Aways}{18}{section.1.3}\protected@file@percent }
\@writefile{toc}{\contentsline {section}{\numberline {1.4}Lab Summary}{19}{section.1.4}\protected@file@percent }
\@writefile{toc}{\contentsline {section}{\numberline {1.5}Key Term}{19}{section.1.5}\protected@file@percent }
