\relax 
\providecommand\hyper@newdestlabel[2]{}
\providecommand\HyperFirstAtBeginDocument{\AtBeginDocument}
\HyperFirstAtBeginDocument{\ifx\hyper@anchor\@undefined
\global\let\oldcontentsline\contentsline
\gdef\contentsline#1#2#3#4{\oldcontentsline{#1}{#2}{#3}}
\global\let\oldnewlabel\newlabel
\gdef\newlabel#1#2{\newlabelxx{#1}#2}
\gdef\newlabelxx#1#2#3#4#5#6{\oldnewlabel{#1}{{#2}{#3}}}
\AtEndDocument{\ifx\hyper@anchor\@undefined
\let\contentsline\oldcontentsline
\let\newlabel\oldnewlabel
\fi}
\fi}
\global\let\hyper@last\relax 
\gdef\HyperFirstAtBeginDocument#1{#1}
\providecommand\HyField@AuxAddToFields[1]{}
\providecommand\HyField@AuxAddToCoFields[2]{}
\@writefile{toc}{\contentsline {chapter}{\numberline {1}Raspberry Pi Set-up Lab}{1}{chapter.1}}
\@writefile{lof}{\addvspace {10\p@ }}
\@writefile{lot}{\addvspace {10\p@ }}
\newlabel{CHAP:RPISETUP}{{1}{1}{Raspberry Pi Set-up Lab}{chapter.1}{}}
\@writefile{toc}{\contentsline {section}{\numberline {1.1}Lab Learning Outcomes}{1}{section.1.1}}
\@writefile{toc}{\contentsline {section}{\numberline {1.2}Lab Overview}{1}{section.1.2}}
\@writefile{toc}{\contentsline {subsection}{\numberline {1.2.1}Setup}{1}{subsection.1.2.1}}
\@writefile{toc}{\contentsline {section}{\numberline {1.3}Resources and Getting Help}{2}{section.1.3}}
\@writefile{toc}{\contentsline {section}{\numberline {1.4}Steps}{3}{section.1.4}}
\@writefile{lol}{\contentsline {lstlisting}{\textdollar }{4}{lstlisting.1.-1}}
\@writefile{lof}{\contentsline {figure}{\numberline {1.1}{\ignorespaces Adapter \textsc  {mac} address fetching.}}{10}{figure.1.1}}
\newlabel{fig:macaddr}{{1.1}{10}{Adapter \textsc {mac} address fetching}{figure.1.1}{}}
\@writefile{lof}{\contentsline {figure}{\numberline {1.2}{\ignorespaces Device Registration Login screen.}}{12}{figure.1.2}}
\newlabel{fig:register:login}{{1.2}{12}{Device Registration Login screen}{figure.1.2}{}}
\@writefile{lof}{\contentsline {figure}{\numberline {1.3}{\ignorespaces Device registration \textsc  {mac} address input.}}{13}{figure.1.3}}
\newlabel{fig:device:registration}{{1.3}{13}{Device registration \textsc {mac} address input}{figure.1.3}{}}
\@writefile{lof}{\contentsline {figure}{\numberline {1.4}{\ignorespaces Raspberry Pi change password Desktop.}}{14}{figure.1.4}}
\newlabel{fig:change:passwd}{{1.4}{14}{Raspberry Pi change password Desktop}{figure.1.4}{}}
\@writefile{lof}{\contentsline {figure}{\numberline {1.5}{\ignorespaces X11 Putty configuration.}}{20}{figure.1.5}}
\newlabel{fig:putty:config}{{1.5}{20}{X11 Putty configuration}{figure.1.5}{}}
\@writefile{toc}{\contentsline {section}{\numberline {1.5}Thematic Take-Aways}{21}{section.1.5}}
\@writefile{toc}{\contentsline {section}{\numberline {1.6}Chapter Summary}{22}{section.1.6}}
\@writefile{toc}{\contentsline {section}{\numberline {1.7}Key Terms}{22}{section.1.7}}
