\relax 
\providecommand\hyper@newdestlabel[2]{}
\providecommand\HyperFirstAtBeginDocument{\AtBeginDocument}
\HyperFirstAtBeginDocument{\ifx\hyper@anchor\@undefined
\global\let\oldcontentsline\contentsline
\gdef\contentsline#1#2#3#4{\oldcontentsline{#1}{#2}{#3}}
\global\let\oldnewlabel\newlabel
\gdef\newlabel#1#2{\newlabelxx{#1}#2}
\gdef\newlabelxx#1#2#3#4#5#6{\oldnewlabel{#1}{{#2}{#3}}}
\AtEndDocument{\ifx\hyper@anchor\@undefined
\let\contentsline\oldcontentsline
\let\newlabel\oldnewlabel
\fi}
\fi}
\global\let\hyper@last\relax 
\gdef\HyperFirstAtBeginDocument#1{#1}
\providecommand\HyField@AuxAddToFields[1]{}
\providecommand\HyField@AuxAddToCoFields[2]{}
\@writefile{toc}{\contentsline {chapter}{\numberline {1}Dynamic Memory Management (\texttt  {malloc}, \texttt  {calloc}, \texttt  {realloc}, \& \texttt  {free})}{1}{chapter.1}}
\@writefile{lof}{\addvspace {10\p@ }}
\@writefile{lot}{\addvspace {10\p@ }}
\newlabel{CHAP:DYNAMICMM}{{1}{1}{Dynamic Memory Management (\texttt {malloc}, \texttt {calloc}, \texttt {realloc}, \& \texttt {free})}{chapter.1}{}}
\@writefile{toc}{\contentsline {section}{\numberline {1.1}Lab Learning Outcomes}{1}{section.1.1}}
\@writefile{toc}{\contentsline {section}{\numberline {1.2}Resources and Getting Help}{1}{section.1.2}}
\@writefile{toc}{\contentsline {section}{\numberline {1.3}Steps}{1}{section.1.3}}
\@writefile{toc}{\contentsline {section}{\numberline {1.4}Thematic Take-Aways}{3}{section.1.4}}
\@writefile{toc}{\contentsline {section}{\numberline {1.5}Lab Summary}{4}{section.1.5}}
\@writefile{toc}{\contentsline {section}{\numberline {1.6}Key Terms}{4}{section.1.6}}
\@writefile{toc}{\contentsline {section}{\numberline {1.7}Bibliographic Notes}{4}{section.1.7}}
