\addvspace {10\p@ }
\contentsline {figure}{\numberline {1.1}{\ignorespaces }}{3}{figure.1.1}%
\contentsline {figure}{\numberline {1.2}{\ignorespaces }}{4}{figure.1.2}%
\contentsline {figure}{\numberline {1.3}{\ignorespaces }}{4}{figure.1.3}%
\contentsline {figure}{\numberline {1.4}{\ignorespaces }}{5}{figure.1.4}%
\contentsline {figure}{\numberline {1.5}{\ignorespaces }}{6}{figure.1.5}%
\contentsline {figure}{\numberline {1.6}{\ignorespaces }}{7}{figure.1.6}%
\contentsline {figure}{\numberline {1.7}{\ignorespaces }}{8}{figure.1.7}%
\contentsline {figure}{\numberline {1.8}{\ignorespaces }}{8}{figure.1.8}%
\contentsline {figure}{\numberline {1.9}{\ignorespaces }}{9}{figure.1.9}%
\contentsline {figure}{\numberline {1.10}{\ignorespaces }}{10}{figure.1.10}%
\contentsline {figure}{\numberline {1.11}{\ignorespaces }}{10}{figure.1.11}%
\contentsline {figure}{\numberline {1.12}{\ignorespaces }}{11}{figure.1.12}%
\contentsline {figure}{\numberline {1.13}{\ignorespaces }}{11}{figure.1.13}%
\contentsline {figure}{\numberline {1.14}{\ignorespaces }}{12}{figure.1.14}%
\contentsline {figure}{\numberline {1.15}{\ignorespaces }}{13}{figure.1.15}%
\contentsline {figure}{\numberline {1.16}{\ignorespaces }}{13}{figure.1.16}%
\addvspace {10\p@ }
\contentsline {figure}{\numberline {2.1}{\ignorespaces The network and Sharing Center.}}{19}{figure.2.1}%
\contentsline {figure}{\numberline {2.2}{\ignorespaces Highlight the two network connections.}}{20}{figure.2.2}%
\contentsline {figure}{\numberline {2.3}{\ignorespaces Bridge the connections.}}{20}{figure.2.3}%
\contentsline {figure}{\numberline {2.4}{\ignorespaces Adapter \textsc {mac} address fetching.}}{25}{figure.2.4}%
\contentsline {figure}{\numberline {2.5}{\ignorespaces Device Registration Login screen.}}{26}{figure.2.5}%
\contentsline {figure}{\numberline {2.6}{\ignorespaces Device registration \textsc {mac} address input.}}{27}{figure.2.6}%
\contentsline {figure}{\numberline {2.7}{\ignorespaces Raspberry Pi change password Desktop.}}{29}{figure.2.7}%
\contentsline {figure}{\numberline {2.8}{\ignorespaces X11 Putty configuration.}}{34}{figure.2.8}%
\addvspace {10\p@ }
\addvspace {10\p@ }
\addvspace {10\p@ }
\addvspace {10\p@ }
\contentsline {figure}{\numberline {6.1}{\ignorespaces Linux file system can be visualized as an upside-down tree.}}{54}{figure.6.1}%
\contentsline {figure}{\numberline {6.2}{\ignorespaces Standard input and output between keyboard and terminal.}}{56}{figure.6.2}%
\addvspace {10\p@ }
\addvspace {10\p@ }
\addvspace {10\p@ }
\addvspace {10\p@ }
\addvspace {10\p@ }
\addvspace {10\p@ }
\addvspace {10\p@ }
\contentsline {figure}{\numberline {13.1}{\ignorespaces Architectural view of the simulator.}}{86}{figure.13.1}%
\addvspace {10\p@ }
\addvspace {10\p@ }
\addvspace {10\p@ }
\addvspace {10\p@ }
\addvspace {10\p@ }
\addvspace {10\p@ }
\addvspace {10\p@ }
\contentsline {figure}{\numberline {20.1}{\ignorespaces Enabling the RPi Camera Interface.}}{148}{figure.20.1}%
\contentsline {figure}{\numberline {20.2}{\ignorespaces RPi board (RPicamera connector circled).}}{149}{figure.20.2}%
\contentsline {figure}{\numberline {20.3}{\ignorespaces Ensure black connector is up.}}{150}{figure.20.3}%
\contentsline {figure}{\numberline {20.4}{\ignorespaces RPi Camera with ribbon connector circled.}}{150}{figure.20.4}%
\contentsline {figure}{\numberline {20.5}{\ignorespaces RPi Camera ribbon cable positioned and ready for insertion.}}{151}{figure.20.5}%
\contentsline {figure}{\numberline {20.6}{\ignorespaces RPi Camera ribbon cable installed. Note how the black connector is in the down position.}}{151}{figure.20.6}%
\contentsline {figure}{\numberline {20.7}{\ignorespaces Location of Terminal Window Icon.}}{152}{figure.20.7}%
\contentsline {figure}{\numberline {20.8}{\ignorespaces Updating the Operating System.}}{153}{figure.20.8}%
\contentsline {figure}{\numberline {20.9}{\ignorespaces Upgrading the Operating System.}}{153}{figure.20.9}%
\contentsline {figure}{\numberline {20.10}{\ignorespaces Downloading the RPi Camera Web Interface.}}{154}{figure.20.10}%
\contentsline {figure}{\numberline {20.11}{\ignorespaces Installing the RPi Camera Web Interface.}}{155}{figure.20.11}%
\contentsline {figure}{\numberline {20.12}{\ignorespaces RPi Camera Website.}}{155}{figure.20.12}%
\contentsline {figure}{\numberline {20.13}{\ignorespaces RPi Camera Web Interface.}}{156}{figure.20.13}%
\addvspace {10\p@ }
\contentsline {figure}{\numberline {21.1}{\ignorespaces DS18B20 Temperature Sensor.}}{160}{figure.21.1}%
\contentsline {figure}{\numberline {21.2}{\ignorespaces DS18B20 Block Diagram.}}{161}{figure.21.2}%
\contentsline {figure}{\numberline {21.3}{\ignorespaces 1-Wire Wiring Diagram (Notice the ``Female Connector'').}}{161}{figure.21.3}%
\contentsline {figure}{\numberline {21.4}{\ignorespaces Beagle Bone Black connected to a laptop.}}{165}{figure.21.4}%
\contentsline {figure}{\numberline {21.5}{\ignorespaces Putty connection dialogue.}}{166}{figure.21.5}%
\addvspace {10\p@ }
\addvspace {10\p@ }
\addvspace {10\p@ }
\addvspace {10\p@ }
\addvspace {10\p@ }
\addvspace {10\p@ }
\addvspace {10\p@ }
\addvspace {10\p@ }
\addvspace {10\p@ }
\contentsline {figure}{\numberline {30.1}{\ignorespaces Amazon cloud computing services.}}{219}{figure.30.1}%
\contentsline {figure}{\numberline {30.2}{\ignorespaces Amazon EC2 (Elastic Compute Cloud) resources.}}{220}{figure.30.2}%
\contentsline {figure}{\numberline {30.3}{\ignorespaces Check your region.}}{220}{figure.30.3}%
\contentsline {figure}{\numberline {30.4}{\ignorespaces Start to install \textsc {os} on virtual machines.}}{221}{figure.30.4}%
\contentsline {figure}{\numberline {30.5}{\ignorespaces Select Ubuntu Server.}}{221}{figure.30.5}%
\contentsline {figure}{\numberline {30.6}{\ignorespaces Choose instance type.}}{222}{figure.30.6}%
\contentsline {figure}{\numberline {30.7}{\ignorespaces Input the number of instances.}}{222}{figure.30.7}%
\contentsline {figure}{\numberline {30.8}{\ignorespaces Select default storage setting.}}{223}{figure.30.8}%
\contentsline {figure}{\numberline {30.9}{\ignorespaces Name the cluster.}}{223}{figure.30.9}%
\contentsline {figure}{\numberline {30.10}{\ignorespaces Create a new security group for the cluster.}}{224}{figure.30.10}%
\contentsline {figure}{\numberline {30.11}{\ignorespaces Download a new key pair.}}{225}{figure.30.11}%
\contentsline {figure}{\numberline {30.12}{\ignorespaces \textsc {vm} instance information at \textsc {aws}.}}{226}{figure.30.12}%
\contentsline {figure}{\numberline {30.13}{\ignorespaces Launch PuttyGen to convert \texttt {.pem} to a private key.}}{227}{figure.30.13}%
\contentsline {figure}{\numberline {30.14}{\ignorespaces Save the private key.}}{227}{figure.30.14}%
\contentsline {figure}{\numberline {30.15}{\ignorespaces Save the key without a passphrase.}}{228}{figure.30.15}%
\contentsline {figure}{\numberline {30.16}{\ignorespaces Use public \textsc {ip} addresses to connect to \textsc {vm}s at \textsc {aws}.}}{228}{figure.30.16}%
\contentsline {figure}{\numberline {30.17}{\ignorespaces Authentication using the private key.}}{229}{figure.30.17}%
\contentsline {figure}{\numberline {30.18}{\ignorespaces An \textsc {ssh} session with a \textsc {vm} instance at \textsc {aws}. The \textsc {ip} address \texttt {172-31-31-173} shown on the window is the private \textsc {ip} address of this instance.}}{229}{figure.30.18}%
\contentsline {figure}{\numberline {30.19}{\ignorespaces Left: \textsc {ssh} sessions with \textsc {vm} instances at \textsc {aws}. Right: \textsc {vm} states at \textsc {aws}.}}{230}{figure.30.19}%
\contentsline {figure}{\numberline {30.20}{\ignorespaces Create a group and a user in this group on each \textsc {vm}.}}{231}{figure.30.20}%
\contentsline {figure}{\numberline {30.21}{\ignorespaces Allow root access.}}{231}{figure.30.21}%
\contentsline {figure}{\numberline {30.22}{\ignorespaces Open the ssh configuration file for editing.}}{232}{figure.30.22}%
\contentsline {figure}{\numberline {30.23}{\ignorespaces Use \texttt {vi} commands to edit the file.}}{232}{figure.30.23}%
\contentsline {figure}{\numberline {30.24}{\ignorespaces Set Password Authentication Yes.}}{233}{figure.30.24}%
\contentsline {figure}{\numberline {30.25}{\ignorespaces Close the configuration file.}}{234}{figure.30.25}%
\contentsline {figure}{\numberline {30.26}{\ignorespaces Close the configuration file.}}{234}{figure.30.26}%
\contentsline {figure}{\numberline {30.27}{\ignorespaces Open a new \textsc {ssh} session in PuTTY.}}{235}{figure.30.27}%
\contentsline {figure}{\numberline {30.28}{\ignorespaces Enter password in the \textsc {ssh} session.}}{235}{figure.30.28}%
\contentsline {figure}{\numberline {30.29}{\ignorespaces Successfully connected to a \textsc {vm} in \textsc {aws} using user name and password.}}{236}{figure.30.29}%
\contentsline {figure}{\numberline {30.30}{\ignorespaces Stop \textsc {vm}'s in \textsc {aws}.}}{236}{figure.30.30}%
\contentsline {figure}{\numberline {30.31}{\ignorespaces Instance state is now stopped in \textsc {aws}.}}{237}{figure.30.31}%
\addvspace {10\p@ }
\contentsline {figure}{\numberline {31.1}{\ignorespaces Make a directory \texttt {.ssh} on each data node.}}{240}{figure.31.1}%
\contentsline {figure}{\numberline {31.2}{\ignorespaces Generate a public-private key pair at Master node.}}{241}{figure.31.2}%
\contentsline {figure}{\numberline {31.3}{\ignorespaces Send and append the public key to a data node from the name node. }}{242}{figure.31.3}%
\contentsline {figure}{\numberline {31.4}{\ignorespaces Build a passwordless connection from the name node to a data node}}{242}{figure.31.4}%
\contentsline {figure}{\numberline {31.5}{\ignorespaces Create a new name \texttt {jdk} pointing to the directory \texttt {java-8-openjdk-amd64}.}}{243}{figure.31.5}%
\contentsline {figure}{\numberline {31.6}{\ignorespaces The folder \texttt {hadoop-2.8.4} is renamed as \texttt {hadoop} for ease of operation.}}{244}{figure.31.6}%
\contentsline {figure}{\numberline {31.7}{\ignorespaces Edit \texttt {.bashrc} file.}}{245}{figure.31.7}%
\contentsline {figure}{\numberline {31.8}{\ignorespaces Load environment variables.}}{245}{figure.31.8}%
\contentsline {figure}{\numberline {31.9}{\ignorespaces Create folders for \textsc {HDFS}.}}{246}{figure.31.9}%
\contentsline {figure}{\numberline {31.10}{\ignorespaces Specify Java home directory in \texttt {hadoop-env.sh}.}}{247}{figure.31.10}%
\contentsline {figure}{\numberline {31.11}{\ignorespaces Specify the core site's address in \texttt {core-site.xml}.}}{248}{figure.31.11}%
\contentsline {figure}{\numberline {31.12}{\ignorespaces Specify the (primary) name node as the resource manager in \texttt {yarn-site.xml}.}}{249}{figure.31.12}%
\contentsline {figure}{\numberline {31.13}{\ignorespaces List \texttt {yarn} as resource manager for \texttt {mapreduce} jobs in \texttt {mapred-site.xml}.}}{250}{figure.31.13}%
\contentsline {figure}{\numberline {31.14}{\ignorespaces Configure \texttt {hdfs-site.xml}.}}{251}{figure.31.14}%
\contentsline {figure}{\numberline {31.15}{\ignorespaces Send configuration files to other nodes.}}{253}{figure.31.15}%
\contentsline {figure}{\numberline {31.16}{\ignorespaces List the primary name node and the secondary name node in the \texttt {masters} file.}}{254}{figure.31.16}%
\contentsline {figure}{\numberline {31.17}{\ignorespaces List all data nodes in the \texttt {slaves} file. Secondary name node can also be listed as a data node.}}{254}{figure.31.17}%
\contentsline {figure}{\numberline {31.18}{\ignorespaces The status of the name node.}}{255}{figure.31.18}%
\contentsline {figure}{\numberline {31.19}{\ignorespaces The status of the secondary name node.}}{255}{figure.31.19}%
\contentsline {figure}{\numberline {31.20}{\ignorespaces The status of other data node.}}{255}{figure.31.20}%
\contentsline {figure}{\numberline {31.21}{\ignorespaces Run a mapreduce job \texttt {pi} to compute $\pi =3.1408$.}}{256}{figure.31.21}%
\addvspace {10\p@ }
\contentsline {figure}{\numberline {32.1}{\ignorespaces New Maven Project --- Select project name and location.}}{259}{figure.32.1}%
\contentsline {figure}{\numberline {32.2}{\ignorespaces New Maven Project --- Select an archetype.}}{260}{figure.32.2}%
\contentsline {figure}{\numberline {32.3}{\ignorespaces New Maven Project --- Name group Id and artifact Id.}}{261}{figure.32.3}%
\contentsline {figure}{\numberline {32.4}{\ignorespaces Mapper class.}}{262}{figure.32.4}%
\contentsline {figure}{\numberline {32.5}{\ignorespaces Reducer class.}}{262}{figure.32.5}%
\contentsline {figure}{\numberline {32.6}{\ignorespaces Driver class.}}{263}{figure.32.6}%
\contentsline {figure}{\numberline {32.7}{\ignorespaces Edit \texttt {pom.xml} file.}}{264}{figure.32.7}%
\contentsline {figure}{\numberline {32.8}{\ignorespaces Search hadoop client dependency at \url {mvnrepository.com}.}}{265}{figure.32.8}%
\contentsline {figure}{\numberline {32.9}{\ignorespaces Search hadoop common dependency at \url {mvnrepository.com}.}}{266}{figure.32.9}%
\contentsline {figure}{\numberline {32.10}{\ignorespaces Preferences.}}{266}{figure.32.10}%
\contentsline {figure}{\numberline {32.11}{\ignorespaces Edit JRE.}}{267}{figure.32.11}%
\contentsline {figure}{\numberline {32.12}{\ignorespaces Compiler.}}{268}{figure.32.12}%
\contentsline {figure}{\numberline {32.13}{\ignorespaces Compiler.}}{269}{figure.32.13}%
\contentsline {figure}{\numberline {32.14}{\ignorespaces Connect to the name node in WinSCP.}}{270}{figure.32.14}%
\contentsline {figure}{\numberline {32.15}{\ignorespaces Upload a mapreduce package in \texttt {.jar} to the name node.}}{270}{figure.32.15}%
\contentsline {figure}{\numberline {32.16}{\ignorespaces Sample text files.}}{271}{figure.32.16}%
\contentsline {figure}{\numberline {32.17}{\ignorespaces Upload data in \texttt {.txt} to the name node.}}{271}{figure.32.17}%
\contentsline {figure}{\numberline {32.18}{\ignorespaces Load data files in \texttt {.txt} to \textsc {hdfs} at the name node.}}{272}{figure.32.18}%
\contentsline {figure}{\numberline {32.19}{\ignorespaces Run our own mapreduce project at the cluster.}}{273}{figure.32.19}%
\contentsline {figure}{\numberline {32.20}{\ignorespaces Transfer output from \textsc {hdfs} to \texttt {/home/hduser} at the name node.}}{274}{figure.32.20}%
\contentsline {figure}{\numberline {32.21}{\ignorespaces Go to \texttt {/home/hduser/output} at the name node.}}{274}{figure.32.21}%
\contentsline {figure}{\numberline {32.22}{\ignorespaces Open \texttt {part-r-00000} to see results at the name node.}}{275}{figure.32.22}%
