\relax 
\providecommand\hyper@newdestlabel[2]{}
\providecommand\HyperFirstAtBeginDocument{\AtBeginDocument}
\HyperFirstAtBeginDocument{\ifx\hyper@anchor\@undefined
\global\let\oldcontentsline\contentsline
\gdef\contentsline#1#2#3#4{\oldcontentsline{#1}{#2}{#3}}
\global\let\oldnewlabel\newlabel
\gdef\newlabel#1#2{\newlabelxx{#1}#2}
\gdef\newlabelxx#1#2#3#4#5#6{\oldnewlabel{#1}{{#2}{#3}}}
\AtEndDocument{\ifx\hyper@anchor\@undefined
\let\contentsline\oldcontentsline
\let\newlabel\oldnewlabel
\fi}
\fi}
\global\let\hyper@last\relax 
\gdef\HyperFirstAtBeginDocument#1{#1}
\providecommand\HyField@AuxAddToFields[1]{}
\providecommand\HyField@AuxAddToCoFields[2]{}
\bibstyle{alpha}
\bibdata{OSlabManual}
\bibcite{DeitelC}{DD94}
\bibcite{UPE}{KP84}
\bibcite{CPL}{KR88}
\bibcite{NSFIUSECCSCMW2018tutorial}{PW18}
\bibcite{Perugini:2019:DCI:3287324.3293734}{PW19}
\bibcite{USP}{RR03}
\bibcite{OSC8}{SGG09}
\bibcite{OSC10}{SGG18}
\@writefile{toc}{\contentsline {chapter}{Books Referenced in the Labs}{iii}{Doc-Start}\protected@file@percent }
\@writefile{toc}{\contentsline {chapter}{Preface}{iv}{chapter*.1}\protected@file@percent }
\@writefile{toc}{\contentsline {paragraph}{Using the Virtual Machine.}{v}{section*.7}\protected@file@percent }
\@writefile{toc}{\contentsline {paragraph}{Using the Raspberry Pi.}{v}{section*.8}\protected@file@percent }
\citation{OSC10}
\citation{OSC10}
\citation{OSC10}
\citation{UPE}
\citation{CPL}
\citation{OSC10}
\citation{OSC10}
\citation{OSC10}
\@writefile{toc}{\contentsline {paragraph}{Computer Security Labs 18--19 in Module I and Security Lab 29 in Module II}{vi}{section*.11}\protected@file@percent }
\@writefile{toc}{\contentsline {paragraph}{The Internet-of-Things Lab in Module I: \nameref  {CHAP:IOTCAMERA}}{vi}{section*.12}\protected@file@percent }
\@writefile{toc}{\contentsline {paragraph}{The Internet-of-Things Labs 21--23 in Module I}{vi}{section*.13}\protected@file@percent }
\@writefile{toc}{\contentsline {paragraph}{Module III: Cloud Computing and Big Data Processing.}{vi}{section*.14}\protected@file@percent }
\citation{NSFIUSECCSCMW2018tutorial}
\citation{NSFIUSECCSCMW2018tutorial}
\citation{Perugini:2019:DCI:3287324.3293734}
\@writefile{toc}{\contentsline {chapter}{Acknowledgments}{xi}{section*.28}\protected@file@percent }
\@writefile{toc}{\contentsline {chapter}{List of Figures}{xix}{chapter*.30}\protected@file@percent }
\@writefile{toc}{\contentsline {chapter}{List of Tables}{xxiii}{chapter*.31}\protected@file@percent }
\@writefile{toc}{\contentsline {chapter}{\numberline {1}Virtual Machine Set-up Lab}{2}{chapter.1}\protected@file@percent }
\@writefile{lof}{\addvspace {10\p@ }}
\@writefile{lot}{\addvspace {10\p@ }}
\newlabel{CHAP:VMSETUP}{{1}{2}{Virtual Machine Set-up Lab}{chapter.1}{}}
\@writefile{toc}{\contentsline {section}{\numberline {1.1}Lab Learning Outcomes}{2}{section.1.1}\protected@file@percent }
\@writefile{toc}{\contentsline {section}{\numberline {1.2}Resources and Getting Help}{2}{section.1.2}\protected@file@percent }
\@writefile{toc}{\contentsline {section}{\numberline {1.3}Steps}{2}{section.1.3}\protected@file@percent }
\@writefile{lof}{\contentsline {figure}{\numberline {1.1}{\ignorespaces }}{3}{figure.1.1}\protected@file@percent }
\newlabel{fig:VirtualBoxWindow}{{1.1}{3}{}{figure.1.1}{}}
\@writefile{lof}{\contentsline {figure}{\numberline {1.2}{\ignorespaces }}{4}{figure.1.2}\protected@file@percent }
\newlabel{fig:VMCreationWindow}{{1.2}{4}{}{figure.1.2}{}}
\@writefile{lof}{\contentsline {figure}{\numberline {1.3}{\ignorespaces }}{4}{figure.1.3}\protected@file@percent }
\newlabel{fig:VMCreationWindow2}{{1.3}{4}{}{figure.1.3}{}}
\@writefile{lof}{\contentsline {figure}{\numberline {1.4}{\ignorespaces }}{5}{figure.1.4}\protected@file@percent }
\newlabel{fig:VMSettings}{{1.4}{5}{}{figure.1.4}{}}
\@writefile{lof}{\contentsline {figure}{\numberline {1.5}{\ignorespaces }}{6}{figure.1.5}\protected@file@percent }
\newlabel{fig:VMStorageMenu}{{1.5}{6}{}{figure.1.5}{}}
\@writefile{lof}{\contentsline {figure}{\numberline {1.6}{\ignorespaces }}{7}{figure.1.6}\protected@file@percent }
\newlabel{fig:VMStorageMenu2}{{1.6}{7}{}{figure.1.6}{}}
\@writefile{lof}{\contentsline {figure}{\numberline {1.7}{\ignorespaces }}{8}{figure.1.7}\protected@file@percent }
\newlabel{fig:ChooseISOFile}{{1.7}{8}{}{figure.1.7}{}}
\@writefile{lof}{\contentsline {figure}{\numberline {1.8}{\ignorespaces }}{8}{figure.1.8}\protected@file@percent }
\newlabel{fig:InstallUbuntu}{{1.8}{8}{}{figure.1.8}{}}
\@writefile{lof}{\contentsline {figure}{\numberline {1.9}{\ignorespaces }}{9}{figure.1.9}\protected@file@percent }
\newlabel{fig:DownloadUpdates}{{1.9}{9}{}{figure.1.9}{}}
\@writefile{lof}{\contentsline {figure}{\numberline {1.10}{\ignorespaces }}{10}{figure.1.10}\protected@file@percent }
\newlabel{fig:EraseDisk}{{1.10}{10}{}{figure.1.10}{}}
\@writefile{lof}{\contentsline {figure}{\numberline {1.11}{\ignorespaces }}{10}{figure.1.11}\protected@file@percent }
\newlabel{fig:PopUp}{{1.11}{10}{}{figure.1.11}{}}
\@writefile{lof}{\contentsline {figure}{\numberline {1.12}{\ignorespaces }}{11}{figure.1.12}\protected@file@percent }
\newlabel{fig:TimeZone}{{1.12}{11}{}{figure.1.12}{}}
\@writefile{lof}{\contentsline {figure}{\numberline {1.13}{\ignorespaces }}{11}{figure.1.13}\protected@file@percent }
\newlabel{fig:ChooseKeyboard}{{1.13}{11}{}{figure.1.13}{}}
\@writefile{lof}{\contentsline {figure}{\numberline {1.14}{\ignorespaces }}{12}{figure.1.14}\protected@file@percent }
\newlabel{fig:NameAndPassword}{{1.14}{12}{}{figure.1.14}{}}
\@writefile{lof}{\contentsline {figure}{\numberline {1.15}{\ignorespaces }}{13}{figure.1.15}\protected@file@percent }
\newlabel{fig:FindingTerminal}{{1.15}{13}{}{figure.1.15}{}}
\@writefile{lof}{\contentsline {figure}{\numberline {1.16}{\ignorespaces }}{13}{figure.1.16}\protected@file@percent }
\newlabel{fig:HomeDirectory}{{1.16}{13}{}{figure.1.16}{}}
\@writefile{toc}{\contentsline {chapter}{\numberline {2}Raspberry Pi Set-up Lab}{14}{chapter.2}\protected@file@percent }
\@writefile{lof}{\addvspace {10\p@ }}
\@writefile{lot}{\addvspace {10\p@ }}
\newlabel{CHAP:RPISETUP}{{2}{14}{Raspberry Pi Set-up Lab}{chapter.2}{}}
\@writefile{toc}{\contentsline {section}{\numberline {2.1}Lab Learning Outcomes}{14}{section.2.1}\protected@file@percent }
\@writefile{toc}{\contentsline {subsection}{\numberline {2.1.1}Setup}{14}{subsection.2.1.1}\protected@file@percent }
\@writefile{toc}{\contentsline {section}{\numberline {2.2}Steps}{15}{section.2.2}\protected@file@percent }
\@writefile{lol}{\contentsline {lstlisting}{\textdollar }{16}{lstlisting.2.-1}\protected@file@percent }
\@writefile{lof}{\contentsline {figure}{\numberline {2.1}{\ignorespaces The network and Sharing Center.}}{19}{figure.2.1}\protected@file@percent }
\newlabel{fig:network:sharing}{{2.1}{19}{The network and Sharing Center}{figure.2.1}{}}
\@writefile{lof}{\contentsline {figure}{\numberline {2.2}{\ignorespaces Highlight the two network connections.}}{20}{figure.2.2}\protected@file@percent }
\newlabel{fig:highlight}{{2.2}{20}{Highlight the two network connections}{figure.2.2}{}}
\@writefile{lof}{\contentsline {figure}{\numberline {2.3}{\ignorespaces Bridge the connections.}}{20}{figure.2.3}\protected@file@percent }
\newlabel{fig:register:login}{{2.3}{20}{Bridge the connections}{figure.2.3}{}}
\@writefile{lof}{\contentsline {figure}{\numberline {2.4}{\ignorespaces Adapter \textsc  {mac} address fetching.}}{25}{figure.2.4}\protected@file@percent }
\newlabel{fig:macaddr}{{2.4}{25}{Adapter \textsc {mac} address fetching}{figure.2.4}{}}
\@writefile{lof}{\contentsline {figure}{\numberline {2.5}{\ignorespaces Device Registration Login screen.}}{26}{figure.2.5}\protected@file@percent }
\newlabel{fig:register:login}{{2.5}{26}{Device Registration Login screen}{figure.2.5}{}}
\@writefile{lof}{\contentsline {figure}{\numberline {2.6}{\ignorespaces Device registration \textsc  {mac} address input.}}{27}{figure.2.6}\protected@file@percent }
\newlabel{fig:device:registration}{{2.6}{27}{Device registration \textsc {mac} address input}{figure.2.6}{}}
\@writefile{lof}{\contentsline {figure}{\numberline {2.7}{\ignorespaces Raspberry Pi change password Desktop.}}{29}{figure.2.7}\protected@file@percent }
\newlabel{fig:change:passwd}{{2.7}{29}{Raspberry Pi change password Desktop}{figure.2.7}{}}
\@writefile{lof}{\contentsline {figure}{\numberline {2.8}{\ignorespaces X11 Putty configuration.}}{34}{figure.2.8}\protected@file@percent }
\newlabel{fig:putty:config}{{2.8}{34}{X11 Putty configuration}{figure.2.8}{}}
\@writefile{toc}{\contentsline {chapter}{\numberline {3}Secure Copy (\texttt  {scp})}{37}{chapter.3}\protected@file@percent }
\@writefile{lof}{\addvspace {10\p@ }}
\@writefile{lot}{\addvspace {10\p@ }}
\newlabel{CHAP:SCP}{{3}{37}{Secure Copy (\texttt {scp})}{chapter.3}{}}
\@writefile{toc}{\contentsline {section}{\numberline {3.1}Lab Learning Outcomes}{37}{section.3.1}\protected@file@percent }
\@writefile{toc}{\contentsline {section}{\numberline {3.2}Resources and Getting Help}{37}{section.3.2}\protected@file@percent }
\@writefile{toc}{\contentsline {section}{\numberline {3.3}Steps}{37}{section.3.3}\protected@file@percent }
\@writefile{toc}{\contentsline {section}{\numberline {3.4}Thematic Takeaways}{39}{section.3.4}\protected@file@percent }
\@writefile{toc}{\contentsline {chapter}{\numberline {4}C Programming with Pointers Lab}{41}{chapter.4}\protected@file@percent }
\@writefile{lof}{\addvspace {10\p@ }}
\@writefile{lot}{\addvspace {10\p@ }}
\newlabel{CHAP:POINTERS1}{{4}{41}{C Programming with Pointers Lab}{chapter.4}{}}
\@writefile{toc}{\contentsline {section}{\numberline {4.1}Lab Learning Outcomes}{41}{section.4.1}\protected@file@percent }
\@writefile{toc}{\contentsline {section}{\numberline {4.2}Lab Overview}{41}{section.4.2}\protected@file@percent }
\@writefile{toc}{\contentsline {subsection}{\numberline {4.2.1}Setup}{41}{subsection.4.2.1}\protected@file@percent }
\@writefile{toc}{\contentsline {section}{\numberline {4.3}Resources and Getting Help}{42}{section.4.3}\protected@file@percent }
\@writefile{toc}{\contentsline {section}{\numberline {4.4}Steps}{42}{section.4.4}\protected@file@percent }
\newlabel{lst:code}{{4.1}{44}{Source code of file \texttt {pointer-ex.c}}{lstlisting.4.1}{}}
\@writefile{lol}{\contentsline {lstlisting}{\numberline {4.1}Source code of file \texttt  {pointer-ex.c}.}{44}{lstlisting.4.1}\protected@file@percent }
\@writefile{toc}{\contentsline {chapter}{\numberline {5}Learning Pointers}{46}{chapter.5}\protected@file@percent }
\@writefile{lof}{\addvspace {10\p@ }}
\@writefile{lot}{\addvspace {10\p@ }}
\newlabel{CHAP:POINTERS2}{{5}{46}{Learning Pointers}{chapter.5}{}}
\@writefile{toc}{\contentsline {section}{\numberline {5.1}Lab Learning Outcomes}{46}{section.5.1}\protected@file@percent }
\@writefile{toc}{\contentsline {section}{\numberline {5.2}Resources and Getting Help}{46}{section.5.2}\protected@file@percent }
\@writefile{toc}{\contentsline {section}{\numberline {5.3}Steps}{46}{section.5.3}\protected@file@percent }
\citation{DeitelC}
\citation{DeitelC}
\@writefile{toc}{\contentsline {section}{\numberline {5.4}Thematic Takeaways}{51}{section.5.4}\protected@file@percent }
\@writefile{toc}{\contentsline {chapter}{\numberline {6}Linux Essentials Lab: Files and I/O}{52}{chapter.6}\protected@file@percent }
\@writefile{lof}{\addvspace {10\p@ }}
\@writefile{lot}{\addvspace {10\p@ }}
\newlabel{CHAP:LINUX1}{{6}{52}{Linux Essentials Lab: Files and I/O}{chapter.6}{}}
\@writefile{toc}{\contentsline {section}{\numberline {6.1}Lab Learning Outcomes}{52}{section.6.1}\protected@file@percent }
\@writefile{toc}{\contentsline {section}{\numberline {6.2}Lab Overview}{52}{section.6.2}\protected@file@percent }
\@writefile{toc}{\contentsline {subsection}{\numberline {6.2.1}Setup}{53}{subsection.6.2.1}\protected@file@percent }
\@writefile{toc}{\contentsline {section}{\numberline {6.3}Resources and Getting Help}{53}{section.6.3}\protected@file@percent }
\@writefile{toc}{\contentsline {section}{\numberline {6.4}Steps}{53}{section.6.4}\protected@file@percent }
\@writefile{lof}{\contentsline {figure}{\numberline {6.1}{\ignorespaces Linux file system can be visualized as an upside-down tree.}}{54}{figure.6.1}\protected@file@percent }
\newlabel{fig:filesystree}{{6.1}{54}{Linux file system can be visualized as an upside-down tree}{figure.6.1}{}}
\@writefile{lof}{\contentsline {figure}{\numberline {6.2}{\ignorespaces Standard input and output between keyboard and terminal.}}{56}{figure.6.2}\protected@file@percent }
\newlabel{fig:ioflow}{{6.2}{56}{Standard input and output between keyboard and terminal}{figure.6.2}{}}
\@writefile{toc}{\contentsline {section}{\numberline {6.5}Submission Guidelines}{59}{section.6.5}\protected@file@percent }
\@writefile{toc}{\contentsline {chapter}{\numberline {7}Command-Line Arguments}{60}{chapter.7}\protected@file@percent }
\@writefile{lof}{\addvspace {10\p@ }}
\@writefile{lot}{\addvspace {10\p@ }}
\newlabel{CHAP:CMDLINEARGS}{{7}{60}{Command-Line Arguments}{chapter.7}{}}
\@writefile{toc}{\contentsline {section}{\numberline {7.1}Lab Learning Outcomes}{60}{section.7.1}\protected@file@percent }
\@writefile{toc}{\contentsline {section}{\numberline {7.2}Resources and Getting Help}{60}{section.7.2}\protected@file@percent }
\@writefile{toc}{\contentsline {section}{\numberline {7.3}Steps}{60}{section.7.3}\protected@file@percent }
\@writefile{toc}{\contentsline {section}{\numberline {7.4}Thematic Takeaways}{62}{section.7.4}\protected@file@percent }
\@writefile{toc}{\contentsline {chapter}{\numberline {8}Exploring \texttt  {cat}}{63}{chapter.8}\protected@file@percent }
\@writefile{lof}{\addvspace {10\p@ }}
\@writefile{lot}{\addvspace {10\p@ }}
\newlabel{CHAP:CAT}{{8}{63}{Exploring \texttt {cat}}{chapter.8}{}}
\@writefile{toc}{\contentsline {section}{\numberline {8.1}Lab Learning Outcomes}{63}{section.8.1}\protected@file@percent }
\@writefile{toc}{\contentsline {section}{\numberline {8.2}Resources and Getting Help}{63}{section.8.2}\protected@file@percent }
\@writefile{toc}{\contentsline {section}{\numberline {8.3}Steps}{64}{section.8.3}\protected@file@percent }
\@writefile{toc}{\contentsline {section}{\numberline {8.4}Thematic Takeaways}{64}{section.8.4}\protected@file@percent }
\@writefile{toc}{\contentsline {section}{\numberline {8.5}Key Terms}{64}{section.8.5}\protected@file@percent }
\@writefile{toc}{\contentsline {chapter}{\numberline {9}Dynamic Memory Management (\texttt  {malloc}, \texttt  {calloc}, \texttt  {realloc}, and \texttt  {free})}{65}{chapter.9}\protected@file@percent }
\@writefile{lof}{\addvspace {10\p@ }}
\@writefile{lot}{\addvspace {10\p@ }}
\newlabel{CHAP:DYNAMICMM}{{9}{65}{Dynamic Memory Management (\texttt {malloc}, \texttt {calloc}, \texttt {realloc}, and \texttt {free})}{chapter.9}{}}
\@writefile{toc}{\contentsline {section}{\numberline {9.1}Lab Learning Outcomes}{65}{section.9.1}\protected@file@percent }
\@writefile{toc}{\contentsline {section}{\numberline {9.2}Resources and Getting Help}{65}{section.9.2}\protected@file@percent }
\@writefile{toc}{\contentsline {section}{\numberline {9.3}Steps}{66}{section.9.3}\protected@file@percent }
\@writefile{toc}{\contentsline {section}{\numberline {9.4}Thematic Takeaways}{68}{section.9.4}\protected@file@percent }
\@writefile{toc}{\contentsline {chapter}{\numberline {10}Compiling C in Linux: Storage and Linkage Classes; and Threads and Thread-safe Functions}{69}{chapter.10}\protected@file@percent }
\@writefile{lof}{\addvspace {10\p@ }}
\@writefile{lot}{\addvspace {10\p@ }}
\newlabel{CHAP:COMPILINGLAB}{{10}{69}{Compiling C in Linux: Storage and Linkage Classes; and Threads and Thread-safe Functions}{chapter.10}{}}
\@writefile{toc}{\contentsline {section}{\numberline {10.1}Lab Learning Outcomes}{69}{section.10.1}\protected@file@percent }
\@writefile{toc}{\contentsline {section}{\numberline {10.2}Resources and Getting Help}{69}{section.10.2}\protected@file@percent }
\@writefile{toc}{\contentsline {section}{\numberline {10.3}Steps}{70}{section.10.3}\protected@file@percent }
\@writefile{toc}{\contentsline {subsection}{\numberline {10.3.1}Collecting necessary files for the lab}{70}{subsection.10.3.1}\protected@file@percent }
\@writefile{toc}{\contentsline {subsection}{\numberline {10.3.2}Exploring separate compilation and linking}{70}{subsection.10.3.2}\protected@file@percent }
\@writefile{toc}{\contentsline {subsection}{\numberline {10.3.3}Storgage Class and Linkage Classes}{71}{subsection.10.3.3}\protected@file@percent }
\@writefile{toc}{\contentsline {section}{\numberline {10.4}Thematic Takeaways}{74}{section.10.4}\protected@file@percent }
\@writefile{toc}{\contentsline {section}{\numberline {10.5}Key Terms}{74}{section.10.5}\protected@file@percent }
\@writefile{toc}{\contentsline {chapter}{\numberline {11}Exploring Time-shared OSs and Threads}{76}{chapter.11}\protected@file@percent }
\@writefile{lof}{\addvspace {10\p@ }}
\@writefile{lot}{\addvspace {10\p@ }}
\newlabel{CHAP:THREADS}{{11}{76}{Exploring Time-shared OSs and Threads}{chapter.11}{}}
\@writefile{toc}{\contentsline {section}{\numberline {11.1}Lab Learning Outcomes}{76}{section.11.1}\protected@file@percent }
\@writefile{toc}{\contentsline {section}{\numberline {11.2}Resources and Getting Help}{76}{section.11.2}\protected@file@percent }
\@writefile{toc}{\contentsline {section}{\numberline {11.3}Steps}{77}{section.11.3}\protected@file@percent }
\@writefile{toc}{\contentsline {section}{\numberline {11.4}Thematic Takeaways}{80}{section.11.4}\protected@file@percent }
\@writefile{toc}{\contentsline {section}{\numberline {11.5}Key Terms}{80}{section.11.5}\protected@file@percent }
\citation{OSC10}
\@writefile{toc}{\contentsline {chapter}{\numberline {12}Exploring Job \& Process Scheduling Algorithms}{81}{chapter.12}\protected@file@percent }
\@writefile{lof}{\addvspace {10\p@ }}
\@writefile{lot}{\addvspace {10\p@ }}
\newlabel{CHAP:SCHEDULING}{{12}{81}{Exploring Job \& Process Scheduling Algorithms}{chapter.12}{}}
\@writefile{toc}{\contentsline {section}{\numberline {12.1}Lab Learning Outcomes}{81}{section.12.1}\protected@file@percent }
\@writefile{toc}{\contentsline {section}{\numberline {12.2}Resources and Getting Help}{81}{section.12.2}\protected@file@percent }
\@writefile{toc}{\contentsline {section}{\numberline {12.3}Introduction}{82}{section.12.3}\protected@file@percent }
\@writefile{toc}{\contentsline {section}{\numberline {12.4}Steps}{82}{section.12.4}\protected@file@percent }
\@writefile{toc}{\contentsline {section}{\numberline {12.5}Thematic Takeaways}{83}{section.12.5}\protected@file@percent }
\@writefile{toc}{\contentsline {section}{\numberline {12.6}Key Terms}{83}{section.12.6}\protected@file@percent }
\@writefile{toc}{\contentsline {chapter}{\numberline {13}Job and Semaphore Processing Simulation Project}{85}{chapter.13}\protected@file@percent }
\@writefile{lof}{\addvspace {10\p@ }}
\@writefile{lot}{\addvspace {10\p@ }}
\newlabel{CHAP:SchedulingProject}{{13}{85}{Job and Semaphore Processing Simulation Project}{chapter.13}{}}
\@writefile{toc}{\contentsline {section}{\numberline {13.1}Lab Learning Outcomes}{85}{section.13.1}\protected@file@percent }
\@writefile{toc}{\contentsline {section}{\numberline {13.2}Resources and Getting Help}{85}{section.13.2}\protected@file@percent }
\@writefile{lof}{\contentsline {figure}{\numberline {13.1}{\ignorespaces Architectural view of the simulator.}}{86}{figure.13.1}\protected@file@percent }
\newlabel{fig:arch}{{13.1}{86}{Architectural view of the simulator}{figure.13.1}{}}
\@writefile{toc}{\contentsline {section}{\numberline {13.3}Introduction}{86}{section.13.3}\protected@file@percent }
\@writefile{toc}{\contentsline {section}{\numberline {13.4}Project Specification}{86}{section.13.4}\protected@file@percent }
\@writefile{toc}{\contentsline {subsection}{\numberline {13.4.1}Problem}{86}{subsection.13.4.1}\protected@file@percent }
\@writefile{toc}{\contentsline {subsection}{\numberline {13.4.2}Detailed Description and Requirements}{86}{subsection.13.4.2}\protected@file@percent }
\@writefile{toc}{\contentsline {subsection}{\numberline {13.4.3}Event Collisions}{90}{subsection.13.4.3}\protected@file@percent }
\@writefile{toc}{\contentsline {subsection}{\numberline {13.4.4}Additional Requirements}{90}{subsection.13.4.4}\protected@file@percent }
\@writefile{toc}{\contentsline {subsection}{\numberline {13.4.5}Hints and Notes}{90}{subsection.13.4.5}\protected@file@percent }
\@writefile{toc}{\contentsline {subsection}{\numberline {13.4.6}Test Data: Sample Input and Output Streams}{91}{subsection.13.4.6}\protected@file@percent }
\@writefile{toc}{\contentsline {subsection}{\numberline {13.4.7}Project Evaluation}{92}{subsection.13.4.7}\protected@file@percent }
\@writefile{lot}{\contentsline {table}{\numberline {13.1}{\ignorespaces (left) Simulator constants and (right) process control block definition.}}{93}{table.13.1}\protected@file@percent }
\newlabel{tab:code}{{13.1}{93}{(left) Simulator constants and (right) process control block definition}{table.13.1}{}}
\@writefile{toc}{\contentsline {section}{\numberline {13.5}Implementation}{93}{section.13.5}\protected@file@percent }
\@writefile{toc}{\contentsline {subsection}{\numberline {13.5.1}Tuning Simulation Parameters}{93}{subsection.13.5.1}\protected@file@percent }
\@writefile{toc}{\contentsline {subsection}{\numberline {13.5.2}Tuning Simulation Parameters and Process Control Block (PCB)}{93}{subsection.13.5.2}\protected@file@percent }
\@writefile{toc}{\contentsline {subsection}{\numberline {13.5.3}Main Event Loop}{93}{subsection.13.5.3}\protected@file@percent }
\@writefile{toc}{\contentsline {subsection}{\numberline {13.5.4}Implementation Languages}{95}{subsection.13.5.4}\protected@file@percent }
\@writefile{toc}{\contentsline {section}{\numberline {13.6}Student Feedback}{95}{section.13.6}\protected@file@percent }
\@writefile{toc}{\contentsline {section}{\numberline {13.7}Conclusion}{95}{section.13.7}\protected@file@percent }
\@writefile{toc}{\contentsline {section}{\numberline {13.8}Thematic Takeaways}{95}{section.13.8}\protected@file@percent }
\@writefile{toc}{\contentsline {section}{\numberline {13.9}Key Terms}{96}{section.13.9}\protected@file@percent }
\@writefile{toc}{\contentsline {chapter}{\numberline {14}Exploring Process Creation in Linux: The fork System Call}{97}{chapter.14}\protected@file@percent }
\@writefile{lof}{\addvspace {10\p@ }}
\@writefile{lot}{\addvspace {10\p@ }}
\newlabel{CHAP:FORK}{{14}{97}{Exploring Process Creation in Linux: The fork System Call}{chapter.14}{}}
\@writefile{toc}{\contentsline {section}{\numberline {14.1}Lab Learning Outcomes}{97}{section.14.1}\protected@file@percent }
\@writefile{toc}{\contentsline {section}{\numberline {14.2}Resources and Getting Help}{97}{section.14.2}\protected@file@percent }
\@writefile{toc}{\contentsline {section}{\numberline {14.3}Steps}{97}{section.14.3}\protected@file@percent }
\@writefile{toc}{\contentsline {section}{\numberline {14.4}Thematic Takeaways}{98}{section.14.4}\protected@file@percent }
\citation{USP}
\citation{USP}
\@writefile{toc}{\contentsline {chapter}{\numberline {15}Token Ring of Processes}{99}{chapter.15}\protected@file@percent }
\@writefile{lof}{\addvspace {10\p@ }}
\@writefile{lot}{\addvspace {10\p@ }}
\newlabel{CHAP:RING}{{15}{99}{Token Ring of Processes}{chapter.15}{}}
\@writefile{toc}{\contentsline {section}{\numberline {15.1}Lab Learning Outcomes}{99}{section.15.1}\protected@file@percent }
\@writefile{toc}{\contentsline {section}{\numberline {15.2}Resources and Getting Help}{99}{section.15.2}\protected@file@percent }
\@writefile{toc}{\contentsline {section}{\numberline {15.3}Steps}{100}{section.15.3}\protected@file@percent }
\@writefile{toc}{\contentsline {section}{\numberline {15.4}Thematic Takeaways}{101}{section.15.4}\protected@file@percent }
\@writefile{toc}{\contentsline {section}{\numberline {15.5}Key Terms}{102}{section.15.5}\protected@file@percent }
\@writefile{toc}{\contentsline {chapter}{\numberline {16}Linux Kernel Lab---System Calls}{103}{chapter.16}\protected@file@percent }
\@writefile{lof}{\addvspace {10\p@ }}
\@writefile{lot}{\addvspace {10\p@ }}
\newlabel{CHAP:KERNEL}{{16}{103}{Linux Kernel Lab---System Calls}{chapter.16}{}}
\@writefile{toc}{\contentsline {section}{\numberline {16.1}Lab Overview}{103}{section.16.1}\protected@file@percent }
\@writefile{toc}{\contentsline {subsection}{\numberline {16.1.1}Setup}{103}{subsection.16.1.1}\protected@file@percent }
\@writefile{toc}{\contentsline {section}{\numberline {16.2}Resources and Getting Help}{103}{section.16.2}\protected@file@percent }
\@writefile{toc}{\contentsline {section}{\numberline {16.3}Steps}{104}{section.16.3}\protected@file@percent }
\newlabel{sec:syscalls}{{1}{104}{Steps}{Item.173}{}}
\newlabel{lst:codehello}{{16.1}{104}{Source code of file \texttt {hello.c}}{lstlisting.16.1}{}}
\@writefile{lol}{\contentsline {lstlisting}{\numberline {16.1}Source code of file \texttt  {hello.c}.}{104}{lstlisting.16.1}\protected@file@percent }
\newlabel{lst:codeioctl}{{16.2}{106}{Source code of file \texttt {myioctl.c}}{lstlisting.16.2}{}}
\@writefile{lol}{\contentsline {lstlisting}{\numberline {16.2}Source code of file \texttt  {myioctl.c}.}{106}{lstlisting.16.2}\protected@file@percent }
\newlabel{lst:codeuser}{{16.3}{109}{Source code of file \texttt {hello.c}}{lstlisting.16.3}{}}
\@writefile{lol}{\contentsline {lstlisting}{\numberline {16.3}Source code of file \texttt  {hello.c}.}{109}{lstlisting.16.3}\protected@file@percent }
\@writefile{toc}{\contentsline {section}{\numberline {16.4}Submission Guidelines}{110}{section.16.4}\protected@file@percent }
\citation{OSC8}
\citation{OSC10}
\@writefile{toc}{\contentsline {chapter}{\numberline {17}Adding a New System Call: Compiling a Custom Kernel}{111}{chapter.17}\protected@file@percent }
\@writefile{lof}{\addvspace {10\p@ }}
\@writefile{lot}{\addvspace {10\p@ }}
\newlabel{CHAP:SYSTEMCALL}{{17}{111}{Adding a New System Call: Compiling a Custom Kernel}{chapter.17}{}}
\@writefile{toc}{\contentsline {section}{\numberline {17.1}Lab Learning Outcomes}{111}{section.17.1}\protected@file@percent }
\@writefile{toc}{\contentsline {section}{\numberline {17.2}Resources and Getting Help}{111}{section.17.2}\protected@file@percent }
\@writefile{toc}{\contentsline {chapter}{\numberline {18}Buffer Overflow Attacks and Defenses}{117}{chapter.18}\protected@file@percent }
\@writefile{lof}{\addvspace {10\p@ }}
\@writefile{lot}{\addvspace {10\p@ }}
\newlabel{CHAP:BOF}{{18}{117}{Buffer Overflow Attacks and Defenses}{chapter.18}{}}
\@writefile{toc}{\contentsline {section}{\numberline {18.1}Lab Learning Outcomes}{117}{section.18.1}\protected@file@percent }
\@writefile{toc}{\contentsline {section}{\numberline {18.2}Preparation}{118}{section.18.2}\protected@file@percent }
\newlabel{lst:Cprogram}{{18.2}{120}{}{lstlisting.18.-90}{}}
\@writefile{toc}{\contentsline {section}{\numberline {18.3}Lab tasks}{120}{section.18.3}\protected@file@percent }
\@writefile{toc}{\contentsline {subsection}{\numberline {18.3.1}Task 1: Identify the buffer size and overwrite the return address}{120}{subsection.18.3.1}\protected@file@percent }
\@writefile{toc}{\contentsline {subsection}{\numberline {18.3.2}Task 2: Identify the buffer address}{123}{subsection.18.3.2}\protected@file@percent }
\@writefile{toc}{\contentsline {subsection}{\numberline {18.3.3}Task 3: Construct the payload}{125}{subsection.18.3.3}\protected@file@percent }
\@writefile{toc}{\contentsline {subsection}{\numberline {18.3.4}Task 4: Launching the attack}{127}{subsection.18.3.4}\protected@file@percent }
\@writefile{toc}{\contentsline {subsection}{\numberline {18.3.5}Task 5: A Buffer Overflow Attack Countermeasure}{129}{subsection.18.3.5}\protected@file@percent }
\@writefile{toc}{\contentsline {section}{\numberline {18.4}Thematic Takeaways}{129}{section.18.4}\protected@file@percent }
\@writefile{toc}{\contentsline {section}{\numberline {18.5}Lab Summary}{130}{section.18.5}\protected@file@percent }
\@writefile{toc}{\contentsline {section}{\numberline {18.6}Key Terms}{130}{section.18.6}\protected@file@percent }
\@writefile{toc}{\contentsline {section}{\numberline {18.7}Bibliographic Notes}{130}{section.18.7}\protected@file@percent }
\@writefile{toc}{\contentsline {chapter}{\numberline {19}Android Application Reverse Engineering}{131}{chapter.19}\protected@file@percent }
\@writefile{lof}{\addvspace {10\p@ }}
\@writefile{lot}{\addvspace {10\p@ }}
\newlabel{CHAP:ANDROID}{{19}{131}{Android Application Reverse Engineering}{chapter.19}{}}
\@writefile{toc}{\contentsline {section}{\numberline {19.1}Lab Learning Outcomes}{131}{section.19.1}\protected@file@percent }
\@writefile{toc}{\contentsline {section}{\numberline {19.2}Preparation}{131}{section.19.2}\protected@file@percent }
\@writefile{toc}{\contentsline {paragraph}{Download the Android application.}{132}{section*.37}\protected@file@percent }
\@writefile{toc}{\contentsline {paragraph}{Download the Apktool tool.}{132}{section*.38}\protected@file@percent }
\@writefile{toc}{\contentsline {section}{\numberline {19.3}Lab Tasks}{133}{section.19.3}\protected@file@percent }
\@writefile{toc}{\contentsline {subsection}{\numberline {19.3.1}Task 1: Upload and Run an APK Android app in an Android Emulator}{133}{subsection.19.3.1}\protected@file@percent }
\@writefile{toc}{\contentsline {subsection}{\numberline {19.3.2}Task 2: Reverse Engineer and Modify a Hybrid Android app}{136}{subsection.19.3.2}\protected@file@percent }
\@writefile{toc}{\contentsline {subsection}{\numberline {19.3.3}Task 3: Rebuild a Modified Android app}{140}{subsection.19.3.3}\protected@file@percent }
\@writefile{toc}{\contentsline {section}{\numberline {19.4}Thematic Takeaways}{143}{section.19.4}\protected@file@percent }
\@writefile{toc}{\contentsline {section}{\numberline {19.5}Lab Summary}{143}{section.19.5}\protected@file@percent }
\@writefile{toc}{\contentsline {section}{\numberline {19.6}Key Terms}{144}{section.19.6}\protected@file@percent }
\@writefile{toc}{\contentsline {section}{\numberline {19.7}Bibliographic Notes}{144}{section.19.7}\protected@file@percent }
\@writefile{toc}{\contentsline {chapter}{\numberline {20}Introduction to Internet of Things (Camera Sensors)}{145}{chapter.20}\protected@file@percent }
\@writefile{lof}{\addvspace {10\p@ }}
\@writefile{lot}{\addvspace {10\p@ }}
\newlabel{CHAP:IOTCAMERA}{{20}{145}{Introduction to Internet of Things (Camera Sensors)}{chapter.20}{}}
\@writefile{toc}{\contentsline {section}{\numberline {20.1}Lab Learning Outcomes}{145}{section.20.1}\protected@file@percent }
\@writefile{toc}{\contentsline {section}{\numberline {20.2}Introduction}{146}{section.20.2}\protected@file@percent }
\newlabel{sec:IoTintroduction:cam}{{20.2}{146}{Introduction}{section.20.2}{}}
\@writefile{toc}{\contentsline {subsection}{\numberline {20.2.1}Internet of Things Examples}{146}{subsection.20.2.1}\protected@file@percent }
\@writefile{toc}{\contentsline {subsection}{\numberline {20.2.2}Why Study This Stuff Anyway?}{147}{subsection.20.2.2}\protected@file@percent }
\@writefile{toc}{\contentsline {subsection}{\numberline {20.2.3}Conceptual Exercises for Section\nobreakspace  {}\ref  {sec:IoTintroduction:cam}}{147}{subsection.20.2.3}\protected@file@percent }
\@writefile{lof}{\contentsline {figure}{\numberline {20.1}{\ignorespaces Enabling the RPi Camera Interface.}}{148}{figure.20.1}\protected@file@percent }
\newlabel{fig:camera-interface:cam}{{20.1}{148}{Enabling the RPi Camera Interface}{figure.20.1}{}}
\@writefile{toc}{\contentsline {subsection}{\numberline {20.2.4}Hands-on Exercises for Section\nobreakspace  {}\ref  {sec:IoTintroduction:cam}}{148}{subsection.20.2.4}\protected@file@percent }
\@writefile{lof}{\contentsline {figure}{\numberline {20.2}{\ignorespaces RPi board (RPicamera connector circled).}}{149}{figure.20.2}\protected@file@percent }
\newlabel{fig:iot-pi-board:cam}{{20.2}{149}{RPi board (RPicamera connector circled)}{figure.20.2}{}}
\@writefile{lof}{\contentsline {figure}{\numberline {20.3}{\ignorespaces Ensure black connector is up.}}{150}{figure.20.3}\protected@file@percent }
\newlabel{fig:iot-camera-slot:cam}{{20.3}{150}{Ensure black connector is up}{figure.20.3}{}}
\@writefile{lof}{\contentsline {figure}{\numberline {20.4}{\ignorespaces RPi Camera with ribbon connector circled.}}{150}{figure.20.4}\protected@file@percent }
\newlabel{fig:iot-ribbon-cable:cam}{{20.4}{150}{RPi Camera with ribbon connector circled}{figure.20.4}{}}
\@writefile{lof}{\contentsline {figure}{\numberline {20.5}{\ignorespaces RPi Camera ribbon cable positioned and ready for insertion.}}{151}{figure.20.5}\protected@file@percent }
\newlabel{fig:iot-ready:cam}{{20.5}{151}{RPi Camera ribbon cable positioned and ready for insertion}{figure.20.5}{}}
\@writefile{lof}{\contentsline {figure}{\numberline {20.6}{\ignorespaces RPi Camera ribbon cable installed. Note how the black connector is in the down position.}}{151}{figure.20.6}\protected@file@percent }
\newlabel{fig:iot-camera-connected:cam}{{20.6}{151}{RPi Camera ribbon cable installed. Note how the black connector is in the down position}{figure.20.6}{}}
\@writefile{lof}{\contentsline {figure}{\numberline {20.7}{\ignorespaces Location of Terminal Window Icon.}}{152}{figure.20.7}\protected@file@percent }
\newlabel{fig:term-window:cam}{{20.7}{152}{Location of Terminal Window Icon}{figure.20.7}{}}
\@writefile{lof}{\contentsline {figure}{\numberline {20.8}{\ignorespaces Updating the Operating System.}}{153}{figure.20.8}\protected@file@percent }
\newlabel{fig:apt-update:cam}{{20.8}{153}{Updating the Operating System}{figure.20.8}{}}
\@writefile{lof}{\contentsline {figure}{\numberline {20.9}{\ignorespaces Upgrading the Operating System.}}{153}{figure.20.9}\protected@file@percent }
\newlabel{fig:apt-upgrade:cam}{{20.9}{153}{Upgrading the Operating System}{figure.20.9}{}}
\@writefile{lof}{\contentsline {figure}{\numberline {20.10}{\ignorespaces Downloading the RPi Camera Web Interface.}}{154}{figure.20.10}\protected@file@percent }
\newlabel{fig:getting-rpi-cam-web:cam}{{20.10}{154}{Downloading the RPi Camera Web Interface}{figure.20.10}{}}
\@writefile{lof}{\contentsline {figure}{\numberline {20.11}{\ignorespaces Installing the RPi Camera Web Interface.}}{155}{figure.20.11}\protected@file@percent }
\newlabel{fig:installing-cam-web-software:cam}{{20.11}{155}{Installing the RPi Camera Web Interface}{figure.20.11}{}}
\@writefile{lof}{\contentsline {figure}{\numberline {20.12}{\ignorespaces RPi Camera Website.}}{155}{figure.20.12}\protected@file@percent }
\newlabel{fig:camera-web-site:cam}{{20.12}{155}{RPi Camera Website}{figure.20.12}{}}
\@writefile{lof}{\contentsline {figure}{\numberline {20.13}{\ignorespaces RPi Camera Web Interface.}}{156}{figure.20.13}\protected@file@percent }
\newlabel{fig:camera-web-interface:cam}{{20.13}{156}{RPi Camera Web Interface}{figure.20.13}{}}
\@writefile{toc}{\contentsline {section}{\numberline {20.3}Thematic Takeaways}{157}{section.20.3}\protected@file@percent }
\@writefile{toc}{\contentsline {section}{\numberline {20.4}Chapter Summary}{157}{section.20.4}\protected@file@percent }
\@writefile{toc}{\contentsline {section}{\numberline {20.5}Key Terms}{158}{section.20.5}\protected@file@percent }
\@writefile{toc}{\contentsline {chapter}{\numberline {21}Setting up LtSense on the BeagleBone}{159}{chapter.21}\protected@file@percent }
\@writefile{lof}{\addvspace {10\p@ }}
\@writefile{lot}{\addvspace {10\p@ }}
\newlabel{CHAP:BigSenseLtSenseSetupBeagleBone}{{21}{159}{Setting up LtSense on the BeagleBone}{chapter.21}{}}
\@writefile{toc}{\contentsline {section}{\numberline {21.1}Lab Learning Outcomes}{159}{section.21.1}\protected@file@percent }
\@writefile{toc}{\contentsline {section}{\numberline {21.2}Resources and Getting Help}{159}{section.21.2}\protected@file@percent }
\@writefile{lof}{\contentsline {figure}{\numberline {21.1}{\ignorespaces DS18B20 Temperature Sensor.}}{160}{figure.21.1}\protected@file@percent }
\newlabel{picds}{{21.1}{160}{DS18B20 Temperature Sensor}{figure.21.1}{}}
\@writefile{lof}{\contentsline {figure}{\numberline {21.2}{\ignorespaces DS18B20 Block Diagram.}}{161}{figure.21.2}\protected@file@percent }
\newlabel{fig:ds}{{21.2}{161}{DS18B20 Block Diagram}{figure.21.2}{}}
\@writefile{lof}{\contentsline {figure}{\numberline {21.3}{\ignorespaces 1-Wire Wiring Diagram (Notice the ``Female Connector'').}}{161}{figure.21.3}\protected@file@percent }
\newlabel{fig:pinds}{{21.3}{161}{1-Wire Wiring Diagram (Notice the ``Female Connector'')}{figure.21.3}{}}
\@writefile{toc}{\contentsline {section}{\numberline {21.3}Preliminaries and Stylistic Conventions}{162}{section.21.3}\protected@file@percent }
\@writefile{toc}{\contentsline {section}{\numberline {21.4}Materials}{163}{section.21.4}\protected@file@percent }
\@writefile{toc}{\contentsline {section}{\numberline {21.5}Linux Commands}{163}{section.21.5}\protected@file@percent }
\@writefile{toc}{\contentsline {subsection}{\numberline {21.5.1}Other Linux Concepts}{164}{subsection.21.5.1}\protected@file@percent }
\@writefile{toc}{\contentsline {section}{\numberline {21.6}Procedure}{164}{section.21.6}\protected@file@percent }
\@writefile{lof}{\contentsline {figure}{\numberline {21.4}{\ignorespaces Beagle Bone Black connected to a laptop.}}{165}{figure.21.4}\protected@file@percent }
\newlabel{fig:bbb}{{21.4}{165}{Beagle Bone Black connected to a laptop}{figure.21.4}{}}
\@writefile{lof}{\contentsline {figure}{\numberline {21.5}{\ignorespaces Putty connection dialogue.}}{166}{figure.21.5}\protected@file@percent }
\newlabel{fig:putty}{{21.5}{166}{Putty connection dialogue}{figure.21.5}{}}
\@writefile{toc}{\contentsline {section}{\numberline {21.7}Thematic Takeaways}{176}{section.21.7}\protected@file@percent }
\@writefile{toc}{\contentsline {section}{\numberline {21.8}Lab Summary}{177}{section.21.8}\protected@file@percent }
\@writefile{toc}{\contentsline {section}{\numberline {21.9}Key Terms}{177}{section.21.9}\protected@file@percent }
\@writefile{toc}{\contentsline {chapter}{\numberline {22}Field Work Data}{178}{chapter.22}\protected@file@percent }
\@writefile{lof}{\addvspace {10\p@ }}
\@writefile{lot}{\addvspace {10\p@ }}
\newlabel{CHAP:BigSenseFieldWorkData}{{22}{178}{Field Work Data}{chapter.22}{}}
\@writefile{toc}{\contentsline {section}{\numberline {22.1}Lab Learning Outcomes}{178}{section.22.1}\protected@file@percent }
\@writefile{toc}{\contentsline {section}{\numberline {22.2}Resources and Getting Help}{178}{section.22.2}\protected@file@percent }
\@writefile{toc}{\contentsline {section}{\numberline {22.3}Introduction}{178}{section.22.3}\protected@file@percent }
\@writefile{toc}{\contentsline {section}{\numberline {22.4}Create a Study}{178}{section.22.4}\protected@file@percent }
\@writefile{toc}{\contentsline {section}{\numberline {22.5}Data Formats}{179}{section.22.5}\protected@file@percent }
\@writefile{toc}{\contentsline {section}{\numberline {22.6}Questions}{180}{section.22.6}\protected@file@percent }
\@writefile{toc}{\contentsline {section}{\numberline {22.7}Thematic Takeaways}{182}{section.22.7}\protected@file@percent }
\@writefile{toc}{\contentsline {section}{\numberline {22.8}Lab Summary}{183}{section.22.8}\protected@file@percent }
\@writefile{toc}{\contentsline {section}{\numberline {22.9}Key Terms}{183}{section.22.9}\protected@file@percent }
\@writefile{toc}{\contentsline {chapter}{\numberline {23}BigSense}{184}{chapter.23}\protected@file@percent }
\@writefile{lof}{\addvspace {10\p@ }}
\@writefile{lot}{\addvspace {10\p@ }}
\newlabel{CHAP:BigSense}{{23}{184}{BigSense}{chapter.23}{}}
\@writefile{toc}{\contentsline {section}{\numberline {23.1}Lab Learning Outcomes}{184}{section.23.1}\protected@file@percent }
\@writefile{toc}{\contentsline {section}{\numberline {23.2}Introduction}{184}{section.23.2}\protected@file@percent }
\@writefile{toc}{\contentsline {section}{\numberline {23.3}Materials}{185}{section.23.3}\protected@file@percent }
\@writefile{toc}{\contentsline {section}{\numberline {23.4}Procedure}{185}{section.23.4}\protected@file@percent }
\@writefile{toc}{\contentsline {section}{\numberline {23.5}Summary}{191}{section.23.5}\protected@file@percent }
\@writefile{toc}{\contentsline {section}{\numberline {23.6}Thematic Takeaways}{192}{section.23.6}\protected@file@percent }
\@writefile{toc}{\contentsline {section}{\numberline {23.7}Lab Summary}{192}{section.23.7}\protected@file@percent }
\@writefile{toc}{\contentsline {section}{\numberline {23.8}Key Terms}{192}{section.23.8}\protected@file@percent }
\@writefile{toc}{\contentsline {section}{\numberline {23.9}Notes from the Authors}{192}{section.23.9}\protected@file@percent }
\citation{OSC10}
\@writefile{toc}{\contentsline {chapter}{\numberline {24}Critical Sections, Race Conditions, \& Deadlock}{195}{chapter.24}\protected@file@percent }
\@writefile{lof}{\addvspace {10\p@ }}
\@writefile{lot}{\addvspace {10\p@ }}
\newlabel{CHAP:RACECONDITIONS}{{24}{195}{Critical Sections, Race Conditions, \& Deadlock}{chapter.24}{}}
\@writefile{toc}{\contentsline {section}{\numberline {24.1}Lab Learning Outcomes}{195}{section.24.1}\protected@file@percent }
\@writefile{toc}{\contentsline {section}{\numberline {24.2}Resources and Getting Help}{195}{section.24.2}\protected@file@percent }
\@writefile{toc}{\contentsline {section}{\numberline {24.3}Activities}{195}{section.24.3}\protected@file@percent }
\@writefile{toc}{\contentsline {section}{\numberline {24.4}Thematic Takeaways}{199}{section.24.4}\protected@file@percent }
\@writefile{toc}{\contentsline {section}{\numberline {24.5}Key Terms}{199}{section.24.5}\protected@file@percent }
\@writefile{toc}{\contentsline {chapter}{\numberline {25}An Introduction to Go, Goroutines, and Channels}{200}{chapter.25}\protected@file@percent }
\@writefile{lof}{\addvspace {10\p@ }}
\@writefile{lot}{\addvspace {10\p@ }}
\newlabel{CHAP:CSP1}{{25}{200}{An Introduction to Go, Goroutines, and Channels}{chapter.25}{}}
\@writefile{toc}{\contentsline {section}{\numberline {25.1}Lab Learning Outcomes}{200}{section.25.1}\protected@file@percent }
\@writefile{toc}{\contentsline {section}{\numberline {25.2}Resources and Getting Help}{200}{section.25.2}\protected@file@percent }
\@writefile{toc}{\contentsline {section}{\numberline {25.3}Activities}{200}{section.25.3}\protected@file@percent }
\@writefile{toc}{\contentsline {section}{\numberline {25.4}Thematic Takeaways}{201}{section.25.4}\protected@file@percent }
\@writefile{toc}{\contentsline {section}{\numberline {25.5}Key Terms}{201}{section.25.5}\protected@file@percent }
\@writefile{toc}{\contentsline {section}{\numberline {25.6}Bibliographic Notes}{201}{section.25.6}\protected@file@percent }
\@writefile{toc}{\contentsline {chapter}{\numberline {26}Learning Channels and Communicating Sequential Processes (in Go)}{202}{chapter.26}\protected@file@percent }
\@writefile{lof}{\addvspace {10\p@ }}
\@writefile{lot}{\addvspace {10\p@ }}
\newlabel{CHAP:CSP2}{{26}{202}{Learning Channels and Communicating Sequential Processes (in Go)}{chapter.26}{}}
\@writefile{toc}{\contentsline {section}{\numberline {26.1}Lab Learning Outcomes}{202}{section.26.1}\protected@file@percent }
\@writefile{toc}{\contentsline {section}{\numberline {26.2}Resources and Getting Help}{202}{section.26.2}\protected@file@percent }
\@writefile{toc}{\contentsline {section}{\numberline {26.3}Activities}{202}{section.26.3}\protected@file@percent }
\@writefile{toc}{\contentsline {section}{\numberline {26.4}Thematic Takeaways}{203}{section.26.4}\protected@file@percent }
\@writefile{toc}{\contentsline {section}{\numberline {26.5}Bibliographic Notes}{203}{section.26.5}\protected@file@percent }
\@writefile{toc}{\contentsline {chapter}{\numberline {27}More Channels and Communicating Sequential Processes}{204}{chapter.27}\protected@file@percent }
\@writefile{lof}{\addvspace {10\p@ }}
\@writefile{lot}{\addvspace {10\p@ }}
\newlabel{CHAP:CSP3}{{27}{204}{More Channels and Communicating Sequential Processes}{chapter.27}{}}
\@writefile{toc}{\contentsline {section}{\numberline {27.1}Lab Learning Outcomes}{204}{section.27.1}\protected@file@percent }
\@writefile{toc}{\contentsline {section}{\numberline {27.2}Resources and Getting Help}{204}{section.27.2}\protected@file@percent }
\@writefile{toc}{\contentsline {section}{\numberline {27.3}Activities}{204}{section.27.3}\protected@file@percent }
\@writefile{toc}{\contentsline {section}{\numberline {27.4}Thematic Takeaways}{205}{section.27.4}\protected@file@percent }
\@writefile{toc}{\contentsline {section}{\numberline {27.5}Key Terms}{205}{section.27.5}\protected@file@percent }
\@writefile{toc}{\contentsline {section}{\numberline {27.6}Bibliographic Notes}{205}{section.27.6}\protected@file@percent }
\@writefile{toc}{\contentsline {chapter}{\numberline {28}Exploring the Actor Model of Concurrency in Elixir}{206}{chapter.28}\protected@file@percent }
\@writefile{lof}{\addvspace {10\p@ }}
\@writefile{lot}{\addvspace {10\p@ }}
\newlabel{CHAP:ACTOR}{{28}{206}{Exploring the Actor Model of Concurrency in Elixir}{chapter.28}{}}
\@writefile{toc}{\contentsline {section}{\numberline {28.1}Lab Learning Outcomes}{206}{section.28.1}\protected@file@percent }
\@writefile{toc}{\contentsline {section}{\numberline {28.2}Resources and Getting Help}{206}{section.28.2}\protected@file@percent }
\@writefile{toc}{\contentsline {section}{\numberline {28.3}Activities}{207}{section.28.3}\protected@file@percent }
\@writefile{toc}{\contentsline {section}{\numberline {28.4}Thematic Takeaways}{207}{section.28.4}\protected@file@percent }
\@writefile{toc}{\contentsline {section}{\numberline {28.5}Bibliographic Notes}{207}{section.28.5}\protected@file@percent }
\@writefile{toc}{\contentsline {chapter}{\numberline {29}Time-of-check to Time-of-use Race Conditions}{208}{chapter.29}\protected@file@percent }
\@writefile{lof}{\addvspace {10\p@ }}
\@writefile{lot}{\addvspace {10\p@ }}
\newlabel{CHAP:TOCTOU}{{29}{208}{Time-of-check to Time-of-use Race Conditions}{chapter.29}{}}
\@writefile{toc}{\contentsline {section}{\numberline {29.1}Lab Learning Outcomes}{208}{section.29.1}\protected@file@percent }
\@writefile{toc}{\contentsline {section}{\numberline {29.2}Preparation}{208}{section.29.2}\protected@file@percent }
\@writefile{toc}{\contentsline {section}{\numberline {29.3}Lab Tasks}{211}{section.29.3}\protected@file@percent }
\@writefile{toc}{\contentsline {subsection}{\numberline {29.3.1}Task 1: Understanding the Application}{211}{subsection.29.3.1}\protected@file@percent }
\@writefile{toc}{\contentsline {subsection}{\numberline {29.3.2}Task 2: Exploiting Time-of-check to time-of-use (TOCTOU) vulnerability}{212}{subsection.29.3.2}\protected@file@percent }
\@writefile{toc}{\contentsline {section}{\numberline {29.4}Thematic Takeaways}{215}{section.29.4}\protected@file@percent }
\@writefile{toc}{\contentsline {section}{\numberline {29.5}Lab Summary}{215}{section.29.5}\protected@file@percent }
\@writefile{toc}{\contentsline {section}{\numberline {29.6}Key Terms}{215}{section.29.6}\protected@file@percent }
\@writefile{toc}{\contentsline {section}{\numberline {29.7}Bibliographic Notes}{215}{section.29.7}\protected@file@percent }
\@writefile{toc}{\contentsline {chapter}{\numberline {30}Cloud Computing and Big Data Processing (Part I)}{218}{chapter.30}\protected@file@percent }
\@writefile{lof}{\addvspace {10\p@ }}
\@writefile{lot}{\addvspace {10\p@ }}
\newlabel{CHAP:AWSCLUSTER}{{30}{218}{Cloud Computing and Big Data Processing (Part I)}{chapter.30}{}}
\@writefile{toc}{\contentsline {section}{\numberline {30.1}Lab Learning Outcomes}{218}{section.30.1}\protected@file@percent }
\@writefile{toc}{\contentsline {section}{\numberline {30.2}Resources and Getting Help}{218}{section.30.2}\protected@file@percent }
\@writefile{toc}{\contentsline {section}{\numberline {30.3}Initial Setup and Preparation}{218}{section.30.3}\protected@file@percent }
\@writefile{toc}{\contentsline {section}{\numberline {30.4}Create A Cluster of Virtual Machines}{219}{section.30.4}\protected@file@percent }
\@writefile{lof}{\contentsline {figure}{\numberline {30.1}{\ignorespaces Amazon cloud computing services.}}{219}{figure.30.1}\protected@file@percent }
\newlabel{log}{{30.1}{219}{Amazon cloud computing services}{figure.30.1}{}}
\@writefile{lof}{\contentsline {figure}{\numberline {30.2}{\ignorespaces Amazon EC2 (Elastic Compute Cloud) resources.}}{220}{figure.30.2}\protected@file@percent }
\newlabel{EC2}{{30.2}{220}{Amazon EC2 (Elastic Compute Cloud) resources}{figure.30.2}{}}
\@writefile{lof}{\contentsline {figure}{\numberline {30.3}{\ignorespaces Check your region.}}{220}{figure.30.3}\protected@file@percent }
\newlabel{region}{{30.3}{220}{Check your region}{figure.30.3}{}}
\@writefile{lof}{\contentsline {figure}{\numberline {30.4}{\ignorespaces Start to install \textsc  {os} on virtual machines.}}{221}{figure.30.4}\protected@file@percent }
\newlabel{launch}{{30.4}{221}{Start to install \textsc {os} on virtual machines}{figure.30.4}{}}
\@writefile{lof}{\contentsline {figure}{\numberline {30.5}{\ignorespaces Select Ubuntu Server.}}{221}{figure.30.5}\protected@file@percent }
\newlabel{freetier}{{30.5}{221}{Select Ubuntu Server}{figure.30.5}{}}
\@writefile{lof}{\contentsline {figure}{\numberline {30.6}{\ignorespaces Choose instance type.}}{222}{figure.30.6}\protected@file@percent }
\newlabel{type}{{30.6}{222}{Choose instance type}{figure.30.6}{}}
\@writefile{lof}{\contentsline {figure}{\numberline {30.7}{\ignorespaces Input the number of instances.}}{222}{figure.30.7}\protected@file@percent }
\@writefile{lof}{\contentsline {figure}{\numberline {30.8}{\ignorespaces Select default storage setting.}}{223}{figure.30.8}\protected@file@percent }
\@writefile{lof}{\contentsline {figure}{\numberline {30.9}{\ignorespaces Name the cluster.}}{223}{figure.30.9}\protected@file@percent }
\@writefile{lof}{\contentsline {figure}{\numberline {30.10}{\ignorespaces Create a new security group for the cluster.}}{224}{figure.30.10}\protected@file@percent }
\newlabel{addRule}{{30.10}{224}{Create a new security group for the cluster}{figure.30.10}{}}
\@writefile{lof}{\contentsline {figure}{\numberline {30.11}{\ignorespaces Download a new key pair.}}{225}{figure.30.11}\protected@file@percent }
\newlabel{keypair}{{30.11}{225}{Download a new key pair}{figure.30.11}{}}
\@writefile{lof}{\contentsline {figure}{\numberline {30.12}{\ignorespaces \textsc  {vm} instance information at \textsc  {aws}.}}{226}{figure.30.12}\protected@file@percent }
\newlabel{VMs}{{30.12}{226}{\textsc {vm} instance information at \textsc {aws}}{figure.30.12}{}}
\@writefile{toc}{\contentsline {subsection}{\numberline {30.4.1}Connecting to Virtual Machines from Local Computers}{226}{subsection.30.4.1}\protected@file@percent }
\newlabel{subsect:putty}{{30.4.1}{226}{Connecting to Virtual Machines from Local Computers}{subsection.30.4.1}{}}
\@writefile{lof}{\contentsline {figure}{\numberline {30.13}{\ignorespaces Launch PuttyGen to convert \texttt  {.pem} to a private key.}}{227}{figure.30.13}\protected@file@percent }
\newlabel{convertPrivate}{{30.13}{227}{Launch PuttyGen to convert \texttt {.pem} to a private key}{figure.30.13}{}}
\@writefile{lof}{\contentsline {figure}{\numberline {30.14}{\ignorespaces Save the private key.}}{227}{figure.30.14}\protected@file@percent }
\@writefile{lof}{\contentsline {figure}{\numberline {30.15}{\ignorespaces Save the key without a passphrase.}}{228}{figure.30.15}\protected@file@percent }
\@writefile{lof}{\contentsline {figure}{\numberline {30.16}{\ignorespaces Use public \textsc  {ip} addresses to connect to \textsc  {vm}s at \textsc  {aws}.}}{228}{figure.30.16}\protected@file@percent }
\newlabel{puttyIP}{{30.16}{228}{Use public \textsc {ip} addresses to connect to \textsc {vm}s at \textsc {aws}}{figure.30.16}{}}
\@writefile{lof}{\contentsline {figure}{\numberline {30.17}{\ignorespaces Authentication using the private key.}}{229}{figure.30.17}\protected@file@percent }
\@writefile{lof}{\contentsline {figure}{\numberline {30.18}{\ignorespaces An \textsc  {ssh} session with a \textsc  {vm} instance at \textsc  {aws}. The \textsc  {ip} address \texttt  {172-31-31-173} shown on the window is the private \textsc  {ip} address of this instance.}}{229}{figure.30.18}\protected@file@percent }
\@writefile{lof}{\contentsline {figure}{\numberline {30.19}{\ignorespaces Left: \textsc  {ssh} sessions with \textsc  {vm} instances at \textsc  {aws}. Right: \textsc  {vm} states at \textsc  {aws}.}}{230}{figure.30.19}\protected@file@percent }
\newlabel{VMsAtAWS}{{30.19}{230}{Left: \textsc {ssh} sessions with \textsc {vm} instances at \textsc {aws}. Right: \textsc {vm} states at \textsc {aws}}{figure.30.19}{}}
\@writefile{toc}{\contentsline {subsection}{\numberline {30.4.2}Create Group/User and Set Up Password Authentication}{230}{subsection.30.4.2}\protected@file@percent }
\newlabel{subsectionGroupUser}{{30.4.2}{230}{Create Group/User and Set Up Password Authentication}{subsection.30.4.2}{}}
\@writefile{lof}{\contentsline {figure}{\numberline {30.20}{\ignorespaces Create a group and a user in this group on each \textsc  {vm}.}}{231}{figure.30.20}\protected@file@percent }
\newlabel{createGroup}{{30.20}{231}{Create a group and a user in this group on each \textsc {vm}}{figure.30.20}{}}
\@writefile{lof}{\contentsline {figure}{\numberline {30.21}{\ignorespaces Allow root access.}}{231}{figure.30.21}\protected@file@percent }
\@writefile{lof}{\contentsline {figure}{\numberline {30.22}{\ignorespaces Open the ssh configuration file for editing.}}{232}{figure.30.22}\protected@file@percent }
\@writefile{lof}{\contentsline {figure}{\numberline {30.23}{\ignorespaces Use \texttt  {vi} commands to edit the file.}}{232}{figure.30.23}\protected@file@percent }
\@writefile{lof}{\contentsline {figure}{\numberline {30.24}{\ignorespaces Set Password Authentication Yes.}}{233}{figure.30.24}\protected@file@percent }
\@writefile{lof}{\contentsline {figure}{\numberline {30.25}{\ignorespaces Close the configuration file.}}{234}{figure.30.25}\protected@file@percent }
\@writefile{lof}{\contentsline {figure}{\numberline {30.26}{\ignorespaces Close the configuration file.}}{234}{figure.30.26}\protected@file@percent }
\@writefile{lof}{\contentsline {figure}{\numberline {30.27}{\ignorespaces Open a new \textsc  {ssh} session in PuTTY.}}{235}{figure.30.27}\protected@file@percent }
\@writefile{lof}{\contentsline {figure}{\numberline {30.28}{\ignorespaces Enter password in the \textsc  {ssh} session.}}{235}{figure.30.28}\protected@file@percent }
\@writefile{lof}{\contentsline {figure}{\numberline {30.29}{\ignorespaces Successfully connected to a \textsc  {vm} in \textsc  {aws} using user name and password.}}{236}{figure.30.29}\protected@file@percent }
\@writefile{lof}{\contentsline {figure}{\numberline {30.30}{\ignorespaces Stop \textsc  {vm}'s in \textsc  {aws}.}}{236}{figure.30.30}\protected@file@percent }
\@writefile{lof}{\contentsline {figure}{\numberline {30.31}{\ignorespaces Instance state is now stopped in \textsc  {aws}.}}{237}{figure.30.31}\protected@file@percent }
\@writefile{toc}{\contentsline {section}{\numberline {30.5}Thematic Takeaways}{237}{section.30.5}\protected@file@percent }
\@writefile{toc}{\contentsline {section}{\numberline {30.6}Lab Summary}{237}{section.30.6}\protected@file@percent }
\@writefile{toc}{\contentsline {section}{\numberline {30.7}Key Terms}{237}{section.30.7}\protected@file@percent }
\@writefile{toc}{\contentsline {chapter}{\numberline {31}Cloud Computing and Big Data Processing (Part II)}{239}{chapter.31}\protected@file@percent }
\@writefile{lof}{\addvspace {10\p@ }}
\@writefile{lot}{\addvspace {10\p@ }}
\newlabel{CHAP:LAB2}{{31}{239}{Cloud Computing and Big Data Processing (Part II)}{chapter.31}{}}
\@writefile{toc}{\contentsline {section}{\numberline {31.1}Lab Learning Outcomes}{239}{section.31.1}\protected@file@percent }
\@writefile{toc}{\contentsline {section}{\numberline {31.2}Resources and Getting Help}{239}{section.31.2}\protected@file@percent }
\@writefile{toc}{\contentsline {subsection}{\numberline {31.2.1}Build Passwordless Connections for Nodes in the Clusster}{239}{subsection.31.2.1}\protected@file@percent }
\@writefile{lof}{\contentsline {figure}{\numberline {31.1}{\ignorespaces Make a directory \texttt  {.ssh} on each data node.}}{240}{figure.31.1}\protected@file@percent }
\@writefile{lof}{\contentsline {figure}{\numberline {31.2}{\ignorespaces Generate a public-private key pair at Master node.}}{241}{figure.31.2}\protected@file@percent }
\@writefile{lof}{\contentsline {figure}{\numberline {31.3}{\ignorespaces Send and append the public key to a data node from the name node. }}{242}{figure.31.3}\protected@file@percent }
\@writefile{lof}{\contentsline {figure}{\numberline {31.4}{\ignorespaces Build a passwordless connection from the name node to a data node}}{242}{figure.31.4}\protected@file@percent }
\newlabel{passless}{{31.4}{242}{Build a passwordless connection from the name node to a data node}{figure.31.4}{}}
\@writefile{toc}{\contentsline {subsection}{\numberline {31.2.2}Install Java and Hadoop Software on Each VM}{243}{subsection.31.2.2}\protected@file@percent }
\@writefile{lof}{\contentsline {figure}{\numberline {31.5}{\ignorespaces Create a new name \texttt  {jdk} pointing to the directory \texttt  {java-8-openjdk-amd64}.}}{243}{figure.31.5}\protected@file@percent }
\@writefile{lof}{\contentsline {figure}{\numberline {31.6}{\ignorespaces The folder \texttt  {hadoop-2.8.4} is renamed as \texttt  {hadoop} for ease of operation.}}{244}{figure.31.6}\protected@file@percent }
\@writefile{lof}{\contentsline {figure}{\numberline {31.7}{\ignorespaces Edit \texttt  {.bashrc} file.}}{245}{figure.31.7}\protected@file@percent }
\@writefile{lof}{\contentsline {figure}{\numberline {31.8}{\ignorespaces Load environment variables.}}{245}{figure.31.8}\protected@file@percent }
\@writefile{lof}{\contentsline {figure}{\numberline {31.9}{\ignorespaces Create folders for \textsc  {HDFS}.}}{246}{figure.31.9}\protected@file@percent }
\@writefile{toc}{\contentsline {subsection}{\numberline {31.2.3}Configure the Hadoop Cluster and Run Existing Programs}{246}{subsection.31.2.3}\protected@file@percent }
\@writefile{lof}{\contentsline {figure}{\numberline {31.10}{\ignorespaces Specify Java home directory in \texttt  {hadoop-env.sh}.}}{247}{figure.31.10}\protected@file@percent }
\newlabel{hadoopenv}{{31.10}{247}{Specify Java home directory in \texttt {hadoop-env.sh}}{figure.31.10}{}}
\@writefile{lof}{\contentsline {figure}{\numberline {31.11}{\ignorespaces Specify the core site's address in \texttt  {core-site.xml}.}}{248}{figure.31.11}\protected@file@percent }
\@writefile{lof}{\contentsline {figure}{\numberline {31.12}{\ignorespaces Specify the (primary) name node as the resource manager in \texttt  {yarn-site.xml}.}}{249}{figure.31.12}\protected@file@percent }
\newlabel{yarnsite}{{31.12}{249}{Specify the (primary) name node as the resource manager in \texttt {yarn-site.xml}}{figure.31.12}{}}
\@writefile{lof}{\contentsline {figure}{\numberline {31.13}{\ignorespaces List \texttt  {yarn} as resource manager for \texttt  {mapreduce} jobs in \texttt  {mapred-site.xml}.}}{250}{figure.31.13}\protected@file@percent }
\newlabel{mapredsite}{{31.13}{250}{List \texttt {yarn} as resource manager for \texttt {mapreduce} jobs in \texttt {mapred-site.xml}}{figure.31.13}{}}
\@writefile{lof}{\contentsline {figure}{\numberline {31.14}{\ignorespaces Configure \texttt  {hdfs-site.xml}.}}{251}{figure.31.14}\protected@file@percent }
\newlabel{hdfssite}{{31.14}{251}{Configure \texttt {hdfs-site.xml}}{figure.31.14}{}}
\@writefile{lof}{\contentsline {figure}{\numberline {31.15}{\ignorespaces Send configuration files to other nodes.}}{253}{figure.31.15}\protected@file@percent }
\newlabel{scp}{{31.15}{253}{Send configuration files to other nodes}{figure.31.15}{}}
\@writefile{lof}{\contentsline {figure}{\numberline {31.16}{\ignorespaces List the primary name node and the secondary name node in the \texttt  {masters} file.}}{254}{figure.31.16}\protected@file@percent }
\newlabel{masters}{{31.16}{254}{List the primary name node and the secondary name node in the \texttt {masters} file}{figure.31.16}{}}
\@writefile{lof}{\contentsline {figure}{\numberline {31.17}{\ignorespaces List all data nodes in the \texttt  {slaves} file. Secondary name node can also be listed as a data node.}}{254}{figure.31.17}\protected@file@percent }
\newlabel{slaves}{{31.17}{254}{List all data nodes in the \texttt {slaves} file. Secondary name node can also be listed as a data node}{figure.31.17}{}}
\@writefile{toc}{\contentsline {subsection}{\numberline {31.2.4}Start Hadoop Cluster and Run Existing Programs}{254}{subsection.31.2.4}\protected@file@percent }
\@writefile{lof}{\contentsline {figure}{\numberline {31.18}{\ignorespaces The status of the name node.}}{255}{figure.31.18}\protected@file@percent }
\@writefile{lof}{\contentsline {figure}{\numberline {31.19}{\ignorespaces The status of the secondary name node.}}{255}{figure.31.19}\protected@file@percent }
\@writefile{lof}{\contentsline {figure}{\numberline {31.20}{\ignorespaces The status of other data node.}}{255}{figure.31.20}\protected@file@percent }
\@writefile{lof}{\contentsline {figure}{\numberline {31.21}{\ignorespaces Run a mapreduce job \texttt  {pi} to compute $\pi =3.1408$.}}{256}{figure.31.21}\protected@file@percent }
\@writefile{toc}{\contentsline {section}{\numberline {31.3}Thematic Takeaways}{256}{section.31.3}\protected@file@percent }
\@writefile{toc}{\contentsline {section}{\numberline {31.4}Lab Summary}{257}{section.31.4}\protected@file@percent }
\@writefile{toc}{\contentsline {section}{\numberline {31.5}Key Term}{257}{section.31.5}\protected@file@percent }
\@writefile{toc}{\contentsline {chapter}{\numberline {32}Cloud Computing and Big Data Processing (Part III)}{258}{chapter.32}\protected@file@percent }
\@writefile{lof}{\addvspace {10\p@ }}
\@writefile{lot}{\addvspace {10\p@ }}
\newlabel{CHAP:LAB3}{{32}{258}{Cloud Computing and Big Data Processing (Part III)}{chapter.32}{}}
\@writefile{toc}{\contentsline {section}{\numberline {32.1}Lab Learning Outcomes}{258}{section.32.1}\protected@file@percent }
\@writefile{toc}{\contentsline {section}{\numberline {32.2}Resources and Getting Help}{258}{section.32.2}\protected@file@percent }
\@writefile{toc}{\contentsline {section}{\numberline {32.3}Initial Setup and Preparation}{258}{section.32.3}\protected@file@percent }
\@writefile{toc}{\contentsline {subsection}{\numberline {32.3.1}Create a Mapreduce Project using Maven in Eclipse}{259}{subsection.32.3.1}\protected@file@percent }
\@writefile{lof}{\contentsline {figure}{\numberline {32.1}{\ignorespaces New Maven Project --- Select project name and location.}}{259}{figure.32.1}\protected@file@percent }
\newlabel{newMaven1}{{32.1}{259}{New Maven Project --- Select project name and location}{figure.32.1}{}}
\@writefile{lof}{\contentsline {figure}{\numberline {32.2}{\ignorespaces New Maven Project --- Select an archetype.}}{260}{figure.32.2}\protected@file@percent }
\@writefile{lof}{\contentsline {figure}{\numberline {32.3}{\ignorespaces New Maven Project --- Name group Id and artifact Id.}}{261}{figure.32.3}\protected@file@percent }
\newlabel{newMaven3}{{32.3}{261}{New Maven Project --- Name group Id and artifact Id}{figure.32.3}{}}
\@writefile{lof}{\contentsline {figure}{\numberline {32.4}{\ignorespaces Mapper class.}}{262}{figure.32.4}\protected@file@percent }
\newlabel{class1}{{32.4}{262}{Mapper class}{figure.32.4}{}}
\@writefile{lof}{\contentsline {figure}{\numberline {32.5}{\ignorespaces Reducer class.}}{262}{figure.32.5}\protected@file@percent }
\@writefile{lof}{\contentsline {figure}{\numberline {32.6}{\ignorespaces Driver class.}}{263}{figure.32.6}\protected@file@percent }
\newlabel{class3}{{32.6}{263}{Driver class}{figure.32.6}{}}
\@writefile{lof}{\contentsline {figure}{\numberline {32.7}{\ignorespaces Edit \texttt  {pom.xml} file.}}{264}{figure.32.7}\protected@file@percent }
\newlabel{pom}{{32.7}{264}{Edit \texttt {pom.xml} file}{figure.32.7}{}}
\@writefile{lof}{\contentsline {figure}{\numberline {32.8}{\ignorespaces Search hadoop client dependency at \url  {mvnrepository.com}.}}{265}{figure.32.8}\protected@file@percent }
\newlabel{repository}{{32.8}{265}{Search hadoop client dependency at \url {mvnrepository.com}}{figure.32.8}{}}
\@writefile{lof}{\contentsline {figure}{\numberline {32.9}{\ignorespaces Search hadoop common dependency at \url  {mvnrepository.com}.}}{266}{figure.32.9}\protected@file@percent }
\newlabel{repository}{{32.9}{266}{Search hadoop common dependency at \url {mvnrepository.com}}{figure.32.9}{}}
\@writefile{lof}{\contentsline {figure}{\numberline {32.10}{\ignorespaces Preferences.}}{266}{figure.32.10}\protected@file@percent }
\newlabel{preferences}{{32.10}{266}{Preferences}{figure.32.10}{}}
\@writefile{lof}{\contentsline {figure}{\numberline {32.11}{\ignorespaces Edit JRE.}}{267}{figure.32.11}\protected@file@percent }
\newlabel{jdk}{{32.11}{267}{Edit JRE}{figure.32.11}{}}
\@writefile{lof}{\contentsline {figure}{\numberline {32.12}{\ignorespaces Compiler.}}{268}{figure.32.12}\protected@file@percent }
\newlabel{repository}{{32.12}{268}{Compiler}{figure.32.12}{}}
\@writefile{lof}{\contentsline {figure}{\numberline {32.13}{\ignorespaces Compiler.}}{269}{figure.32.13}\protected@file@percent }
\newlabel{repository}{{32.13}{269}{Compiler}{figure.32.13}{}}
\@writefile{toc}{\contentsline {subsection}{\numberline {32.3.2}Run the \texttt  {.jar} Package at amazon clouds}{269}{subsection.32.3.2}\protected@file@percent }
\@writefile{lof}{\contentsline {figure}{\numberline {32.14}{\ignorespaces Connect to the name node in WinSCP.}}{270}{figure.32.14}\protected@file@percent }
\@writefile{lof}{\contentsline {figure}{\numberline {32.15}{\ignorespaces Upload a mapreduce package in \texttt  {.jar} to the name node.}}{270}{figure.32.15}\protected@file@percent }
\@writefile{lof}{\contentsline {figure}{\numberline {32.16}{\ignorespaces Sample text files.}}{271}{figure.32.16}\protected@file@percent }
\@writefile{lof}{\contentsline {figure}{\numberline {32.17}{\ignorespaces Upload data in \texttt  {.txt} to the name node.}}{271}{figure.32.17}\protected@file@percent }
\@writefile{lof}{\contentsline {figure}{\numberline {32.18}{\ignorespaces Load data files in \texttt  {.txt} to \textsc  {hdfs} at the name node.}}{272}{figure.32.18}\protected@file@percent }
\@writefile{lof}{\contentsline {figure}{\numberline {32.19}{\ignorespaces Run our own mapreduce project at the cluster.}}{273}{figure.32.19}\protected@file@percent }
\@writefile{lof}{\contentsline {figure}{\numberline {32.20}{\ignorespaces Transfer output from \textsc  {hdfs} to \texttt  {/home/hduser} at the name node.}}{274}{figure.32.20}\protected@file@percent }
\newlabel{tranfer}{{32.20}{274}{Transfer output from \textsc {hdfs} to \texttt {/home/hduser} at the name node}{figure.32.20}{}}
\@writefile{lof}{\contentsline {figure}{\numberline {32.21}{\ignorespaces Go to \texttt  {/home/hduser/output} at the name node.}}{274}{figure.32.21}\protected@file@percent }
\@writefile{lof}{\contentsline {figure}{\numberline {32.22}{\ignorespaces Open \texttt  {part-r-00000} to see results at the name node.}}{275}{figure.32.22}\protected@file@percent }
\@writefile{toc}{\contentsline {section}{\numberline {32.4}Thematic Takeaways}{275}{section.32.4}\protected@file@percent }
\@writefile{toc}{\contentsline {section}{\numberline {32.5}Lab Summary}{276}{section.32.5}\protected@file@percent }
\@writefile{toc}{\contentsline {section}{\numberline {32.6}Key Term}{276}{section.32.6}\protected@file@percent }
\gdef\minted@oldcachelist{,
  default-pyg-prefix.pygstyle,
  default.pygstyle,
  5922C77020E9E21C2923E0218AD6110E9AD59E690FC6A4C22D144FFBBD23A6DE.pygtex,
  D4AC8704217AE8F7FF7723E4898579D79AD59E690FC6A4C22D144FFBBD23A6DE.pygtex,
  4E561C24717F4046C4307FF9652D37179AD59E690FC6A4C22D144FFBBD23A6DE.pygtex,
  701C97B425E1EBD2C2034A33E1216DE19AD59E690FC6A4C22D144FFBBD23A6DE.pygtex,
  A3BAD7944165F109B12FE555E2FA50EC9AD59E690FC6A4C22D144FFBBD23A6DE.pygtex,
  BE68E17A478D2DA6886CE4DC81535BB79AD59E690FC6A4C22D144FFBBD23A6DE.pygtex}
\gdef \@abspage@last{300}
