\relax 
\providecommand\hyper@newdestlabel[2]{}
\providecommand\HyperFirstAtBeginDocument{\AtBeginDocument}
\HyperFirstAtBeginDocument{\ifx\hyper@anchor\@undefined
\global\let\oldcontentsline\contentsline
\gdef\contentsline#1#2#3#4{\oldcontentsline{#1}{#2}{#3}}
\global\let\oldnewlabel\newlabel
\gdef\newlabel#1#2{\newlabelxx{#1}#2}
\gdef\newlabelxx#1#2#3#4#5#6{\oldnewlabel{#1}{{#2}{#3}}}
\AtEndDocument{\ifx\hyper@anchor\@undefined
\let\contentsline\oldcontentsline
\let\newlabel\oldnewlabel
\fi}
\fi}
\global\let\hyper@last\relax 
\gdef\HyperFirstAtBeginDocument#1{#1}
\providecommand\HyField@AuxAddToFields[1]{}
\providecommand\HyField@AuxAddToCoFields[2]{}
\@writefile{toc}{\contentsline {chapter}{\numberline {1}Bigsense}{1}{chapter.1}\protected@file@percent }
\@writefile{lof}{\addvspace {10\p@ }}
\@writefile{lot}{\addvspace {10\p@ }}
\newlabel{CHAP:Bigsense}{{1}{1}{Bigsense}{chapter.1}{}}
\@writefile{toc}{\contentsline {section}{\numberline {1.1}Lab Learning Outcomes}{1}{section.1.1}\protected@file@percent }
\@writefile{toc}{\contentsline {section}{\numberline {1.2}Resources and Getting Help}{1}{section.1.2}\protected@file@percent }
\@writefile{toc}{\contentsline {section}{\numberline {1.3}Introduction}{1}{section.1.3}\protected@file@percent }
\@writefile{toc}{\contentsline {section}{\numberline {1.4}Materials}{2}{section.1.4}\protected@file@percent }
\@writefile{toc}{\contentsline {section}{\numberline {1.5}Procedure}{2}{section.1.5}\protected@file@percent }
\@writefile{toc}{\contentsline {section}{\numberline {1.6}Summary}{8}{section.1.6}\protected@file@percent }
\@writefile{toc}{\contentsline {section}{\numberline {1.7}Thematic Take-Aways}{9}{section.1.7}\protected@file@percent }
\@writefile{toc}{\contentsline {section}{\numberline {1.8}Lab Summary}{9}{section.1.8}\protected@file@percent }
\@writefile{toc}{\contentsline {section}{\numberline {1.9}Key Terms}{9}{section.1.9}\protected@file@percent }
\@writefile{toc}{\contentsline {section}{\numberline {1.10}Notes from the Authors}{9}{section.1.10}\protected@file@percent }
\gdef\minted@oldcachelist{,
  default-pyg-prefix.pygstyle,
  default.pygstyle,
  701C97B425E1EBD2C2034A33E1216DE1F071622ACF8D0A36A59C578D803E5A99.pygtex,
  A3BAD7944165F109B12FE555E2FA50ECF071622ACF8D0A36A59C578D803E5A99.pygtex,
  BE68E17A478D2DA6886CE4DC81535BB7F071622ACF8D0A36A59C578D803E5A99.pygtex}
