\relax 
\providecommand\hyper@newdestlabel[2]{}
\providecommand\HyperFirstAtBeginDocument{\AtBeginDocument}
\HyperFirstAtBeginDocument{\ifx\hyper@anchor\@undefined
\global\let\oldcontentsline\contentsline
\gdef\contentsline#1#2#3#4{\oldcontentsline{#1}{#2}{#3}}
\global\let\oldnewlabel\newlabel
\gdef\newlabel#1#2{\newlabelxx{#1}#2}
\gdef\newlabelxx#1#2#3#4#5#6{\oldnewlabel{#1}{{#2}{#3}}}
\AtEndDocument{\ifx\hyper@anchor\@undefined
\let\contentsline\oldcontentsline
\let\newlabel\oldnewlabel
\fi}
\fi}
\global\let\hyper@last\relax 
\gdef\HyperFirstAtBeginDocument#1{#1}
\providecommand*\HyPL@Entry[1]{}
\HyPL@Entry{0<</S/D>>}
\@writefile{toc}{\contentsline {chapter}{\numberline {1}Put name of lab here}{1}{chapter.1}}
\@writefile{lof}{\addvspace {10\p@ }}
\@writefile{lot}{\addvspace {10\p@ }}
\newlabel{CHAP:LAB1}{{1}{1}{Put name of lab here}{chapter.1}{}}
\@writefile{toc}{\contentsline {section}{\numberline {1.1}Lab Objectives}{1}{section.1.1}}
\newlabel{lst:Cprogram}{{1.1}{1}{}{lstlisting.1.-2}{}}
\@writefile{lol}{\contentsline {lstlisting}{src/program.c}{1}{lstlisting.1.-2}}
\@writefile{toc}{\contentsline {section}{\numberline {1.2}Thematic Take-Aways}{1}{section.1.2}}
\@writefile{toc}{\contentsline {section}{\numberline {1.3}Lab Summary}{2}{section.1.3}}
\@writefile{toc}{\contentsline {section}{\numberline {1.4}Key Terms}{2}{section.1.4}}
\@writefile{toc}{\contentsline {section}{\numberline {1.5}Bibliographic Notes}{2}{section.1.5}}
