\BOOKMARK [0][-]{chapter.1}{Put name of lab here}{}% 1
\BOOKMARK [1][-]{section.1.1}{Lab Objectives}{chapter.1}% 2
\BOOKMARK [1][-]{section.1.2}{Thematic Take-Aways}{chapter.1}% 3
\BOOKMARK [1][-]{section.1.3}{Lab Summary}{chapter.1}% 4
\BOOKMARK [1][-]{section.1.4}{Key Terms}{chapter.1}% 5
\BOOKMARK [1][-]{section.1.5}{Bibliographic Notes}{chapter.1}% 6
