\relax 
\providecommand\hyper@newdestlabel[2]{}
\providecommand\HyperFirstAtBeginDocument{\AtBeginDocument}
\HyperFirstAtBeginDocument{\ifx\hyper@anchor\@undefined
\global\let\oldcontentsline\contentsline
\gdef\contentsline#1#2#3#4{\oldcontentsline{#1}{#2}{#3}}
\global\let\oldnewlabel\newlabel
\gdef\newlabel#1#2{\newlabelxx{#1}#2}
\gdef\newlabelxx#1#2#3#4#5#6{\oldnewlabel{#1}{{#2}{#3}}}
\AtEndDocument{\ifx\hyper@anchor\@undefined
\let\contentsline\oldcontentsline
\let\newlabel\oldnewlabel
\fi}
\fi}
\global\let\hyper@last\relax 
\gdef\HyperFirstAtBeginDocument#1{#1}
\providecommand\HyField@AuxAddToFields[1]{}
\providecommand\HyField@AuxAddToCoFields[2]{}
\@writefile{toc}{\contentsline {chapter}{\numberline {1}Virtual Machine Set-up Lab}{1}{chapter.1}\protected@file@percent }
\@writefile{lof}{\addvspace {10\p@ }}
\@writefile{lot}{\addvspace {10\p@ }}
\newlabel{CHAP:VMSETUP}{{1}{1}{Virtual Machine Set-up Lab}{chapter.1}{}}
\@writefile{toc}{\contentsline {section}{\numberline {1.1}Lab Learning Outcomes}{1}{section.1.1}\protected@file@percent }
\@writefile{toc}{\contentsline {section}{\numberline {1.2}Resources and Getting Help}{1}{section.1.2}\protected@file@percent }
\@writefile{toc}{\contentsline {section}{\numberline {1.3}Steps}{1}{section.1.3}\protected@file@percent }
\@writefile{lof}{\contentsline {figure}{\numberline {1.1}{\ignorespaces }}{2}{figure.1.1}\protected@file@percent }
\newlabel{fig:VirtualBoxWindow}{{1.1}{2}{}{figure.1.1}{}}
\@writefile{lof}{\contentsline {figure}{\numberline {1.2}{\ignorespaces }}{3}{figure.1.2}\protected@file@percent }
\newlabel{fig:VMCreationWindow}{{1.2}{3}{}{figure.1.2}{}}
\@writefile{lof}{\contentsline {figure}{\numberline {1.3}{\ignorespaces }}{3}{figure.1.3}\protected@file@percent }
\newlabel{fig:VMCreationWindow2}{{1.3}{3}{}{figure.1.3}{}}
\@writefile{lof}{\contentsline {figure}{\numberline {1.4}{\ignorespaces }}{4}{figure.1.4}\protected@file@percent }
\newlabel{fig:VMSettings}{{1.4}{4}{}{figure.1.4}{}}
\@writefile{lof}{\contentsline {figure}{\numberline {1.5}{\ignorespaces }}{5}{figure.1.5}\protected@file@percent }
\newlabel{fig:VMStorageMenu}{{1.5}{5}{}{figure.1.5}{}}
\@writefile{lof}{\contentsline {figure}{\numberline {1.6}{\ignorespaces }}{6}{figure.1.6}\protected@file@percent }
\newlabel{fig:VMStorageMenu2}{{1.6}{6}{}{figure.1.6}{}}
\@writefile{lof}{\contentsline {figure}{\numberline {1.7}{\ignorespaces }}{7}{figure.1.7}\protected@file@percent }
\newlabel{fig:ChooseISOFile}{{1.7}{7}{}{figure.1.7}{}}
\@writefile{lof}{\contentsline {figure}{\numberline {1.8}{\ignorespaces }}{7}{figure.1.8}\protected@file@percent }
\newlabel{fig:InstallUbuntu}{{1.8}{7}{}{figure.1.8}{}}
\@writefile{lof}{\contentsline {figure}{\numberline {1.9}{\ignorespaces }}{8}{figure.1.9}\protected@file@percent }
\newlabel{fig:DownloadUpdates}{{1.9}{8}{}{figure.1.9}{}}
\@writefile{lof}{\contentsline {figure}{\numberline {1.10}{\ignorespaces }}{9}{figure.1.10}\protected@file@percent }
\newlabel{fig:EraseDisk}{{1.10}{9}{}{figure.1.10}{}}
\@writefile{lof}{\contentsline {figure}{\numberline {1.11}{\ignorespaces }}{9}{figure.1.11}\protected@file@percent }
\newlabel{fig:PopUp}{{1.11}{9}{}{figure.1.11}{}}
\@writefile{lof}{\contentsline {figure}{\numberline {1.12}{\ignorespaces }}{10}{figure.1.12}\protected@file@percent }
\newlabel{fig:TimeZone}{{1.12}{10}{}{figure.1.12}{}}
\@writefile{lof}{\contentsline {figure}{\numberline {1.13}{\ignorespaces }}{10}{figure.1.13}\protected@file@percent }
\newlabel{fig:ChooseKeyboard}{{1.13}{10}{}{figure.1.13}{}}
\@writefile{lof}{\contentsline {figure}{\numberline {1.14}{\ignorespaces }}{11}{figure.1.14}\protected@file@percent }
\newlabel{fig:NameAndPassword}{{1.14}{11}{}{figure.1.14}{}}
\@writefile{lof}{\contentsline {figure}{\numberline {1.15}{\ignorespaces }}{11}{figure.1.15}\protected@file@percent }
\newlabel{fig:FindingTerminal}{{1.15}{11}{}{figure.1.15}{}}
\@writefile{lof}{\contentsline {figure}{\numberline {1.16}{\ignorespaces }}{12}{figure.1.16}\protected@file@percent }
\newlabel{fig:HomeDirectory}{{1.16}{12}{}{figure.1.16}{}}
\gdef \@abspage@last{12}
