\relax 
\providecommand\hyper@newdestlabel[2]{}
\providecommand\HyperFirstAtBeginDocument{\AtBeginDocument}
\HyperFirstAtBeginDocument{\ifx\hyper@anchor\@undefined
\global\let\oldcontentsline\contentsline
\gdef\contentsline#1#2#3#4{\oldcontentsline{#1}{#2}{#3}}
\global\let\oldnewlabel\newlabel
\gdef\newlabel#1#2{\newlabelxx{#1}#2}
\gdef\newlabelxx#1#2#3#4#5#6{\oldnewlabel{#1}{{#2}{#3}}}
\AtEndDocument{\ifx\hyper@anchor\@undefined
\let\contentsline\oldcontentsline
\let\newlabel\oldnewlabel
\fi}
\fi}
\global\let\hyper@last\relax 
\gdef\HyperFirstAtBeginDocument#1{#1}
\providecommand\HyField@AuxAddToFields[1]{}
\providecommand\HyField@AuxAddToCoFields[2]{}
\@writefile{toc}{\contentsline {chapter}{\numberline {1}Linux Basics Lab---Files and I/O}{1}{chapter.1}}
\@writefile{lof}{\addvspace {10\p@ }}
\@writefile{lot}{\addvspace {10\p@ }}
\newlabel{CHAP:LINUX2}{{1}{1}{Linux Basics Lab---Files and I/O}{chapter.1}{}}
\@writefile{toc}{\contentsline {section}{\numberline {1.1}Lab Objectives}{1}{section.1.1}}
\@writefile{toc}{\contentsline {section}{\numberline {1.2}Lab Overview}{1}{section.1.2}}
\@writefile{toc}{\contentsline {subsection}{\numberline {1.2.1}Setup}{1}{subsection.1.2.1}}
\@writefile{toc}{\contentsline {section}{\numberline {1.3}Resources and Getting Help}{2}{section.1.3}}
\@writefile{toc}{\contentsline {section}{\numberline {1.4}Steps}{2}{section.1.4}}
\@writefile{lof}{\contentsline {figure}{\numberline {1.1}{\ignorespaces Linux file system can be visualized as an upside-down tree.}}{3}{figure.1.1}}
\newlabel{filesystree}{{1.1}{3}{Linux file system can be visualized as an upside-down tree}{figure.1.1}{}}
\@writefile{lof}{\contentsline {figure}{\numberline {1.2}{\ignorespaces Standard input and output between keyboard and terminal.}}{5}{figure.1.2}}
\newlabel{ioflow}{{1.2}{5}{Standard input and output between keyboard and terminal}{figure.1.2}{}}
\@writefile{toc}{\contentsline {section}{\numberline {1.5}Submission Guidelines}{8}{section.1.5}}
\@writefile{toc}{\contentsline {section}{\numberline {1.6}Thematic Take-Aways}{8}{section.1.6}}
\@writefile{toc}{\contentsline {section}{\numberline {1.7}Lab Summary}{8}{section.1.7}}
\@writefile{toc}{\contentsline {section}{\numberline {1.8}Key Terms}{8}{section.1.8}}
\@writefile{toc}{\contentsline {section}{\numberline {1.9}Bibliographic Notes}{8}{section.1.9}}
