\relax 
\providecommand\hyper@newdestlabel[2]{}
\providecommand\HyperFirstAtBeginDocument{\AtBeginDocument}
\HyperFirstAtBeginDocument{\ifx\hyper@anchor\@undefined
\global\let\oldcontentsline\contentsline
\gdef\contentsline#1#2#3#4{\oldcontentsline{#1}{#2}{#3}}
\global\let\oldnewlabel\newlabel
\gdef\newlabel#1#2{\newlabelxx{#1}#2}
\gdef\newlabelxx#1#2#3#4#5#6{\oldnewlabel{#1}{{#2}{#3}}}
\AtEndDocument{\ifx\hyper@anchor\@undefined
\let\contentsline\oldcontentsline
\let\newlabel\oldnewlabel
\fi}
\fi}
\global\let\hyper@last\relax 
\gdef\HyperFirstAtBeginDocument#1{#1}
\providecommand\HyField@AuxAddToFields[1]{}
\providecommand\HyField@AuxAddToCoFields[2]{}
\@writefile{toc}{\contentsline {chapter}{\numberline {1}C Programming with Pointers Lab}{1}{chapter.1}\protected@file@percent }
\@writefile{lof}{\addvspace {10\p@ }}
\@writefile{lot}{\addvspace {10\p@ }}
\newlabel{CHAP:POINTERS1}{{1}{1}{C Programming with Pointers Lab}{chapter.1}{}}
\@writefile{toc}{\contentsline {section}{\numberline {1.1}Lab Learning Outcomes}{1}{section.1.1}\protected@file@percent }
\@writefile{toc}{\contentsline {section}{\numberline {1.2}Lab Overview}{1}{section.1.2}\protected@file@percent }
\@writefile{toc}{\contentsline {subsection}{\numberline {1.2.1}Setup}{1}{subsection.1.2.1}\protected@file@percent }
\citation{LCP}
\@writefile{toc}{\contentsline {section}{\numberline {1.3}Resources and Getting Help}{2}{section.1.3}\protected@file@percent }
\@writefile{toc}{\contentsline {section}{\numberline {1.4}Steps}{2}{section.1.4}\protected@file@percent }
\newlabel{lst:code}{{1.1}{4}{Source code of file \texttt {pointer-ex.c}}{lstlisting.1.1}{}}
\@writefile{lol}{\contentsline {lstlisting}{\numberline {1.1}Source code of file \texttt  {pointer-ex.c}.}{4}{lstlisting.1.1}\protected@file@percent }
