\relax 
\providecommand\hyper@newdestlabel[2]{}
\providecommand\HyperFirstAtBeginDocument{\AtBeginDocument}
\HyperFirstAtBeginDocument{\ifx\hyper@anchor\@undefined
\global\let\oldcontentsline\contentsline
\gdef\contentsline#1#2#3#4{\oldcontentsline{#1}{#2}{#3}}
\global\let\oldnewlabel\newlabel
\gdef\newlabel#1#2{\newlabelxx{#1}#2}
\gdef\newlabelxx#1#2#3#4#5#6{\oldnewlabel{#1}{{#2}{#3}}}
\AtEndDocument{\ifx\hyper@anchor\@undefined
\let\contentsline\oldcontentsline
\let\newlabel\oldnewlabel
\fi}
\fi}
\global\let\hyper@last\relax 
\gdef\HyperFirstAtBeginDocument#1{#1}
\providecommand\HyField@AuxAddToFields[1]{}
\providecommand\HyField@AuxAddToCoFields[2]{}
\@writefile{toc}{\contentsline {chapter}{\numberline {1}Cloud Computing and Big Data Processing (Part I)}{1}{chapter.1}\protected@file@percent }
\@writefile{lof}{\addvspace {10\p@ }}
\@writefile{lot}{\addvspace {10\p@ }}
\newlabel{CHAP:AWSCLUSTER}{{1}{1}{Cloud Computing and Big Data Processing (Part I)}{chapter.1}{}}
\@writefile{toc}{\contentsline {section}{\numberline {1.1}Lab Learning Outcomes}{1}{section.1.1}\protected@file@percent }
\@writefile{toc}{\contentsline {section}{\numberline {1.2}Resources and Getting Help}{1}{section.1.2}\protected@file@percent }
\@writefile{toc}{\contentsline {section}{\numberline {1.3}Initial Setup and Preparation}{1}{section.1.3}\protected@file@percent }
\@writefile{toc}{\contentsline {section}{\numberline {1.4}Create A Cluster of Virtual Machines}{2}{section.1.4}\protected@file@percent }
\@writefile{lof}{\contentsline {figure}{\numberline {1.1}{\ignorespaces Amazon cloud computing services.}}{2}{figure.1.1}\protected@file@percent }
\newlabel{log}{{1.1}{2}{Amazon cloud computing services}{figure.1.1}{}}
\@writefile{lof}{\contentsline {figure}{\numberline {1.2}{\ignorespaces Amazon EC2 (Elastic Compute Cloud) resources.}}{3}{figure.1.2}\protected@file@percent }
\newlabel{EC2}{{1.2}{3}{Amazon EC2 (Elastic Compute Cloud) resources}{figure.1.2}{}}
\@writefile{lof}{\contentsline {figure}{\numberline {1.3}{\ignorespaces Check your region.}}{3}{figure.1.3}\protected@file@percent }
\newlabel{region}{{1.3}{3}{Check your region}{figure.1.3}{}}
\@writefile{lof}{\contentsline {figure}{\numberline {1.4}{\ignorespaces Start to install \textsc  {os} on virtual machines.}}{4}{figure.1.4}\protected@file@percent }
\newlabel{launch}{{1.4}{4}{Start to install \textsc {os} on virtual machines}{figure.1.4}{}}
\@writefile{lof}{\contentsline {figure}{\numberline {1.5}{\ignorespaces Select Ubuntu Server.}}{4}{figure.1.5}\protected@file@percent }
\newlabel{freetier}{{1.5}{4}{Select Ubuntu Server}{figure.1.5}{}}
\@writefile{lof}{\contentsline {figure}{\numberline {1.6}{\ignorespaces Choose instance type.}}{5}{figure.1.6}\protected@file@percent }
\newlabel{type}{{1.6}{5}{Choose instance type}{figure.1.6}{}}
\@writefile{lof}{\contentsline {figure}{\numberline {1.7}{\ignorespaces Input the number of instances.}}{5}{figure.1.7}\protected@file@percent }
\@writefile{lof}{\contentsline {figure}{\numberline {1.8}{\ignorespaces Select default storage setting.}}{6}{figure.1.8}\protected@file@percent }
\@writefile{lof}{\contentsline {figure}{\numberline {1.9}{\ignorespaces Name the cluster.}}{6}{figure.1.9}\protected@file@percent }
\@writefile{lof}{\contentsline {figure}{\numberline {1.10}{\ignorespaces Create a new security group for the cluster.}}{7}{figure.1.10}\protected@file@percent }
\newlabel{addRule}{{1.10}{7}{Create a new security group for the cluster}{figure.1.10}{}}
\@writefile{lof}{\contentsline {figure}{\numberline {1.11}{\ignorespaces Download a new key pair.}}{8}{figure.1.11}\protected@file@percent }
\newlabel{keypair}{{1.11}{8}{Download a new key pair}{figure.1.11}{}}
\@writefile{lof}{\contentsline {figure}{\numberline {1.12}{\ignorespaces \textsc  {vm} instance information at \textsc  {aws}.}}{9}{figure.1.12}\protected@file@percent }
\newlabel{VMs}{{1.12}{9}{\textsc {vm} instance information at \textsc {aws}}{figure.1.12}{}}
\@writefile{toc}{\contentsline {subsection}{\numberline {1.4.1}Connecting to Virtual Machines from Local Computers}{9}{subsection.1.4.1}\protected@file@percent }
\newlabel{subsect:putty}{{1.4.1}{9}{Connecting to Virtual Machines from Local Computers}{subsection.1.4.1}{}}
\@writefile{lof}{\contentsline {figure}{\numberline {1.13}{\ignorespaces Launch PuttyGen to convert \texttt  {.pem} to a private key.}}{10}{figure.1.13}\protected@file@percent }
\newlabel{convertPrivate}{{1.13}{10}{Launch PuttyGen to convert \texttt {.pem} to a private key}{figure.1.13}{}}
\@writefile{lof}{\contentsline {figure}{\numberline {1.14}{\ignorespaces Save the private key.}}{10}{figure.1.14}\protected@file@percent }
\@writefile{lof}{\contentsline {figure}{\numberline {1.15}{\ignorespaces Save the key without a passphrase.}}{11}{figure.1.15}\protected@file@percent }
\@writefile{lof}{\contentsline {figure}{\numberline {1.16}{\ignorespaces Use public \textsc  {ip} addresses to connect to \textsc  {vm}s at \textsc  {aws}.}}{11}{figure.1.16}\protected@file@percent }
\newlabel{puttyIP}{{1.16}{11}{Use public \textsc {ip} addresses to connect to \textsc {vm}s at \textsc {aws}}{figure.1.16}{}}
\@writefile{lof}{\contentsline {figure}{\numberline {1.17}{\ignorespaces Authentication using the private key.}}{12}{figure.1.17}\protected@file@percent }
\@writefile{lof}{\contentsline {figure}{\numberline {1.18}{\ignorespaces An \textsc  {ssh} session with a \textsc  {vm} instance at \textsc  {aws}. The \textsc  {ip} address \texttt  {172-31-31-173} shown on the window is the private \textsc  {ip} address of this instance.}}{12}{figure.1.18}\protected@file@percent }
\@writefile{lof}{\contentsline {figure}{\numberline {1.19}{\ignorespaces Left: \textsc  {ssh} sessions with \textsc  {vm} instances at \textsc  {aws}. Right: \textsc  {vm} states at \textsc  {aws}.}}{13}{figure.1.19}\protected@file@percent }
\newlabel{VMsAtAWS}{{1.19}{13}{Left: \textsc {ssh} sessions with \textsc {vm} instances at \textsc {aws}. Right: \textsc {vm} states at \textsc {aws}}{figure.1.19}{}}
\@writefile{toc}{\contentsline {subsection}{\numberline {1.4.2}Create Group/User and Set Up Password Authentication}{13}{subsection.1.4.2}\protected@file@percent }
\newlabel{subsectionGroupUser}{{1.4.2}{13}{Create Group/User and Set Up Password Authentication}{subsection.1.4.2}{}}
\@writefile{lof}{\contentsline {figure}{\numberline {1.20}{\ignorespaces Create a group and a user in this group on each \textsc  {vm}.}}{14}{figure.1.20}\protected@file@percent }
\newlabel{createGroup}{{1.20}{14}{Create a group and a user in this group on each \textsc {vm}}{figure.1.20}{}}
\@writefile{lof}{\contentsline {figure}{\numberline {1.21}{\ignorespaces Allow root access.}}{14}{figure.1.21}\protected@file@percent }
\@writefile{lof}{\contentsline {figure}{\numberline {1.22}{\ignorespaces Open the ssh configuration file for editing.}}{15}{figure.1.22}\protected@file@percent }
\@writefile{lof}{\contentsline {figure}{\numberline {1.23}{\ignorespaces Use \texttt  {vi} commands to edit the file.}}{15}{figure.1.23}\protected@file@percent }
\@writefile{lof}{\contentsline {figure}{\numberline {1.24}{\ignorespaces Set Password Authentication Yes.}}{16}{figure.1.24}\protected@file@percent }
\@writefile{lof}{\contentsline {figure}{\numberline {1.25}{\ignorespaces Close the configuration file.}}{17}{figure.1.25}\protected@file@percent }
\@writefile{lof}{\contentsline {figure}{\numberline {1.26}{\ignorespaces Close the configuration file.}}{17}{figure.1.26}\protected@file@percent }
\@writefile{lof}{\contentsline {figure}{\numberline {1.27}{\ignorespaces Open a new \textsc  {ssh} session in PuTTY.}}{18}{figure.1.27}\protected@file@percent }
\@writefile{lof}{\contentsline {figure}{\numberline {1.28}{\ignorespaces Enter password in the \textsc  {ssh} session.}}{18}{figure.1.28}\protected@file@percent }
\@writefile{lof}{\contentsline {figure}{\numberline {1.29}{\ignorespaces Successfully connected to a \textsc  {vm} in \textsc  {aws} using user name and password.}}{19}{figure.1.29}\protected@file@percent }
\@writefile{lof}{\contentsline {figure}{\numberline {1.30}{\ignorespaces Stop \textsc  {vm}'s in \textsc  {aws}.}}{19}{figure.1.30}\protected@file@percent }
\@writefile{lof}{\contentsline {figure}{\numberline {1.31}{\ignorespaces Instance state is now stopped in \textsc  {aws}.}}{20}{figure.1.31}\protected@file@percent }
\@writefile{toc}{\contentsline {section}{\numberline {1.5}Thematic Take-Aways}{20}{section.1.5}\protected@file@percent }
\@writefile{toc}{\contentsline {section}{\numberline {1.6}Lab Summary}{20}{section.1.6}\protected@file@percent }
\@writefile{toc}{\contentsline {section}{\numberline {1.7}Key Terms}{20}{section.1.7}\protected@file@percent }
