%!PS-Adobe-3.0 EPSF-3.0
%%Creator: graphviz version 2.40.1 (20161225.0304)
%%Title: traditional
%%Pages: 1
%%BoundingBox: 36 36 1598 545
%%EndComments
save
%%BeginProlog
/DotDict 200 dict def
DotDict begin

/setupLatin1 {
mark
/EncodingVector 256 array def
 EncodingVector 0

ISOLatin1Encoding 0 255 getinterval putinterval
EncodingVector 45 /hyphen put

% Set up ISO Latin 1 character encoding
/starnetISO {
        dup dup findfont dup length dict begin
        { 1 index /FID ne { def }{ pop pop } ifelse
        } forall
        /Encoding EncodingVector def
        currentdict end definefont
} def
/Times-Roman starnetISO def
/Times-Italic starnetISO def
/Times-Bold starnetISO def
/Times-BoldItalic starnetISO def
/Helvetica starnetISO def
/Helvetica-Oblique starnetISO def
/Helvetica-Bold starnetISO def
/Helvetica-BoldOblique starnetISO def
/Courier starnetISO def
/Courier-Oblique starnetISO def
/Courier-Bold starnetISO def
/Courier-BoldOblique starnetISO def
cleartomark
} bind def

%%BeginResource: procset graphviz 0 0
/coord-font-family /Times-Roman def
/default-font-family /Times-Roman def
/coordfont coord-font-family findfont 8 scalefont def

/InvScaleFactor 1.0 def
/set_scale {
       dup 1 exch div /InvScaleFactor exch def
       scale
} bind def

% styles
/solid { [] 0 setdash } bind def
/dashed { [9 InvScaleFactor mul dup ] 0 setdash } bind def
/dotted { [1 InvScaleFactor mul 6 InvScaleFactor mul] 0 setdash } bind def
/invis {/fill {newpath} def /stroke {newpath} def /show {pop newpath} def} bind def
/bold { 2 setlinewidth } bind def
/filled { } bind def
/unfilled { } bind def
/rounded { } bind def
/diagonals { } bind def
/tapered { } bind def

% hooks for setting color 
/nodecolor { sethsbcolor } bind def
/edgecolor { sethsbcolor } bind def
/graphcolor { sethsbcolor } bind def
/nopcolor {pop pop pop} bind def

/beginpage {	% i j npages
	/npages exch def
	/j exch def
	/i exch def
	/str 10 string def
	npages 1 gt {
		gsave
			coordfont setfont
			0 0 moveto
			(\() show i str cvs show (,) show j str cvs show (\)) show
		grestore
	} if
} bind def

/set_font {
	findfont exch
	scalefont setfont
} def

% draw text fitted to its expected width
/alignedtext {			% width text
	/text exch def
	/width exch def
	gsave
		width 0 gt {
			[] 0 setdash
			text stringwidth pop width exch sub text length div 0 text ashow
		} if
	grestore
} def

/boxprim {				% xcorner ycorner xsize ysize
		4 2 roll
		moveto
		2 copy
		exch 0 rlineto
		0 exch rlineto
		pop neg 0 rlineto
		closepath
} bind def

/ellipse_path {
	/ry exch def
	/rx exch def
	/y exch def
	/x exch def
	matrix currentmatrix
	newpath
	x y translate
	rx ry scale
	0 0 1 0 360 arc
	setmatrix
} bind def

/endpage { showpage } bind def
/showpage { } def

/layercolorseq
	[	% layer color sequence - darkest to lightest
		[0 0 0]
		[.2 .8 .8]
		[.4 .8 .8]
		[.6 .8 .8]
		[.8 .8 .8]
	]
def

/layerlen layercolorseq length def

/setlayer {/maxlayer exch def /curlayer exch def
	layercolorseq curlayer 1 sub layerlen mod get
	aload pop sethsbcolor
	/nodecolor {nopcolor} def
	/edgecolor {nopcolor} def
	/graphcolor {nopcolor} def
} bind def

/onlayer { curlayer ne {invis} if } def

/onlayers {
	/myupper exch def
	/mylower exch def
	curlayer mylower lt
	curlayer myupper gt
	or
	{invis} if
} def

/curlayer 0 def

%%EndResource
%%EndProlog
%%BeginSetup
14 default-font-family set_font
% /arrowlength 10 def
% /arrowwidth 5 def

% make sure pdfmark is harmless for PS-interpreters other than Distiller
/pdfmark where {pop} {userdict /pdfmark /cleartomark load put} ifelse
% make '<<' and '>>' safe on PS Level 1 devices
/languagelevel where {pop languagelevel}{1} ifelse
2 lt {
    userdict (<<) cvn ([) cvn load put
    userdict (>>) cvn ([) cvn load put
} if

%%EndSetup
setupLatin1
%%Page: 1 1
%%PageBoundingBox: 36 36 1598 545
%%PageOrientation: Portrait
0 0 1 beginpage
gsave
36 36 1562 509 boxprim clip newpath
1 1 set_scale 0 rotate 40 40 translate
% clusterIII
gsave
1 setlinewidth
0 0 0 graphcolor
newpath 1228 247.5219 moveto
1228 493.0437 lineto
1546 493.0437 lineto
1546 247.5219 lineto
closepath stroke
0 0 0 graphcolor
14 /Times-Roman set_font
1236 477.8437 moveto 302 (Module III: Cloud Computing & Big Data Processing) alignedtext
grestore
% clusterFund
gsave
1 setlinewidth
0 0 0 graphcolor
newpath 118 332.3122 moveto
118 493.0437 lineto
438 493.0437 lineto
438 332.3122 lineto
closepath stroke
0 0 0 graphcolor
14 /Times-Roman set_font
208 477.8437 moveto 140 (Module 0: Fundamentals) alignedtext
grestore
% clusterII
gsave
1 setlinewidth
0 0 0 graphcolor
newpath 958 8 moveto
958 493.0437 lineto
1220 493.0437 lineto
1220 8 lineto
closepath stroke
0 0 0 graphcolor
14 /Times-Roman set_font
966 477.8437 moveto 246 (Module II: Concurrency & Synchronization) alignedtext
grestore
% clusterSetup
gsave
1 setlinewidth
0 0 0 graphcolor
newpath 8 332.3122 moveto
8 488.094 lineto
110 488.094 lineto
110 332.3122 lineto
closepath stroke
0 0 0 graphcolor
14 /Times-Roman set_font
43 472.894 moveto 32 (Setup) alignedtext
grestore
% clusterI
gsave
1 setlinewidth
0 0 0 graphcolor
newpath 446 167.6812 moveto
446 410.2031 lineto
950 410.2031 lineto
950 167.6812 lineto
closepath stroke
0 0 0 graphcolor
14 /Times-Roman set_font
564 395.0031 moveto 268 (Module I: Mobile Devices & Internet of Things) alignedtext
grestore
% 1
gsave
1 setlinewidth
0 0 0 nodecolor
59 440.1234 16.9412 16.9412 ellipse_path stroke
0 0 0 nodecolor
14 /Times-Roman set_font
55 436.4234 moveto 8 (1) alignedtext
grestore
% 2
gsave
1 setlinewidth
0 0 0 nodecolor
33 357.2828 16.9412 16.9412 ellipse_path stroke
0 0 0 nodecolor
14 /Times-Roman set_font
29 353.5828 moveto 8 (2) alignedtext
grestore
% 1->2
gsave
1 setlinewidth
0 0 0 edgecolor
newpath 53.8632 423.7568 moveto
50.231 412.1837 45.2868 396.4307 41.1232 383.1648 curveto
stroke
0 0 0 edgecolor
newpath 44.4601 382.1084 moveto
38.1261 373.6154 lineto
37.7813 384.2047 lineto
closepath fill
1 setlinewidth
solid
0 0 0 edgecolor
newpath 44.4601 382.1084 moveto
38.1261 373.6154 lineto
37.7813 384.2047 lineto
closepath stroke
grestore
% 3
gsave
1 setlinewidth
0 0 0 nodecolor
85 357.2828 16.9412 16.9412 ellipse_path stroke
0 0 0 nodecolor
14 /Times-Roman set_font
81 353.5828 moveto 8 (3) alignedtext
grestore
% 1->3
gsave
1 setlinewidth
0 0 0 edgecolor
newpath 64.1368 423.7568 moveto
67.769 412.1837 72.7132 396.4307 76.8768 383.1648 curveto
stroke
0 0 0 edgecolor
newpath 80.2187 384.2047 moveto
79.8739 373.6154 lineto
73.5399 382.1084 lineto
closepath fill
1 setlinewidth
solid
0 0 0 edgecolor
newpath 80.2187 384.2047 moveto
79.8739 373.6154 lineto
73.5399 382.1084 lineto
closepath stroke
grestore
% 4
gsave
1 setlinewidth
0 0 0 nodecolor
413 440.1234 16.9412 16.9412 ellipse_path stroke
0 0 0 nodecolor
14 /Times-Roman set_font
409 436.4234 moveto 8 (4) alignedtext
grestore
% 5
gsave
1 setlinewidth
0 0 0 nodecolor
361 440.1234 16.9412 16.9412 ellipse_path stroke
0 0 0 nodecolor
14 /Times-Roman set_font
357 436.4234 moveto 8 (5) alignedtext
grestore
% 6
gsave
1 setlinewidth
0 0 0 nodecolor
309 440.1234 16.9412 16.9412 ellipse_path stroke
0 0 0 nodecolor
14 /Times-Roman set_font
305 436.4234 moveto 8 (6) alignedtext
grestore
% 7
gsave
1 setlinewidth
0 0 0 nodecolor
143 440.1234 16.9412 16.9412 ellipse_path stroke
0 0 0 nodecolor
14 /Times-Roman set_font
139 436.4234 moveto 8 (7) alignedtext
grestore
% 8
gsave
1 setlinewidth
0 0 0 nodecolor
143 357.2828 16.9412 16.9412 ellipse_path stroke
0 0 0 nodecolor
14 /Times-Roman set_font
139 353.5828 moveto 8 (8) alignedtext
grestore
% 7->8
gsave
1 setlinewidth
0 0 0 edgecolor
newpath 143 422.9588 moveto
143 411.8514 143 397.1508 143 384.4743 curveto
stroke
0 0 0 edgecolor
newpath 146.5001 384.4254 moveto
143 374.4254 lineto
139.5001 384.4255 lineto
closepath fill
1 setlinewidth
solid
0 0 0 edgecolor
newpath 146.5001 384.4254 moveto
143 374.4254 lineto
139.5001 384.4255 lineto
closepath stroke
grestore
% 9
gsave
1 setlinewidth
0 0 0 nodecolor
195 440.1234 16.9412 16.9412 ellipse_path stroke
0 0 0 nodecolor
14 /Times-Roman set_font
191 436.4234 moveto 8 (9) alignedtext
grestore
% 10
gsave
1 setlinewidth
0 0 0 nodecolor
252 440.1234 21.8409 21.8409 ellipse_path stroke
0 0 0 nodecolor
14 /Times-Roman set_font
244.5 436.4234 moveto 15 (10) alignedtext
grestore
% 11
gsave
1 setlinewidth
0 0 0 nodecolor
915 357.2828 27 18 ellipse_path stroke
0 0 0 nodecolor
14 /Times-Roman set_font
907.5 353.5828 moveto 15 (11) alignedtext
grestore
% 10->11
gsave
1 setlinewidth
0 0 0 edgecolor
newpath 268.6995 425.5998 moveto
273.0775 422.5863 277.9854 419.8341 283 418.2031 curveto
314.4904 407.9611 849.836 425.8876 879 410.2031 curveto
889.6396 404.4811 897.7351 394.0747 903.5285 383.9947 curveto
stroke
0 0 0 edgecolor
newpath 906.7105 385.4614 moveto
908.2086 374.973 lineto
900.4968 382.2379 lineto
closepath fill
1 setlinewidth
solid
0 0 0 edgecolor
newpath 906.7105 385.4614 moveto
908.2086 374.973 lineto
900.4968 382.2379 lineto
closepath stroke
grestore
% 12
gsave
1 setlinewidth
0 0 0 nodecolor
848 357.2828 21.8409 21.8409 ellipse_path stroke
0 0 0 nodecolor
14 /Times-Roman set_font
840.5 353.5828 moveto 15 (12) alignedtext
grestore
% 13
gsave
1 setlinewidth
0 0 0 nodecolor
848 277.4422 21.8409 21.8409 ellipse_path stroke
0 0 0 nodecolor
14 /Times-Roman set_font
840.5 273.7422 moveto 15 (13) alignedtext
grestore
% 12->13
gsave
1 setlinewidth
0 0 0 edgecolor
newpath 848 335.0427 moveto
848 327.1699 848 318.1474 848 309.6159 curveto
stroke
0 0 0 edgecolor
newpath 851.5001 309.5629 moveto
848 299.563 lineto
844.5001 309.563 lineto
closepath fill
1 setlinewidth
solid
0 0 0 edgecolor
newpath 851.5001 309.5629 moveto
848 299.563 lineto
844.5001 309.563 lineto
closepath stroke
grestore
% 14
gsave
1 setlinewidth
0 0 0 nodecolor
786 357.2828 21.8409 21.8409 ellipse_path stroke
0 0 0 nodecolor
14 /Times-Roman set_font
778.5 353.5828 moveto 15 (14) alignedtext
grestore
% 15
gsave
1 setlinewidth
0 0 0 nodecolor
724 277.4422 21.8409 21.8409 ellipse_path stroke
0 0 0 nodecolor
14 /Times-Roman set_font
716.5 273.7422 moveto 15 (15) alignedtext
grestore
% 14->15
gsave
1 setlinewidth
0 0 0 edgecolor
newpath 772.5469 339.9586 moveto
764.1552 329.1521 753.2056 315.0518 743.8297 302.978 curveto
stroke
0 0 0 edgecolor
newpath 746.5387 300.7599 moveto
737.6409 295.0083 lineto
741.0099 305.0532 lineto
closepath fill
1 setlinewidth
solid
0 0 0 edgecolor
newpath 746.5387 300.7599 moveto
737.6409 295.0083 lineto
741.0099 305.0532 lineto
closepath stroke
grestore
% 16
gsave
1 setlinewidth
0 0 0 nodecolor
786 277.4422 21.8409 21.8409 ellipse_path stroke
0 0 0 nodecolor
14 /Times-Roman set_font
778.5 273.7422 moveto 15 (16) alignedtext
grestore
% 14->16
gsave
1 setlinewidth
0 0 0 edgecolor
newpath 786 335.0427 moveto
786 327.1699 786 318.1474 786 309.6159 curveto
stroke
0 0 0 edgecolor
newpath 789.5001 309.5629 moveto
786 299.563 lineto
782.5001 309.563 lineto
closepath fill
1 setlinewidth
solid
0 0 0 edgecolor
newpath 789.5001 309.5629 moveto
786 299.563 lineto
782.5001 309.563 lineto
closepath stroke
grestore
% 17
gsave
1 setlinewidth
0 0 0 nodecolor
724 357.2828 21.8409 21.8409 ellipse_path stroke
0 0 0 nodecolor
14 /Times-Roman set_font
716.5 353.5828 moveto 15 (17) alignedtext
grestore
% 18
gsave
1 setlinewidth
0 0 0 nodecolor
662 357.2828 21.8409 21.8409 ellipse_path stroke
0 0 0 nodecolor
14 /Times-Roman set_font
654.5 353.5828 moveto 15 (18) alignedtext
grestore
% 19
gsave
1 setlinewidth
0 0 0 nodecolor
600 357.2828 21.8409 21.8409 ellipse_path stroke
0 0 0 nodecolor
14 /Times-Roman set_font
592.5 353.5828 moveto 15 (19) alignedtext
grestore
% 20
gsave
1 setlinewidth
0 0 0 nodecolor
538 357.2828 21.8409 21.8409 ellipse_path stroke
0 0 0 nodecolor
14 /Times-Roman set_font
530.5 353.5828 moveto 15 (20) alignedtext
grestore
% 21
gsave
1 setlinewidth
0 0 0 nodecolor
476 357.2828 21.8409 21.8409 ellipse_path stroke
0 0 0 nodecolor
14 /Times-Roman set_font
468.5 353.5828 moveto 15 (21) alignedtext
grestore
% 22
gsave
1 setlinewidth
0 0 0 nodecolor
476 277.4422 21.8409 21.8409 ellipse_path stroke
0 0 0 nodecolor
14 /Times-Roman set_font
468.5 273.7422 moveto 15 (22) alignedtext
grestore
% 21->22
gsave
1 setlinewidth
0 0 0 edgecolor
newpath 476 335.0427 moveto
476 327.1699 476 318.1474 476 309.6159 curveto
stroke
0 0 0 edgecolor
newpath 479.5001 309.5629 moveto
476 299.563 lineto
472.5001 309.563 lineto
closepath fill
1 setlinewidth
solid
0 0 0 edgecolor
newpath 479.5001 309.5629 moveto
476 299.563 lineto
472.5001 309.563 lineto
closepath stroke
grestore
% 23
gsave
1 setlinewidth
0 0 0 nodecolor
476 197.6016 21.8409 21.8409 ellipse_path stroke
0 0 0 nodecolor
14 /Times-Roman set_font
468.5 193.9016 moveto 15 (23) alignedtext
grestore
% 22->23
gsave
1 setlinewidth
0 0 0 edgecolor
newpath 476 255.2021 moveto
476 247.3293 476 238.3068 476 229.7752 curveto
stroke
0 0 0 edgecolor
newpath 479.5001 229.7223 moveto
476 219.7223 lineto
472.5001 229.7224 lineto
closepath fill
1 setlinewidth
solid
0 0 0 edgecolor
newpath 479.5001 229.7223 moveto
476 219.7223 lineto
472.5001 229.7224 lineto
closepath stroke
grestore
% 24
gsave
1 setlinewidth
0 0 0 nodecolor
1089 440.1234 21.8409 21.8409 ellipse_path stroke
0 0 0 nodecolor
14 /Times-Roman set_font
1081.5 436.4234 moveto 15 (24) alignedtext
grestore
% 25
gsave
1 setlinewidth
0 0 0 nodecolor
1089 357.2828 21.8409 21.8409 ellipse_path stroke
0 0 0 nodecolor
14 /Times-Roman set_font
1081.5 353.5828 moveto 15 (25) alignedtext
grestore
% 24->25
gsave
1 setlinewidth
0 0 0 edgecolor
newpath 1089 417.9236 moveto
1089 409.1246 1089 398.8387 1089 389.2636 curveto
stroke
0 0 0 edgecolor
newpath 1092.5001 389.2565 moveto
1089 379.2566 lineto
1085.5001 389.2566 lineto
closepath fill
1 setlinewidth
solid
0 0 0 edgecolor
newpath 1092.5001 389.2565 moveto
1089 379.2566 lineto
1085.5001 389.2566 lineto
closepath stroke
grestore
% 26
gsave
1 setlinewidth
0 0 0 nodecolor
1089 277.4422 21.8409 21.8409 ellipse_path stroke
0 0 0 nodecolor
14 /Times-Roman set_font
1081.5 273.7422 moveto 15 (26) alignedtext
grestore
% 25->26
gsave
1 setlinewidth
0 0 0 edgecolor
newpath 1089 335.0427 moveto
1089 327.1699 1089 318.1474 1089 309.6159 curveto
stroke
0 0 0 edgecolor
newpath 1092.5001 309.5629 moveto
1089 299.563 lineto
1085.5001 309.563 lineto
closepath fill
1 setlinewidth
solid
0 0 0 edgecolor
newpath 1092.5001 309.5629 moveto
1089 299.563 lineto
1085.5001 309.563 lineto
closepath stroke
grestore
% 27
gsave
1 setlinewidth
0 0 0 nodecolor
1089 197.6016 21.8409 21.8409 ellipse_path stroke
0 0 0 nodecolor
14 /Times-Roman set_font
1081.5 193.9016 moveto 15 (27) alignedtext
grestore
% 26->27
gsave
1 setlinewidth
0 0 0 edgecolor
newpath 1089 255.2021 moveto
1089 247.3293 1089 238.3068 1089 229.7752 curveto
stroke
0 0 0 edgecolor
newpath 1092.5001 229.7223 moveto
1089 219.7223 lineto
1085.5001 229.7224 lineto
closepath fill
1 setlinewidth
solid
0 0 0 edgecolor
newpath 1092.5001 229.7223 moveto
1089 219.7223 lineto
1085.5001 229.7224 lineto
closepath stroke
grestore
% 28
gsave
1 setlinewidth
0 0 0 nodecolor
1089 117.7609 21.8409 21.8409 ellipse_path stroke
0 0 0 nodecolor
14 /Times-Roman set_font
1081.5 114.0609 moveto 15 (28) alignedtext
grestore
% 27->28
gsave
1 setlinewidth
0 0 0 edgecolor
newpath 1089 175.3615 moveto
1089 167.4887 1089 158.4662 1089 149.9346 curveto
stroke
0 0 0 edgecolor
newpath 1092.5001 149.8817 moveto
1089 139.8817 lineto
1085.5001 149.8818 lineto
closepath fill
1 setlinewidth
solid
0 0 0 edgecolor
newpath 1092.5001 149.8817 moveto
1089 139.8817 lineto
1085.5001 149.8818 lineto
closepath stroke
grestore
% 29
gsave
1 setlinewidth
0 0 0 nodecolor
1089 37.9203 21.8409 21.8409 ellipse_path stroke
0 0 0 nodecolor
14 /Times-Roman set_font
1081.5 34.2203 moveto 15 (29) alignedtext
grestore
% 28->29
gsave
1 setlinewidth
0 0 0 edgecolor
newpath 1089 95.5209 moveto
1089 87.6481 1089 78.6256 1089 70.094 curveto
stroke
0 0 0 edgecolor
newpath 1092.5001 70.0411 moveto
1089 60.0411 lineto
1085.5001 70.0411 lineto
closepath fill
1 setlinewidth
solid
0 0 0 edgecolor
newpath 1092.5001 70.0411 moveto
1089 60.0411 lineto
1085.5001 70.0411 lineto
closepath stroke
grestore
% 30
gsave
1 setlinewidth
0 0 0 nodecolor
1387 440.1234 21.8409 21.8409 ellipse_path stroke
0 0 0 nodecolor
14 /Times-Roman set_font
1379.5 436.4234 moveto 15 (30) alignedtext
grestore
% 31
gsave
1 setlinewidth
0 0 0 nodecolor
1387 357.2828 21.8409 21.8409 ellipse_path stroke
0 0 0 nodecolor
14 /Times-Roman set_font
1379.5 353.5828 moveto 15 (31) alignedtext
grestore
% 30->31
gsave
1 setlinewidth
0 0 0 edgecolor
newpath 1387 417.9236 moveto
1387 409.1246 1387 398.8387 1387 389.2636 curveto
stroke
0 0 0 edgecolor
newpath 1390.5001 389.2565 moveto
1387 379.2566 lineto
1383.5001 389.2566 lineto
closepath fill
1 setlinewidth
solid
0 0 0 edgecolor
newpath 1390.5001 389.2565 moveto
1387 379.2566 lineto
1383.5001 389.2566 lineto
closepath stroke
grestore
% 32
gsave
1 setlinewidth
0 0 0 nodecolor
1387 277.4422 21.8409 21.8409 ellipse_path stroke
0 0 0 nodecolor
14 /Times-Roman set_font
1379.5 273.7422 moveto 15 (32) alignedtext
grestore
% 31->32
gsave
1 setlinewidth
0 0 0 edgecolor
newpath 1387 335.0427 moveto
1387 327.1699 1387 318.1474 1387 309.6159 curveto
stroke
0 0 0 edgecolor
newpath 1390.5001 309.5629 moveto
1387 299.563 lineto
1383.5001 309.563 lineto
closepath fill
1 setlinewidth
solid
0 0 0 edgecolor
newpath 1390.5001 309.5629 moveto
1387 299.563 lineto
1383.5001 309.563 lineto
closepath stroke
grestore
endpage
showpage
grestore
%%PageTrailer
%%EndPage: 1
%%Trailer
end
restore
%%EOF
