\relax 
\providecommand\hyper@newdestlabel[2]{}
\providecommand\HyperFirstAtBeginDocument{\AtBeginDocument}
\HyperFirstAtBeginDocument{\ifx\hyper@anchor\@undefined
\global\let\oldcontentsline\contentsline
\gdef\contentsline#1#2#3#4{\oldcontentsline{#1}{#2}{#3}}
\global\let\oldnewlabel\newlabel
\gdef\newlabel#1#2{\newlabelxx{#1}#2}
\gdef\newlabelxx#1#2#3#4#5#6{\oldnewlabel{#1}{{#2}{#3}}}
\AtEndDocument{\ifx\hyper@anchor\@undefined
\let\contentsline\oldcontentsline
\let\newlabel\oldnewlabel
\fi}
\fi}
\global\let\hyper@last\relax 
\gdef\HyperFirstAtBeginDocument#1{#1}
\providecommand\HyField@AuxAddToFields[1]{}
\providecommand\HyField@AuxAddToCoFields[2]{}
\citation{LCP}
\@writefile{toc}{\contentsline {chapter}{\numberline {1}Linux Kernel Lab---System Calls}{1}{chapter.1}}
\@writefile{lof}{\addvspace {10\p@ }}
\@writefile{lot}{\addvspace {10\p@ }}
\newlabel{CHAP:KERNEL}{{1}{1}{Linux Kernel Lab---System Calls}{chapter.1}{}}
\@writefile{toc}{\contentsline {section}{\numberline {1.1}Lab Learning Outcomes}{1}{section.1.1}}
\@writefile{toc}{\contentsline {section}{\numberline {1.2}Lab Overview}{1}{section.1.2}}
\@writefile{toc}{\contentsline {subsection}{\numberline {1.2.1}Setup}{1}{subsection.1.2.1}}
\citation{LCP}
\@writefile{toc}{\contentsline {section}{\numberline {1.3}Resources and Getting Help}{2}{section.1.3}}
\@writefile{toc}{\contentsline {section}{\numberline {1.4}Steps}{2}{section.1.4}}
\newlabel{sec:syscalls}{{1}{2}{Steps}{Item.1}{}}
\newlabel{lst:codehello}{{1.1}{3}{Source code of file \texttt {hello.c}}{lstlisting.1.1}{}}
\@writefile{lol}{\contentsline {lstlisting}{\numberline {1.1}Source code of file \texttt  {hello.c}.}{3}{lstlisting.1.1}}
\newlabel{lst:codeioctl}{{1.2}{5}{Source code of file \texttt {myioctl.c}}{lstlisting.1.2}{}}
\@writefile{lol}{\contentsline {lstlisting}{\numberline {1.2}Source code of file \texttt  {myioctl.c}.}{5}{lstlisting.1.2}}
\newlabel{lst:codeuser}{{1.3}{7}{Source code of file \texttt {hello.c}}{lstlisting.1.3}{}}
\@writefile{lol}{\contentsline {lstlisting}{\numberline {1.3}Source code of file \texttt  {hello.c}.}{7}{lstlisting.1.3}}
\@writefile{toc}{\contentsline {section}{\numberline {1.5}Submission Guidelines}{8}{section.1.5}}
\@writefile{toc}{\contentsline {section}{\numberline {1.6}Thematic Take-Aways}{8}{section.1.6}}
\@writefile{toc}{\contentsline {section}{\numberline {1.7}Lab Summary}{9}{section.1.7}}
\@writefile{toc}{\contentsline {section}{\numberline {1.8}Key Terms}{9}{section.1.8}}
\@writefile{toc}{\contentsline {section}{\numberline {1.9}Bibliographic Notes}{9}{section.1.9}}
