\relax 
\providecommand\hyper@newdestlabel[2]{}
\providecommand\HyperFirstAtBeginDocument{\AtBeginDocument}
\HyperFirstAtBeginDocument{\ifx\hyper@anchor\@undefined
\global\let\oldcontentsline\contentsline
\gdef\contentsline#1#2#3#4{\oldcontentsline{#1}{#2}{#3}}
\global\let\oldnewlabel\newlabel
\gdef\newlabel#1#2{\newlabelxx{#1}#2}
\gdef\newlabelxx#1#2#3#4#5#6{\oldnewlabel{#1}{{#2}{#3}}}
\AtEndDocument{\ifx\hyper@anchor\@undefined
\let\contentsline\oldcontentsline
\let\newlabel\oldnewlabel
\fi}
\fi}
\global\let\hyper@last\relax 
\gdef\HyperFirstAtBeginDocument#1{#1}
\providecommand\HyField@AuxAddToFields[1]{}
\providecommand\HyField@AuxAddToCoFields[2]{}
\@writefile{toc}{\contentsline {chapter}{\numberline {10}More Channels and Communicating Sequential Processes}{1}{chapter.1}}
\@writefile{lof}{\addvspace {10\p@ }}
\@writefile{lot}{\addvspace {10\p@ }}
\newlabel{CHAP:LAB10}{{10}{1}{More Channels and Communicating Sequential Processes}{chapter.1}{}}
\@writefile{toc}{\contentsline {section}{\numberline {10.1}Lab Objectives}{1}{section.1.1}}
\@writefile{toc}{\contentsline {section}{\numberline {10.2}Resources and Getting Help}{1}{section.1.2}}
\@writefile{toc}{\contentsline {section}{\numberline {10.3}Activities}{2}{section.1.3}}
\@writefile{toc}{\contentsline {section}{\numberline {10.4}Thematic Take-Aways}{2}{section.1.4}}
\@writefile{toc}{\contentsline {section}{\numberline {10.5}Lab Summary}{3}{section.1.5}}
\@writefile{toc}{\contentsline {section}{\numberline {10.6}Key Terms}{3}{section.1.6}}
\@writefile{toc}{\contentsline {section}{\numberline {10.7}Bibliographic Notes}{3}{section.1.7}}
