\relax 
\providecommand\hyper@newdestlabel[2]{}
\providecommand\HyperFirstAtBeginDocument{\AtBeginDocument}
\HyperFirstAtBeginDocument{\ifx\hyper@anchor\@undefined
\global\let\oldcontentsline\contentsline
\gdef\contentsline#1#2#3#4{\oldcontentsline{#1}{#2}{#3}}
\global\let\oldnewlabel\newlabel
\gdef\newlabel#1#2{\newlabelxx{#1}#2}
\gdef\newlabelxx#1#2#3#4#5#6{\oldnewlabel{#1}{{#2}{#3}}}
\AtEndDocument{\ifx\hyper@anchor\@undefined
\let\contentsline\oldcontentsline
\let\newlabel\oldnewlabel
\fi}
\fi}
\global\let\hyper@last\relax 
\gdef\HyperFirstAtBeginDocument#1{#1}
\providecommand\HyField@AuxAddToFields[1]{}
\providecommand\HyField@AuxAddToCoFields[2]{}
\@writefile{toc}{\contentsline {chapter}{\numberline {1}Compiling C in Linux; Storage \& Linkage Classes; \& Threads \& Thread-safe Functions}{1}{chapter.1}}
\@writefile{lof}{\addvspace {10\p@ }}
\@writefile{lot}{\addvspace {10\p@ }}
\newlabel{CHAP:COMPILINGLAB}{{1}{1}{Compiling C in Linux; Storage \& Linkage Classes; \& Threads \& Thread-safe Functions}{chapter.1}{}}
\@writefile{toc}{\contentsline {section}{\numberline {1.1}Lab Learning Outcomes}{1}{section.1.1}}
\@writefile{toc}{\contentsline {section}{\numberline {1.2}Resources and Getting Help}{1}{section.1.2}}
\@writefile{toc}{\contentsline {section}{\numberline {1.3}Steps}{2}{section.1.3}}
\@writefile{toc}{\contentsline {subsection}{\numberline {1.3.1}Collecting necessary files for the lab}{2}{subsection.1.3.1}}
\@writefile{toc}{\contentsline {subsection}{\numberline {1.3.2}Exploring separate compilation and linking}{2}{subsection.1.3.2}}
\@writefile{toc}{\contentsline {subsection}{\numberline {1.3.3}Storgage Class and Linkage Classes}{3}{subsection.1.3.3}}
\@writefile{toc}{\contentsline {section}{\numberline {1.4}Thematic Take-Aways}{6}{section.1.4}}
\@writefile{toc}{\contentsline {section}{\numberline {1.5}Lab Summary}{6}{section.1.5}}
\@writefile{toc}{\contentsline {section}{\numberline {1.6}Key Terms}{6}{section.1.6}}
\@writefile{toc}{\contentsline {section}{\numberline {1.7}Bibliographic Notes}{6}{section.1.7}}
