\relax 
\providecommand\hyper@newdestlabel[2]{}
\providecommand\HyperFirstAtBeginDocument{\AtBeginDocument}
\HyperFirstAtBeginDocument{\ifx\hyper@anchor\@undefined
\global\let\oldcontentsline\contentsline
\gdef\contentsline#1#2#3#4{\oldcontentsline{#1}{#2}{#3}}
\global\let\oldnewlabel\newlabel
\gdef\newlabel#1#2{\newlabelxx{#1}#2}
\gdef\newlabelxx#1#2#3#4#5#6{\oldnewlabel{#1}{{#2}{#3}}}
\AtEndDocument{\ifx\hyper@anchor\@undefined
\let\contentsline\oldcontentsline
\let\newlabel\oldnewlabel
\fi}
\fi}
\global\let\hyper@last\relax 
\gdef\HyperFirstAtBeginDocument#1{#1}
\providecommand\HyField@AuxAddToFields[1]{}
\providecommand\HyField@AuxAddToCoFields[2]{}
\@writefile{toc}{\contentsline {chapter}{\numberline {1}Cloud Computing and Big Data Processing (Part II)}{1}{chapter.1}\protected@file@percent }
\@writefile{lof}{\addvspace {10\p@ }}
\@writefile{lot}{\addvspace {10\p@ }}
\newlabel{CHAP:LAB2}{{1}{1}{Cloud Computing and Big Data Processing (Part II)}{chapter.1}{}}
\@writefile{toc}{\contentsline {section}{\numberline {1.1}Lab Learning Outcomes}{1}{section.1.1}\protected@file@percent }
\@writefile{toc}{\contentsline {section}{\numberline {1.2}Resources and Getting Help}{1}{section.1.2}\protected@file@percent }
\@writefile{toc}{\contentsline {section}{\numberline {1.3}Initial Setup and Preparation}{1}{section.1.3}\protected@file@percent }
\@writefile{toc}{\contentsline {subsection}{\numberline {1.3.1}Create a Mapreduce Project using Maven in Eclipse}{1}{subsection.1.3.1}\protected@file@percent }
\@writefile{lof}{\contentsline {figure}{\numberline {1.1}{\ignorespaces New Maven Project -- Select project name and location.}}{2}{figure.1.1}\protected@file@percent }
\newlabel{newMaven1}{{1.1}{2}{New Maven Project -- Select project name and location}{figure.1.1}{}}
\@writefile{lof}{\contentsline {figure}{\numberline {1.2}{\ignorespaces New Maven Project -- Select an archetype.}}{3}{figure.1.2}\protected@file@percent }
\@writefile{lof}{\contentsline {figure}{\numberline {1.3}{\ignorespaces New Maven Project -- Name group Id and artifact Id.}}{4}{figure.1.3}\protected@file@percent }
\newlabel{newMaven3}{{1.3}{4}{New Maven Project -- Name group Id and artifact Id}{figure.1.3}{}}
\@writefile{lof}{\contentsline {figure}{\numberline {1.4}{\ignorespaces Mapper class.}}{5}{figure.1.4}\protected@file@percent }
\newlabel{class1}{{1.4}{5}{Mapper class}{figure.1.4}{}}
\@writefile{lof}{\contentsline {figure}{\numberline {1.5}{\ignorespaces Reducer class.}}{5}{figure.1.5}\protected@file@percent }
\@writefile{lof}{\contentsline {figure}{\numberline {1.6}{\ignorespaces Driver class.}}{6}{figure.1.6}\protected@file@percent }
\newlabel{class3}{{1.6}{6}{Driver class}{figure.1.6}{}}
\@writefile{lof}{\contentsline {figure}{\numberline {1.7}{\ignorespaces Edit \texttt  {pom.xml} file.}}{7}{figure.1.7}\protected@file@percent }
\newlabel{pom}{{1.7}{7}{Edit \texttt {pom.xml} file}{figure.1.7}{}}
\@writefile{lof}{\contentsline {figure}{\numberline {1.8}{\ignorespaces Search hadoop client dependency at \url  {mvnrepository.com}.}}{8}{figure.1.8}\protected@file@percent }
\newlabel{repository}{{1.8}{8}{Search hadoop client dependency at \url {mvnrepository.com}}{figure.1.8}{}}
\@writefile{lof}{\contentsline {figure}{\numberline {1.9}{\ignorespaces Search hadoop common dependency at \url  {mvnrepository.com}.}}{9}{figure.1.9}\protected@file@percent }
\newlabel{repository}{{1.9}{9}{Search hadoop common dependency at \url {mvnrepository.com}}{figure.1.9}{}}
\@writefile{lof}{\contentsline {figure}{\numberline {1.10}{\ignorespaces Preferences.}}{9}{figure.1.10}\protected@file@percent }
\newlabel{preferences}{{1.10}{9}{Preferences}{figure.1.10}{}}
\@writefile{lof}{\contentsline {figure}{\numberline {1.11}{\ignorespaces Edit JRE.}}{10}{figure.1.11}\protected@file@percent }
\newlabel{jdk}{{1.11}{10}{Edit JRE}{figure.1.11}{}}
\@writefile{lof}{\contentsline {figure}{\numberline {1.12}{\ignorespaces Compiler.}}{11}{figure.1.12}\protected@file@percent }
\newlabel{repository}{{1.12}{11}{Compiler}{figure.1.12}{}}
\@writefile{lof}{\contentsline {figure}{\numberline {1.13}{\ignorespaces Compiler.}}{12}{figure.1.13}\protected@file@percent }
\newlabel{repository}{{1.13}{12}{Compiler}{figure.1.13}{}}
\@writefile{toc}{\contentsline {subsection}{\numberline {1.3.2}Run the \texttt  {.jar} Package at amazon clouds}{12}{subsection.1.3.2}\protected@file@percent }
\@writefile{lof}{\contentsline {figure}{\numberline {1.14}{\ignorespaces Connect to the name node in WinSCP.}}{13}{figure.1.14}\protected@file@percent }
\@writefile{lof}{\contentsline {figure}{\numberline {1.15}{\ignorespaces Upload a mapreduce package in \texttt  {.jar} to the name node.}}{13}{figure.1.15}\protected@file@percent }
\@writefile{lof}{\contentsline {figure}{\numberline {1.16}{\ignorespaces Sample text files.}}{14}{figure.1.16}\protected@file@percent }
\@writefile{lof}{\contentsline {figure}{\numberline {1.17}{\ignorespaces Upload data in \texttt  {.txt} to the name node.}}{14}{figure.1.17}\protected@file@percent }
\@writefile{lof}{\contentsline {figure}{\numberline {1.18}{\ignorespaces Load data files in \texttt  {.txt} to \textsc  {hdfs} at the name node.}}{15}{figure.1.18}\protected@file@percent }
\@writefile{lof}{\contentsline {figure}{\numberline {1.19}{\ignorespaces Run our own mapreduce project at the cluster.}}{16}{figure.1.19}\protected@file@percent }
\@writefile{lof}{\contentsline {figure}{\numberline {1.20}{\ignorespaces Transfer output from \textsc  {hdfs} to \texttt  {/home/hduser} at the name node.}}{17}{figure.1.20}\protected@file@percent }
\newlabel{tranfer}{{1.20}{17}{Transfer output from \textsc {hdfs} to \texttt {/home/hduser} at the name node}{figure.1.20}{}}
\@writefile{lof}{\contentsline {figure}{\numberline {1.21}{\ignorespaces Go to \texttt  {/home/hduser/output} at the name node.}}{17}{figure.1.21}\protected@file@percent }
\@writefile{lof}{\contentsline {figure}{\numberline {1.22}{\ignorespaces Open \texttt  {part-r-00000} to see results at the name node.}}{18}{figure.1.22}\protected@file@percent }
\@writefile{toc}{\contentsline {section}{\numberline {1.4}Thematic Take-Aways}{18}{section.1.4}\protected@file@percent }
\@writefile{toc}{\contentsline {section}{\numberline {1.5}Lab Summary}{19}{section.1.5}\protected@file@percent }
\@writefile{toc}{\contentsline {section}{\numberline {1.6}Key Term}{19}{section.1.6}\protected@file@percent }
