\relax 
\providecommand\hyper@newdestlabel[2]{}
\providecommand\HyperFirstAtBeginDocument{\AtBeginDocument}
\HyperFirstAtBeginDocument{\ifx\hyper@anchor\@undefined
\global\let\oldcontentsline\contentsline
\gdef\contentsline#1#2#3#4{\oldcontentsline{#1}{#2}{#3}}
\global\let\oldnewlabel\newlabel
\gdef\newlabel#1#2{\newlabelxx{#1}#2}
\gdef\newlabelxx#1#2#3#4#5#6{\oldnewlabel{#1}{{#2}{#3}}}
\AtEndDocument{\ifx\hyper@anchor\@undefined
\let\contentsline\oldcontentsline
\let\newlabel\oldnewlabel
\fi}
\fi}
\global\let\hyper@last\relax 
\gdef\HyperFirstAtBeginDocument#1{#1}
\providecommand\HyField@AuxAddToFields[1]{}
\providecommand\HyField@AuxAddToCoFields[2]{}
\@writefile{toc}{\contentsline {chapter}{\numberline {1}Introduction to Internet of Things (Camera Sensors)}{1}{chapter.1}\protected@file@percent }
\@writefile{lof}{\addvspace {10\p@ }}
\@writefile{lot}{\addvspace {10\p@ }}
\newlabel{CHAP:IOTCAMERA}{{1}{1}{Introduction to Internet of Things (Camera Sensors)}{chapter.1}{}}
\@writefile{toc}{\contentsline {section}{\numberline {1.1}Lab Learning Outcomes}{1}{section.1.1}\protected@file@percent }
\@writefile{toc}{\contentsline {section}{\numberline {1.2}Introduction}{2}{section.1.2}\protected@file@percent }
\newlabel{sec:IoTintroduction:cam}{{1.2}{2}{Introduction}{section.1.2}{}}
\@writefile{toc}{\contentsline {subsection}{\numberline {1.2.1}Internet of Things Examples}{2}{subsection.1.2.1}\protected@file@percent }
\@writefile{toc}{\contentsline {subsection}{\numberline {1.2.2}Why Study This Stuff Anyway?}{3}{subsection.1.2.2}\protected@file@percent }
\@writefile{toc}{\contentsline {subsection}{\numberline {1.2.3}Conceptual Exercises for Section\nobreakspace  {}\ref  {sec:IoTintroduction:cam}}{3}{subsection.1.2.3}\protected@file@percent }
\@writefile{lof}{\contentsline {figure}{\numberline {1.1}{\ignorespaces Enabling the RPi Camera Interface.}}{4}{figure.1.1}\protected@file@percent }
\newlabel{fig:camera-interface:cam}{{1.1}{4}{Enabling the RPi Camera Interface}{figure.1.1}{}}
\@writefile{toc}{\contentsline {subsection}{\numberline {1.2.4}Hands-on Exercises for Section\nobreakspace  {}\ref  {sec:IoTintroduction:cam}}{4}{subsection.1.2.4}\protected@file@percent }
\@writefile{lof}{\contentsline {figure}{\numberline {1.2}{\ignorespaces RPi board (RPicamera connector circled).}}{5}{figure.1.2}\protected@file@percent }
\newlabel{fig:iot-pi-board:cam}{{1.2}{5}{RPi board (RPicamera connector circled)}{figure.1.2}{}}
\@writefile{lof}{\contentsline {figure}{\numberline {1.3}{\ignorespaces Ensure black connector is up.}}{6}{figure.1.3}\protected@file@percent }
\newlabel{fig:iot-camera-slot:cam}{{1.3}{6}{Ensure black connector is up}{figure.1.3}{}}
\@writefile{lof}{\contentsline {figure}{\numberline {1.4}{\ignorespaces RPi Camera with ribbon connector circled.}}{6}{figure.1.4}\protected@file@percent }
\newlabel{fig:iot-ribbon-cable:cam}{{1.4}{6}{RPi Camera with ribbon connector circled}{figure.1.4}{}}
\@writefile{lof}{\contentsline {figure}{\numberline {1.5}{\ignorespaces RPi Camera ribbon cable positioned and ready for insertion.}}{7}{figure.1.5}\protected@file@percent }
\newlabel{fig:iot-ready:cam}{{1.5}{7}{RPi Camera ribbon cable positioned and ready for insertion}{figure.1.5}{}}
\@writefile{lof}{\contentsline {figure}{\numberline {1.6}{\ignorespaces RPi Camera ribbon cable installed. Note how the black connector is in the down position.}}{7}{figure.1.6}\protected@file@percent }
\newlabel{fig:iot-camera-connected:cam}{{1.6}{7}{RPi Camera ribbon cable installed. Note how the black connector is in the down position}{figure.1.6}{}}
