\relax 
\providecommand\hyper@newdestlabel[2]{}
\providecommand\HyperFirstAtBeginDocument{\AtBeginDocument}
\HyperFirstAtBeginDocument{\ifx\hyper@anchor\@undefined
\global\let\oldcontentsline\contentsline
\gdef\contentsline#1#2#3#4{\oldcontentsline{#1}{#2}{#3}}
\global\let\oldnewlabel\newlabel
\gdef\newlabel#1#2{\newlabelxx{#1}#2}
\gdef\newlabelxx#1#2#3#4#5#6{\oldnewlabel{#1}{{#2}{#3}}}
\AtEndDocument{\ifx\hyper@anchor\@undefined
\let\contentsline\oldcontentsline
\let\newlabel\oldnewlabel
\fi}
\fi}
\global\let\hyper@last\relax 
\gdef\HyperFirstAtBeginDocument#1{#1}
\providecommand\HyField@AuxAddToFields[1]{}
\providecommand\HyField@AuxAddToCoFields[2]{}
\@writefile{toc}{\contentsline {chapter}{\numberline {1}Buffer Overflow Attacks and Defenses}{1}{chapter.1}\protected@file@percent }
\@writefile{lof}{\addvspace {10\p@ }}
\@writefile{lot}{\addvspace {10\p@ }}
\newlabel{CHAP:BOF}{{1}{1}{Buffer Overflow Attacks and Defenses}{chapter.1}{}}
\@writefile{toc}{\contentsline {section}{\numberline {1.1}Lab Learning Outcomes}{1}{section.1.1}\protected@file@percent }
\@writefile{toc}{\contentsline {section}{\numberline {1.2}Preparation}{2}{section.1.2}\protected@file@percent }
\newlabel{lst:Cprogram}{{1.2}{4}{}{lstlisting.1.-1}{}}
\@writefile{toc}{\contentsline {section}{\numberline {1.3}Lab tasks}{4}{section.1.3}\protected@file@percent }
\@writefile{toc}{\contentsline {subsection}{\numberline {1.3.1}Task 1: Identify the buffer size and overwrite the return address}{4}{subsection.1.3.1}\protected@file@percent }
\@writefile{toc}{\contentsline {subsection}{\numberline {1.3.2}Task 2: Identify the buffer address}{7}{subsection.1.3.2}\protected@file@percent }
\@writefile{toc}{\contentsline {subsection}{\numberline {1.3.3}Task 3: Construct the payload}{9}{subsection.1.3.3}\protected@file@percent }
\@writefile{toc}{\contentsline {subsection}{\numberline {1.3.4}Task 4: Launching the attack}{11}{subsection.1.3.4}\protected@file@percent }
\@writefile{toc}{\contentsline {subsection}{\numberline {1.3.5}Task 5: A Buffer Overflow Attack Countermeasure}{13}{subsection.1.3.5}\protected@file@percent }
\@writefile{toc}{\contentsline {section}{\numberline {1.4}Thematic Take-Aways}{14}{section.1.4}\protected@file@percent }
\@writefile{toc}{\contentsline {section}{\numberline {1.5}Lab Summary}{15}{section.1.5}\protected@file@percent }
\@writefile{toc}{\contentsline {section}{\numberline {1.6}Key Terms}{15}{section.1.6}\protected@file@percent }
\@writefile{toc}{\contentsline {section}{\numberline {1.7}Bibliographic Notes}{15}{section.1.7}\protected@file@percent }
