\relax 
\providecommand\hyper@newdestlabel[2]{}
\providecommand\HyperFirstAtBeginDocument{\AtBeginDocument}
\HyperFirstAtBeginDocument{\ifx\hyper@anchor\@undefined
\global\let\oldcontentsline\contentsline
\gdef\contentsline#1#2#3#4{\oldcontentsline{#1}{#2}{#3}}
\global\let\oldnewlabel\newlabel
\gdef\newlabel#1#2{\newlabelxx{#1}#2}
\gdef\newlabelxx#1#2#3#4#5#6{\oldnewlabel{#1}{{#2}{#3}}}
\AtEndDocument{\ifx\hyper@anchor\@undefined
\let\contentsline\oldcontentsline
\let\newlabel\oldnewlabel
\fi}
\fi}
\global\let\hyper@last\relax 
\gdef\HyperFirstAtBeginDocument#1{#1}
\providecommand\HyField@AuxAddToFields[1]{}
\providecommand\HyField@AuxAddToCoFields[2]{}
\@writefile{toc}{\contentsline {chapter}{\numberline {1}Field Work Data}{1}{chapter.1}\protected@file@percent }
\@writefile{lof}{\addvspace {10\p@ }}
\@writefile{lot}{\addvspace {10\p@ }}
\newlabel{CHAP:BigSenseFieldWorkData}{{1}{1}{Field Work Data}{chapter.1}{}}
\@writefile{toc}{\contentsline {section}{\numberline {1.1}Lab Learning Outcomes}{1}{section.1.1}\protected@file@percent }
\@writefile{toc}{\contentsline {section}{\numberline {1.2}Resources and Getting Help}{1}{section.1.2}\protected@file@percent }
\@writefile{lof}{\contentsline {figure}{\numberline {A1}{\ignorespaces DS18B20 Temperature Sensor.}}{2}{figure.1.1}\protected@file@percent }
\newlabel{picds}{{A1}{2}{DS18B20 Temperature Sensor}{figure.1.1}{}}
\@writefile{toc}{\contentsline {section}{\numberline {1.3}Introduction}{2}{section.1.3}\protected@file@percent }
\@writefile{toc}{\contentsline {section}{\numberline {1.4}Create a Study}{2}{section.1.4}\protected@file@percent }
\@writefile{lof}{\contentsline {figure}{\numberline {A2}{\ignorespaces DS18B20 Block Diagram.}}{3}{figure.1.2}\protected@file@percent }
\newlabel{fig:ds}{{A2}{3}{DS18B20 Block Diagram}{figure.1.2}{}}
\@writefile{lof}{\contentsline {figure}{\numberline {A3}{\ignorespaces 1-Wire Wiring Diagram (Notice the ``Female Connector'').}}{3}{figure.1.3}\protected@file@percent }
\newlabel{fig:pinds}{{A3}{3}{1-Wire Wiring Diagram (Notice the ``Female Connector'')}{figure.1.3}{}}
\@writefile{toc}{\contentsline {section}{\numberline {1.5}Data Formats}{4}{section.1.5}\protected@file@percent }
\@writefile{toc}{\contentsline {section}{\numberline {1.6}Questions}{5}{section.1.6}\protected@file@percent }
\@writefile{toc}{\contentsline {section}{\numberline {1.7}Thematic Take-Aways}{7}{section.1.7}\protected@file@percent }
\@writefile{toc}{\contentsline {section}{\numberline {1.8}Lab Summary}{8}{section.1.8}\protected@file@percent }
\@writefile{toc}{\contentsline {section}{\numberline {1.9}Key Terms}{8}{section.1.9}\protected@file@percent }
