\relax 
\providecommand\hyper@newdestlabel[2]{}
\providecommand\HyperFirstAtBeginDocument{\AtBeginDocument}
\HyperFirstAtBeginDocument{\ifx\hyper@anchor\@undefined
\global\let\oldcontentsline\contentsline
\gdef\contentsline#1#2#3#4{\oldcontentsline{#1}{#2}{#3}}
\global\let\oldnewlabel\newlabel
\gdef\newlabel#1#2{\newlabelxx{#1}#2}
\gdef\newlabelxx#1#2#3#4#5#6{\oldnewlabel{#1}{{#2}{#3}}}
\AtEndDocument{\ifx\hyper@anchor\@undefined
\let\contentsline\oldcontentsline
\let\newlabel\oldnewlabel
\fi}
\fi}
\global\let\hyper@last\relax 
\gdef\HyperFirstAtBeginDocument#1{#1}
\providecommand\HyField@AuxAddToFields[1]{}
\providecommand\HyField@AuxAddToCoFields[2]{}
\@writefile{toc}{\contentsline {chapter}{\numberline {1}Android Application Reverse Engineering}{1}{chapter.1}\protected@file@percent }
\@writefile{lof}{\addvspace {10\p@ }}
\@writefile{lot}{\addvspace {10\p@ }}
\newlabel{CHAP:ANDROID}{{1}{1}{Android Application Reverse Engineering}{chapter.1}{}}
\@writefile{toc}{\contentsline {section}{\numberline {1.1}Lab Learning Outcomes}{1}{section.1.1}\protected@file@percent }
\@writefile{toc}{\contentsline {section}{\numberline {1.2}Preparation}{1}{section.1.2}\protected@file@percent }
\@writefile{toc}{\contentsline {paragraph}{Download the Android application.}{2}{section*.1}\protected@file@percent }
\@writefile{toc}{\contentsline {paragraph}{Download the Apktool tool.}{2}{section*.2}\protected@file@percent }
\@writefile{toc}{\contentsline {section}{\numberline {1.3}Lab Tasks}{3}{section.1.3}\protected@file@percent }
\@writefile{toc}{\contentsline {subsection}{\numberline {1.3.1}Task 1: Upload and Run an APK Android app in an Android Emulator}{3}{subsection.1.3.1}\protected@file@percent }
\@writefile{toc}{\contentsline {subsection}{\numberline {1.3.2}Task 2: Reverse Engineer and Modify a Hybrid Android app}{6}{subsection.1.3.2}\protected@file@percent }
\@writefile{toc}{\contentsline {subsection}{\numberline {1.3.3}Task 3: Rebuild a Modified Android app}{10}{subsection.1.3.3}\protected@file@percent }
\@writefile{toc}{\contentsline {section}{\numberline {1.4}Thematic Take-Aways}{13}{section.1.4}\protected@file@percent }
\@writefile{toc}{\contentsline {section}{\numberline {1.5}Lab Summary}{13}{section.1.5}\protected@file@percent }
\@writefile{toc}{\contentsline {section}{\numberline {1.6}Key Terms}{14}{section.1.6}\protected@file@percent }
\@writefile{toc}{\contentsline {section}{\numberline {1.7}Bibliographic Notes}{14}{section.1.7}\protected@file@percent }
