%!PS-Adobe-3.0 EPSF-3.0
%%Title: p2.fig
%%Creator: fig2dev Version 3.2.6a
%%CreationDate: 2018-02-27 17:43:22
%%BoundingBox: 0 0 926 594
%Magnification: 1.0000
%%EndComments
%%BeginProlog
/$F2psDict 200 dict def
$F2psDict begin
$F2psDict /mtrx matrix put
/col-1 {0 setgray} bind def
/col0 {0.000 0.000 0.000 srgb} bind def
/col7 {1.000 1.000 1.000 srgb} bind def

end

/cp {closepath} bind def
/ef {eofill} bind def
/gr {grestore} bind def
/gs {gsave} bind def
/sa {save} bind def
/rs {restore} bind def
/l {lineto} bind def
/m {moveto} bind def
/rm {rmoveto} bind def
/n {newpath} bind def
/s {stroke} bind def
/sh {show} bind def
/slc {setlinecap} bind def
/slj {setlinejoin} bind def
/slw {setlinewidth} bind def
/srgb {setrgbcolor} bind def
/rot {rotate} bind def
/sc {scale} bind def
/sd {setdash} bind def
/ff {findfont} bind def
/sf {setfont} bind def
/scf {scalefont} bind def
/sw {stringwidth} bind def
/tr {translate} bind def
/tnt {dup dup currentrgbcolor
  4 -2 roll dup 1 exch sub 3 -1 roll mul add
  4 -2 roll dup 1 exch sub 3 -1 roll mul add
  4 -2 roll dup 1 exch sub 3 -1 roll mul add srgb}
  bind def
/shd {dup dup currentrgbcolor 4 -2 roll mul 4 -2 roll mul
  4 -2 roll mul srgb} bind def
/$F2psBegin {$F2psDict begin /$F2psEnteredState save def} def
/$F2psEnd {$F2psEnteredState restore end} def

/pageheader {
save
newpath 0 594 moveto 0 0 lineto 926 0 lineto 926 594 lineto closepath clip newpath
-7.0 603.7 translate
1 -1 scale
$F2psBegin
10 setmiterlimit
0 slj 0 slc
 0.06000 0.06000 sc
} bind def
/pagefooter {
$F2psEnd
restore
} bind def
%%EndProlog
pageheader
%
% Fig objects follow
%
% 
% here starts figure with depth 50
/Helvetica-Bold ff 233.33 scf sf
5700 2475 m
gs 1 -1 sc (Job Scheduling) dup sw pop 2 div neg 0 rm  col0 sh gr
% Polyline
0 slj
0 slc
7.500 slw
n 12000 4200 m
 12000 9450 l gs col0 s gr 
% Polyline
gs  clippath
3307 3443 m 3307 3457 l 3139 3510 l 3289 3450 l 3139 3390 l cp
eoclip
n 2100 3450 m
 3300 3450 l gs col0 s gr gr

% arrowhead
n 3139 3390 m 3289 3450 l 3139 3510 l  col0 s
% Polyline
gs  clippath
7657 3443 m 7657 3457 l 7489 3510 l 7639 3450 l 7489 3390 l cp
eoclip
n 6000 3450 m
 7650 3450 l gs col0 s gr gr

% arrowhead
n 7489 3390 m 7639 3450 l 7489 3510 l  col0 s
% Polyline
gs  clippath
12307 2707 m 12293 2707 l 12240 2539 l 12300 2689 l 12360 2539 l cp
eoclip
n 9750 1875 m 12300 1875 l
 12300 2700 l gs col0 s gr gr

% arrowhead
n 12360 2539 m 12300 2689 l 12240 2539 l  col0 s
% Polyline
gs  clippath
11257 3443 m 11257 3457 l 11089 3510 l 11239 3450 l 11089 3390 l cp
eoclip
n 9750 3450 m
 11250 3450 l gs col0 s gr gr

% arrowhead
n 11089 3390 m 11239 3450 l 11089 3510 l  col0 s
% Polyline
gs  clippath
9743 5557 m 9743 5543 l 9911 5490 l 9761 5550 l 9911 5610 l cp
eoclip
n 12000 5550 m
 9750 5550 l gs col0 s gr gr

% arrowhead
n 9911 5610 m 9761 5550 l 9911 5490 l  col0 s
% Polyline
gs  clippath
9743 6532 m 9743 6518 l 9911 6465 l 9761 6525 l 9911 6585 l cp
eoclip
n 12000 6525 m
 9750 6525 l gs col0 s gr gr

% arrowhead
n 9911 6585 m 9761 6525 l 9911 6465 l  col0 s
% Polyline
gs  clippath
9743 7507 m 9743 7493 l 9911 7440 l 9761 7500 l 9911 7560 l cp
eoclip
n 12000 7500 m
 9750 7500 l gs col0 s gr gr

% arrowhead
n 9911 7560 m 9761 7500 l 9911 7440 l  col0 s
% Polyline
gs  clippath
9743 8482 m 9743 8468 l 9911 8415 l 9761 8475 l 9911 8535 l cp
eoclip
n 12000 8475 m
 9750 8475 l gs col0 s gr gr

% arrowhead
n 9911 8535 m 9761 8475 l 9911 8415 l  col0 s
% Polyline
gs  clippath
9743 9457 m 9743 9443 l 9911 9390 l 9761 9450 l 9911 9510 l cp
eoclip
n 12000 9450 m
 9750 9450 l gs col0 s gr gr

% arrowhead
n 9911 9510 m 9761 9450 l 9911 9390 l  col0 s
% Polyline
gs  clippath
7043 8482 m 7043 8468 l 7211 8415 l 7061 8475 l 7211 8535 l cp
eoclip
n 7650 8475 m
 7050 8475 l gs col0 s gr gr

% arrowhead
n 7211 8535 m 7061 8475 l 7211 8415 l  col0 s
% Polyline
gs  clippath
7043 7507 m 7043 7493 l 7211 7440 l 7061 7500 l 7211 7560 l cp
eoclip
n 7650 7500 m
 7050 7500 l gs col0 s gr gr

% arrowhead
n 7211 7560 m 7061 7500 l 7211 7440 l  col0 s
% Polyline
gs  clippath
7043 6532 m 7043 6518 l 7211 6465 l 7061 6525 l 7211 6585 l cp
eoclip
n 7650 6525 m
 7050 6525 l gs col0 s gr gr

% arrowhead
n 7211 6585 m 7061 6525 l 7211 6465 l  col0 s
% Polyline
gs  clippath
7043 5557 m 7043 5543 l 7211 5490 l 7061 5550 l 7211 5610 l cp
eoclip
n 7650 5550 m
 7050 5550 l gs col0 s gr gr

% arrowhead
n 7211 5610 m 7061 5550 l 7211 5490 l  col0 s
% Polyline
gs  clippath
7043 3443 m 7057 3443 l 7110 3611 l 7050 3461 l 6990 3611 l cp
eoclip
n 7050 9450 m
 7050 3450 l gs col0 s gr gr

% arrowhead
n 6990 3611 m 7050 3461 l 7110 3611 l  col0 s
% Polyline
gs  clippath
7043 9457 m 7043 9443 l 7211 9390 l 7061 9450 l 7211 9510 l cp
eoclip
n 7650 9450 m
 7050 9450 l gs col0 s gr gr

% arrowhead
n 7211 9510 m 7061 9450 l 7211 9390 l  col0 s
% Polyline
gs  clippath
13432 3443 m 13432 3457 l 13264 3510 l 13414 3450 l 13264 3390 l cp
eoclip
n 12750 3450 m
 13425 3450 l gs col0 s gr gr

% arrowhead
n 13264 3390 m 13414 3450 l 13264 3510 l  col0 s
% Polyline
gs  clippath
7043 4582 m 7043 4568 l 7211 4515 l 7061 4575 l 7211 4635 l cp
eoclip
n 7650 4575 m
 7050 4575 l gs col0 s gr gr

% arrowhead
n 7211 4635 m 7061 4575 l 7211 4515 l  col0 s
% Polyline
gs  clippath
9743 4582 m 9743 4568 l 9911 4515 l 9761 4575 l 9911 4635 l cp
eoclip
n 12000 4575 m
 9750 4575 l gs col0 s gr gr

% arrowhead
n 9911 4635 m 9761 4575 l 9911 4515 l  col0 s
% Polyline
n 7650 4200 m 9750 4200 l 9750 4950 l 7650 4950 l
 cp gs col0 s gr 
% Polyline
n 150 2700 m 2100 2700 l 2100 4200 l 150 4200 l
 cp gs col0 s gr 
% Polyline
gs  clippath
7657 1868 m 7657 1882 l 7489 1935 l 7639 1875 l 7489 1815 l cp
eoclip
n 11700 2700 m 11700 2475 l 7050 2475 l 7050 1875 l
 7650 1875 l gs col0 s gr gr

% arrowhead
n 7489 1815 m 7639 1875 l 7489 1935 l  col0 s
% Polyline
 [60] 0 sd
n 6675 1050 m 10650 1050 l 10650 10050 l 6675 10050 l
 cp gs col0 s gr  [] 0 sd
% Polyline
n 3300 3000 m 6000 3000 l 6000 3900 l 3300 3900 l
 cp gs col0 s gr 
% Polyline
n 11250 2700 m 12750 2700 l 12750 4200 l 11250 4200 l
 cp gs col0 s gr 
% Polyline
n 13425 3075 m 15525 3075 l 15525 3825 l 13425 3825 l
 cp gs col0 s gr 
% Polyline
n 7650 3075 m 9750 3075 l 9750 3825 l 7650 3825 l
 cp gs col0 s gr 
% Polyline
n 7650 6150 m 9750 6150 l 9750 6900 l 7650 6900 l
 cp gs col0 s gr 
% Polyline
n 7650 7125 m 9750 7125 l 9750 7875 l 7650 7875 l
 cp gs col0 s gr 
% Polyline
n 7650 8100 m 9750 8100 l 9750 8850 l 7650 8850 l
 cp gs col0 s gr 
% Polyline
n 7650 9075 m 9750 9075 l 9750 9825 l 7650 9825 l
 cp gs col0 s gr 
% Polyline
n 7650 1500 m 9750 1500 l 9750 2250 l 7650 2250 l
 cp gs col0 s gr 
% Polyline
n 7650 5175 m 9750 5175 l 9750 5925 l 7650 5925 l
 cp gs col0 s gr 
% Polyline
n 3225 2925 m 3375 2775 l 5475 2775 l 5700 2550 l 5925 2775 l 9750 2775 l

 9900 2925 l gs col0 s gr 
/Helvetica-Bold ff 233.33 scf sf
8700 4650 m
gs 1 -1 sc (I/O Wait Queue) dup sw pop 2 div neg 0 rm  col0 sh gr
/Helvetica-Bold ff 233.33 scf sf
1125 3825 m
gs 1 -1 sc (block\)) dup sw pop 2 div neg 0 rm  col0 sh gr
/Helvetica-Bold ff 233.33 scf sf
1125 3525 m
gs 1 -1 sc (\(process control) dup sw pop 2 div neg 0 rm  col0 sh gr
/Helvetica-Bold ff 233.33 scf sf
1125 3150 m
gs 1 -1 sc (New Process) dup sw pop 2 div neg 0 rm  col0 sh gr
/Helvetica-Bold ff 233.33 scf sf
8625 1275 m
gs 1 -1 sc (Main Memory) dup sw pop 2 div neg 0 rm  col0 sh gr
/Helvetica ff 166.67 scf sf
8700 1425 m
gs 1 -1 sc (\(512k\)) dup sw pop 2 div neg 0 rm  col0 sh gr
/Helvetica-Bold ff 233.33 scf sf
4650 3675 m
gs 1 -1 sc (\(FIFO\)) dup sw pop 2 div neg 0 rm  col0 sh gr
/Helvetica-Bold ff 233.33 scf sf
4650 3375 m
gs 1 -1 sc (Job Scheduling Queue) dup sw pop 2 div neg 0 rm  col0 sh gr
/Helvetica-Bold ff 233.33 scf sf
12000 3525 m
gs 1 -1 sc (CPU) dup sw pop 2 div neg 0 rm  col0 sh gr
/Helvetica-Bold ff 233.33 scf sf
14475 3525 m
gs 1 -1 sc (Finished List) dup sw pop 2 div neg 0 rm  col0 sh gr
/Helvetica-Bold ff 233.33 scf sf
8700 3375 m
gs 1 -1 sc (Ready Queue) dup sw pop 2 div neg 0 rm  col0 sh gr
/Helvetica-Bold ff 233.33 scf sf
8700 3675 m
gs 1 -1 sc (\(level 1\) \(FIFO\)) dup sw pop 2 div neg 0 rm  col0 sh gr
/Helvetica-Bold ff 233.33 scf sf
8700 1800 m
gs 1 -1 sc (Ready Queue) dup sw pop 2 div neg 0 rm  col0 sh gr
/Helvetica-Bold ff 233.33 scf sf
8700 2100 m
gs 1 -1 sc (\(level 2\) \(FIFO\)) dup sw pop 2 div neg 0 rm  col0 sh gr
/Helvetica-Bold ff 233.33 scf sf
8700 5475 m
gs 1 -1 sc (Semaphore Wait) dup sw pop 2 div neg 0 rm  col0 sh gr
/Helvetica-Bold ff 233.33 scf sf
8700 5775 m
gs 1 -1 sc (Queue 0) dup sw pop 2 div neg 0 rm  col0 sh gr
/Helvetica-Bold ff 233.33 scf sf
8700 6750 m
gs 1 -1 sc (Queue 1) dup sw pop 2 div neg 0 rm  col0 sh gr
/Helvetica-Bold ff 233.33 scf sf
8700 6450 m
gs 1 -1 sc (Semaphore Wait) dup sw pop 2 div neg 0 rm  col0 sh gr
/Helvetica-Bold ff 233.33 scf sf
8700 7725 m
gs 1 -1 sc (Queue 2) dup sw pop 2 div neg 0 rm  col0 sh gr
/Helvetica-Bold ff 233.33 scf sf
8700 7425 m
gs 1 -1 sc (Semaphore Wait) dup sw pop 2 div neg 0 rm  col0 sh gr
/Helvetica-Bold ff 233.33 scf sf
8700 8700 m
gs 1 -1 sc (Queue 3) dup sw pop 2 div neg 0 rm  col0 sh gr
/Helvetica-Bold ff 233.33 scf sf
8700 8400 m
gs 1 -1 sc (Semaphore Wait) dup sw pop 2 div neg 0 rm  col0 sh gr
/Helvetica-Bold ff 233.33 scf sf
8700 9675 m
gs 1 -1 sc (Queue 4) dup sw pop 2 div neg 0 rm  col0 sh gr
/Helvetica-Bold ff 233.33 scf sf
8700 9375 m
gs 1 -1 sc (Semaphore Wait) dup sw pop 2 div neg 0 rm  col0 sh gr
/Helvetica-Bold ff 233.33 scf sf
9525 375 m
gs 1 -1 sc (Process Scheduling) dup sw pop 2 div neg 0 rm  col0 sh gr
% Polyline
n 6675 918 m 6833 760 l 9436 760 l 9673 525 l 9910 760 l 12592 760 l

 12750 918 l gs col0 s gr 
% here ends figure;
pagefooter
showpage
%%Trailer
%EOF
